{
  "total": 1049722,
  "offset": 0,
  "next": 5,
  "data": [
    {
      "paperId": "a8ca46b171467ceb2d7652fbfb67fe701ad86092",
      "url": "https://www.semanticscholar.org/paper/a8ca46b171467ceb2d7652fbfb67fe701ad86092",
      "title": "LoRA: Low-Rank Adaptation of Large Language Models",
      "year": 2021,
      "openAccessPdf": {
        "url": "",
        "status": null,
        "license": null,
        "disclaimer": "Notice: Paper or abstract available at https://arxiv.org/abs/2106.09685, which is subject to the license by the author or copyright owner provided with this content. Please go to the source to verify the license and copyright information for your use."
      },
      "authors": [
        {
          "authorId": "2157840220",
          "name": "J. E. Hu"
        },
        {
          "authorId": "1752875",
          "name": "Yelong Shen"
        },
        {
          "authorId": "104100507",
          "name": "Phillip Wallis"
        },
        {
          "authorId": "1388725932",
          "name": "Zeyuan Allen-Zhu"
        },
        {
          "authorId": "2110486765",
          "name": "Yuanzhi Li"
        },
        {
          "authorId": "2135571585",
          "name": "Shean Wang"
        },
        {
          "authorId": "2109136147",
          "name": "Weizhu Chen"
        }
      ],
      "abstract": "An important paradigm of natural language processing consists of large-scale pre-training on general domain data and adaptation to particular tasks or domains. As we pre-train larger models, full fine-tuning, which retrains all model parameters, becomes less feasible. Using GPT-3 175B as an example -- deploying independent instances of fine-tuned models, each with 175B parameters, is prohibitively expensive. We propose Low-Rank Adaptation, or LoRA, which freezes the pre-trained model weights and injects trainable rank decomposition matrices into each layer of the Transformer architecture, greatly reducing the number of trainable parameters for downstream tasks. Compared to GPT-3 175B fine-tuned with Adam, LoRA can reduce the number of trainable parameters by 10,000 times and the GPU memory requirement by 3 times. LoRA performs on-par or better than fine-tuning in model quality on RoBERTa, DeBERTa, GPT-2, and GPT-3, despite having fewer trainable parameters, a higher training throughput, and, unlike adapters, no additional inference latency. We also provide an empirical investigation into rank-deficiency in language model adaptation, which sheds light on the efficacy of LoRA. We release a package that facilitates the integration of LoRA with PyTorch models and provide our implementations and model checkpoints for RoBERTa, DeBERTa, and GPT-2 at https://github.com/microsoft/LoRA."
    },
    {
      "paperId": "2f609099c16f84861bb18bdedf784d13d9610cc1",
      "url": "https://www.semanticscholar.org/paper/2f609099c16f84861bb18bdedf784d13d9610cc1",
      "title": "Climate Change 2022 – Impacts, Adaptation and Vulnerability",
      "year": 2023,
      "openAccessPdf": {
        "url": "https://www.cambridge.org/core/services/aop-cambridge-core/content/view/ED03547F55DC52E331FE751F53C8709F/stamped-9781009325837pre1_i-ii.pdf/frontmatter.pdf",
        "status": "BRONZE",
        "license": null,
        "disclaimer": "Notice: Paper or abstract available at https://api.unpaywall.org/v2/10.1017/9781009325844?email=<INSERT_YOUR_EMAIL> or https://doi.org/10.1017/9781009325844, which is subject to the license by the author or copyright owner provided with this content. Please go to the source to verify the license and copyright information for your use."
      },
      "authors": [
        {
          "authorId": "2233104413",
          "name": "Dr. Kirstin K. Holsman"
        }
      ],
      "abstract": "The Working Group II contribution to the Sixth Assessment Report of the Intergovernmental Panel on Climate Change (IPCC) provides a comprehensive assessment of the scientific literature relevant to climate change impacts, adaptation and vulnerability. The report recognizes the interactions of climate, ecosystems and biodiversity, and human societies, and integrates across the natural, ecological, social and economic sciences. It emphasizes how efforts in adaptation and in reducing greenhouse gas emissions can come together in a process called climate resilient development, which enables a liveable future for biodiversity and humankind. The IPCC is the leading body for assessing climate change science. IPCC reports are produced in comprehensive, objective and transparent ways, ensuring they reflect the full range of views in the scientific literature. Novel elements include focused topical assessments, and an atlas presenting observed climate change impacts and future risks from global to regional scales. Available as Open Access on Cambridge Core."
    },
    {
      "paperId": "345afa0e85cb2f5cb438ae44027499ff2c392409",
      "url": "https://www.semanticscholar.org/paper/345afa0e85cb2f5cb438ae44027499ff2c392409",
      "title": "Adversarial Discriminative Domain Adaptation",
      "year": 2017,
      "openAccessPdf": {
        "url": "https://arxiv.org/pdf/1702.05464",
        "status": "GREEN",
        "license": null,
        "disclaimer": "Notice: Paper or abstract available at https://arxiv.org/abs/1702.05464, which is subject to the license by the author or copyright owner provided with this content. Please go to the source to verify the license and copyright information for your use."
      },
      "authors": [
        {
          "authorId": "2368132",
          "name": "Eric Tzeng"
        },
        {
          "authorId": "50196944",
          "name": "Judy Hoffman"
        },
        {
          "authorId": "2903226",
          "name": "Kate Saenko"
        },
        {
          "authorId": "1753210",
          "name": "Trevor Darrell"
        }
      ],
      "abstract": "Adversarial learning methods are a promising approach to training robust deep networks, and can generate complex samples across diverse domains. They can also improve recognition despite the presence of domain shift or dataset bias: recent adversarial approaches to unsupervised domain adaptation reduce the difference between the training and test domain distributions and thus improve generalization performance. However, while generative adversarial networks (GANs) show compelling visualizations, they are not optimal on discriminative tasks and can be limited to smaller shifts. On the other hand, discriminative approaches can handle larger domain shifts, but impose tied weights on the model and do not exploit a GAN-based loss. In this work, we first outline a novel generalized framework for adversarial adaptation, which subsumes recent state-of-the-art approaches as special cases, and use this generalized view to better relate prior approaches. We then propose a previously unexplored instance of our general framework which combines discriminative modeling, untied weight sharing, and a GAN loss, which we call Adversarial Discriminative Domain Adaptation (ADDA). We show that ADDA is more effective yet considerably simpler than competing domain-adversarial methods, and demonstrate the promise of our approach by exceeding state-of-the-art unsupervised adaptation results on standard domain adaptation tasks as well as a difficult cross-modality object classification task."
    },
    {
      "paperId": "c889d6f98e6d79b89c3a6adf8a921f88fa6ba518",
      "url": "https://www.semanticscholar.org/paper/c889d6f98e6d79b89c3a6adf8a921f88fa6ba518",
      "title": "Model-Agnostic Meta-Learning for Fast Adaptation of Deep Networks",
      "year": 2017,
      "openAccessPdf": {
        "url": "",
        "status": null,
        "license": null,
        "disclaimer": "Notice: Paper or abstract available at https://arxiv.org/abs/1703.03400, which is subject to the license by the author or copyright owner provided with this content. Please go to the source to verify the license and copyright information for your use."
      },
      "authors": [
        {
          "authorId": "46881670",
          "name": "Chelsea Finn"
        },
        {
          "authorId": "1689992",
          "name": "P. Abbeel"
        },
        {
          "authorId": "1736651",
          "name": "S. Levine"
        }
      ],
      "abstract": "We propose an algorithm for meta-learning that is model-agnostic, in the sense that it is compatible with any model trained with gradient descent and applicable to a variety of different learning problems, including classification, regression, and reinforcement learning. The goal of meta-learning is to train a model on a variety of learning tasks, such that it can solve new learning tasks using only a small number of training samples. In our approach, the parameters of the model are explicitly trained such that a small number of gradient steps with a small amount of training data from a new task will produce good generalization performance on that task. In effect, our method trains the model to be easy to fine-tune. We demonstrate that this approach leads to state-of-the-art performance on two few-shot image classification benchmarks, produces good results on few-shot regression, and accelerates fine-tuning for policy gradient reinforcement learning with neural network policies."
    },
    {
      "paperId": "7340f090f8a0df5b109682e9f6d57e4b8ca1a2f7",
      "url": "https://www.semanticscholar.org/paper/7340f090f8a0df5b109682e9f6d57e4b8ca1a2f7",
      "title": "Learning Transferable Features with Deep Adaptation Networks",
      "year": 2015,
      "openAccessPdf": {
        "url": "",
        "status": null,
        "license": null,
        "disclaimer": "Notice: Paper or abstract available at https://arxiv.org/abs/1502.02791, which is subject to the license by the author or copyright owner provided with this content. Please go to the source to verify the license and copyright information for your use."
      },
      "authors": [
        {
          "authorId": "35776445",
          "name": "Mingsheng Long"
        },
        {
          "authorId": "2146174097",
          "name": "Yue Cao"
        },
        {
          "authorId": "2144499343",
          "name": "Jianmin Wang"
        },
        {
          "authorId": "1694621",
          "name": "Michael I. Jordan"
        }
      ],
      "abstract": "Recent studies reveal that a deep neural network can learn transferable features which generalize well to novel tasks for domain adaptation. However, as deep features eventually transition from general to specific along the network, the feature transferability drops significantly in higher layers with increasing domain discrepancy. Hence, it is important to formally reduce the dataset bias and enhance the transferability in task-specific layers. In this paper, we propose a new Deep Adaptation Network (DAN) architecture, which generalizes deep convolutional neural network to the domain adaptation scenario. In DAN, hidden representations of all task-specific layers are embedded in a reproducing kernel Hilbert space where the mean embeddings of different domain distributions can be explicitly matched. The domain discrepancy is further reduced using an optimal multikernel selection method for mean embedding matching. DAN can learn transferable features with statistical guarantees, and can scale linearly by unbiased estimate of kernel embedding. Extensive empirical evidence shows that the proposed architecture yields state-of-the-art image classification error rates on standard domain adaptation benchmarks."
    }
  ]
}