{
  "total": 1423124,
  "offset": 0,
  "next": 3,
  "data": [
    {
      "paperId": "8f2184215c1b45a25a588f3fba6f35e27d573a15",
      "url": "https://www.semanticscholar.org/paper/8f2184215c1b45a25a588f3fba6f35e27d573a15",
      "title": "Aerobic glycolysis is the predominant means of glucose metabolism in neuronal somata, which protects against oxidative damage",
      "year": 2023,
      "openAccessPdf": {
        "url": "",
        "status": "CLOSED",
        "license": null,
        "disclaimer": "Notice: The following paper fields have been elided by the publisher: {'abstract'}. Paper or abstract available at https://api.unpaywall.org/v2/10.1038/s41593-023-01476-4?email=<INSERT_YOUR_EMAIL> or https://doi.org/10.1038/s41593-023-01476-4, which is subject to the license by the author or copyright owner provided with this content. Please go to the source to verify the license and copyright information for your use."
      },
      "authors": [
        {
          "authorId": "2268175509",
          "name": "Yao Wei"
        },
        {
          "authorId": "2268046660",
          "name": "QianQian Miao"
        },
        {
          "authorId": "2268822946",
          "name": "Qian Zhang"
        },
        {
          "authorId": "2268039982",
          "name": "Shiyu Mao"
        },
        {
          "authorId": "2268053075",
          "name": "Mengke Li"
        },
        {
          "authorId": "2152776193",
          "name": "Xing Xu"
        },
        {
          "authorId": "2268255624",
          "name": "Xian Xia"
        },
        {
          "authorId": "2268042108",
          "name": "Ke Wei"
        },
        {
          "authorId": "2268828350",
          "name": "Yu Fan"
        },
        {
          "authorId": "2268179307",
          "name": "Xinlei Zheng"
        },
        {
          "authorId": "2256294104",
          "name": "Yinquan Fang"
        },
        {
          "authorId": "2268042226",
          "name": "Meng Mei"
        },
        {
          "authorId": "2268801046",
          "name": "Qingyu Zhang"
        },
        {
          "authorId": "2240918749",
          "name": "Jianhua Ding"
        },
        {
          "authorId": "2218505953",
          "name": "Yi Fan"
        },
        {
          "authorId": "144807644",
          "name": "Ming Lu"
        },
        {
          "authorId": "2154731119",
          "name": "Gang Hu"
        }
      ],
      "abstract": null
    },
    {
      "paperId": "c95a3e7db4a2b37137639563292651617670b082",
      "url": "https://www.semanticscholar.org/paper/c95a3e7db4a2b37137639563292651617670b082",
      "title": "Effects of Probiotic Supplementation on Exercise with Predominance of Aerobic Metabolism in Trained Population: A Systematic Review, Meta-Analysis and Meta-Regression",
      "year": 2022,
      "openAccessPdf": {
        "url": "https://www.mdpi.com/2072-6643/14/3/622/pdf?version=1644241915",
        "status": "GOLD",
        "license": "CCBY",
        "disclaimer": "Notice: Paper or abstract available at https://pmc.ncbi.nlm.nih.gov/articles/PMC8840281, which is subject to the license by the author or copyright owner provided with this content. Please go to the source to verify the license and copyright information for your use."
      },
      "authors": [
        {
          "authorId": "2151918804",
          "name": "Asier Santibañez-Gutierrez"
        },
        {
          "authorId": "1411661251",
          "name": "Julen Fernández-Landa"
        },
        {
          "authorId": "1398303686",
          "name": "J. Calleja-González"
        },
        {
          "authorId": "4462754",
          "name": "A. Delextrat"
        },
        {
          "authorId": "1398474077",
          "name": "J. Mielgo-Ayuso"
        }
      ],
      "abstract": "The scientific literature about probiotic intake and its effect on sports performance is growing. Therefore, the main aim of this systematic review, meta-analysis and meta-regression was to review all information about the effects of probiotic supplementation on performance tests with predominance of aerobic metabolism in trained populations (athletes and/or Division I players and/or trained population: ≥8 h/week and/or ≥5 workouts/week). A structured search was performed in accordance with the Preferred Reporting Items for Systematic Reviews and Meta-Analyses (PRISMA®) statement and PICOS guidelines in PubMed/MEDLINE, Web of Science (WOS), and Scopus international databases from inception to 1 November 2021. Studies involving probiotic supplementation in trained population and execution of performance test with aerobic metabolism predominance (test lasted more than 5 min) were considered for inclusion. Fifteen articles were included in the final systematic review (in total, 388 participants were included). After 3 studies were removed due to a lack of data for the meta-analysis and meta-regression, 12 studies with 232 participants were involved. With the objective of assessing the risk of bias of included studies, Cochrane Collaboration Guidelines and the Physiotherapy Evidence Database (PEDro) scale were performed. For all included studies the following data was extracted: authors, year of publication, study design, the size of the sample, probiotic administration (dose and time), and characteristics of participants. The random effects model and pooled standardized mean differences (SMDs) were used according to Hedges’ g for the meta-analysis. In order to determine if dose and duration covariates could predict probiotic effects, a meta-regression was also conducted. Results showed a small positive and significant effect on the performance test with aerobic metabolic predominance (SMD = 0.29; CI = 0.08–0.50; p < 0.05). Moreover, the subgroup analysis displayed significant greater benefits when the dose was ≥30 × 109 colony forming units (CFU) (SMD, 0.47; CI, 0.05 to 0.89; p < 0.05), when supplementation duration was ≤4 weeks (SMD, 0.44; CI, 0.05 to 0.84; p < 0.05), when single strain probiotics were used (SMD, 0.33; CI, 0.06 to 0.60; p < 0.05), when participants were males (SMD, 0.30; CI, 0.04 to 0.56; p < 0.05), and when the test was performed to exhaustion (SMD, 0.45; CI, 0.05 to 0.48; p < 0.05). However, with references to the findings of the meta-regression, selected covariates did not predict probiotic effects in highly trained population. In summary, the current systematic review and meta-analysis supported the potential effects of probiotics supplementation to improve performance in a test in which aerobic metabolism is predominant in trained population. However, more research is needed to fully understand the mechanisms of action of this supplement."
    },
    {
      "paperId": "acb3f4d8ea40a8ae6f2279f1483a36856e0cee8d",
      "url": "https://www.semanticscholar.org/paper/acb3f4d8ea40a8ae6f2279f1483a36856e0cee8d",
      "title": "Effect of prenatal glucocorticoids and thyroid hormones on developmental plasticity of mitochondrial aerobic metabolism, growth and survival: an experimental test in wild great tits",
      "year": 2022,
      "openAccessPdf": {
        "url": "https://doi.org/10.1242/jeb.243414",
        "status": "HYBRID",
        "license": "CCBY",
        "disclaimer": "Notice: Paper or abstract available at https://pmc.ncbi.nlm.nih.gov/articles/PMC10216743, which is subject to the license by the author or copyright owner provided with this content. Please go to the source to verify the license and copyright information for your use."
      },
      "authors": [
        {
          "authorId": "1697953774",
          "name": "N. Cossin-Sevrin"
        },
        {
          "authorId": "25101110",
          "name": "Bin-Yan Hsu"
        },
        {
          "authorId": "51099922",
          "name": "Coline Marciau"
        },
        {
          "authorId": "6713028",
          "name": "Vincent A. Viblanc"
        },
        {
          "authorId": "6149229",
          "name": "S. Ruuskanen"
        },
        {
          "authorId": "48480559",
          "name": "A. Stier"
        }
      ],
      "abstract": "ABSTRACT Developmental plasticity is partly mediated by transgenerational effects, including those mediated by the maternal endocrine system. Glucocorticoid and thyroid hormones may play central roles in developmental programming through their action on metabolism and growth. However, the mechanisms by which they affect growth and development remain understudied. One hypothesis is that maternal hormones directly affect the production and availability of energy-carrying molecules (e.g. ATP) by their action on mitochondrial function. To test this hypothesis, we experimentally increased glucocorticoid and thyroid hormones in wild great tit eggs (Parus major) to investigate their impact on offspring mitochondrial aerobic metabolism (measured in blood cells), and subsequent growth and survival. We show that prenatal glucocorticoid supplementation affected offspring cellular aerobic metabolism by decreasing mitochondrial density, maximal mitochondrial respiration and oxidative phosphorylation, while increasing the proportion of the maximum capacity being used under endogenous conditions. Prenatal glucocorticoid supplementation only had mild effects on offspring body mass, size and condition during the rearing period, but led to a sex-specific (females only) decrease in body mass a few months after fledging. Contrary to our expectations, thyroid hormone supplementation did not affect offspring growth or mitochondrial metabolism. Recapture probability as juveniles or adults was not significantly affected by prenatal hormonal treatment. Our results demonstrate that prenatal glucocorticoids can affect post-natal mitochondrial density and aerobic metabolism. The weak effects on growth and apparent survival suggest that nestlings were mostly able to compensate for the transient decrease in mitochondrial aerobic metabolism induced by prenatal glucocorticoids."
    }
  ]
}