{
  "total": 3117871,
  "offset": 0,
  "next": 5,
  "data": [
    {
      "paperId": "913dedc09d9f13562f9d5878a0d150d8d7fd2a69",
      "url": "https://www.semanticscholar.org/paper/913dedc09d9f13562f9d5878a0d150d8d7fd2a69",
      "title": "Reduced maximal aerobic capacity after COVID-19 in young adult recruits, Switzerland, May 2020",
      "year": 2020,
      "openAccessPdf": {
        "url": "https://www.eurosurveillance.org/deliver/fulltext/eurosurveillance/25/36/eurosurv-25-36-2.pdf?itemId=%2Fcontent%2F10.2807%2F1560-7917.ES.2020.25.36.2001542&mimeType=pdf&containerItemId=content/eurosurveillance",
        "status": "GOLD",
        "license": "CCBY",
        "disclaimer": "Notice: Paper or abstract available at https://pmc.ncbi.nlm.nih.gov/articles/PMC7502899, which is subject to the license by the author or copyright owner provided with this content. Please go to the source to verify the license and copyright information for your use."
      },
      "authors": [
        {
          "authorId": "103343308",
          "name": "Giovanni A G Crameri"
        },
        {
          "authorId": "1781125130",
          "name": "Michel Bielecki"
        },
        {
          "authorId": "3125833",
          "name": "Roland Züst"
        },
        {
          "authorId": "1781188829",
          "name": "T. Buehrer"
        },
        {
          "authorId": "5047243",
          "name": "Z. Stanga"
        },
        {
          "authorId": "5822508",
          "name": "J. Deuel"
        }
      ],
      "abstract": "In March 2020, we observed an outbreak of COVID-19 among a relatively homogenous group of 199 young (median age 21 years; 87% men) Swiss recruits. By comparing physical endurance before and in median 45 days after the outbreak, we found a significant decrease in predicted maximal aerobic capacity in COVID-19 convalescent but not in asymptomatically infected and SARS-CoV-2 naive recruits. This finding might be indicative of lung injury after apparently mild COVID-19 in young adults."
    },
    {
      "paperId": "bb5bedc9231d3c82b82f2df4ff7e3b182362090a",
      "url": "https://www.semanticscholar.org/paper/bb5bedc9231d3c82b82f2df4ff7e3b182362090a",
      "title": "Nicotinamide mononucleotide supplementation enhances aerobic capacity in amateur runners: a randomized, double-blind study",
      "year": 2021,
      "openAccessPdf": {
        "url": "https://jissn.biomedcentral.com/track/pdf/10.1186/s12970-021-00442-4",
        "status": "GOLD",
        "license": "CCBY",
        "disclaimer": "Notice: Paper or abstract available at https://pmc.ncbi.nlm.nih.gov/articles/PMC8265078, which is subject to the license by the author or copyright owner provided with this content. Please go to the source to verify the license and copyright information for your use."
      },
      "authors": [
        {
          "authorId": "32431358",
          "name": "Bagen Liao"
        },
        {
          "authorId": "2210834783",
          "name": "Yun-Hu Zhao"
        },
        {
          "authorId": "2155680854",
          "name": "Dan Wang"
        },
        {
          "authorId": "2108187557",
          "name": "Xiaowen Zhang"
        },
        {
          "authorId": "31255139",
          "name": "Xuanming Hao"
        },
        {
          "authorId": "2089109737",
          "name": "Min Hu"
        }
      ],
      "abstract": "Background Recent studies in rodents indicate that a combination of exercise training and supplementation with nicotinamide adenine dinucleotide (NAD + ) precursors has synergistic effects. However, there are currently no human clinical trials analyzing this. Objective This study investigates the effects of a combination of exercise training and supplementation with nicotinamide mononucleotide (NMN), the immediate precursor of NAD + , on cardiovascular fitness in healthy amateur runners. Methods A six-week randomized, double-blind, placebo-controlled, four-arm clinical trial including 48 young and middle-aged recreationally trained runners of the Guangzhou Pearl River running team was conducted. The participants were randomized into four groups: the low dosage group (300 mg/day NMN), the medium dosage group (600 mg/day NMN), the high dosage group (1200 mg/day NMN), and the control group (placebo). Each group consisted of ten male participants and two female participants. Each training session was 40–60 min, and the runners trained 5–6 times each week. Cardiopulmonary exercise testing was performed at baseline and after the intervention, at 6 weeks, to assess the aerobic capacity of the runners. Results Analysis of covariance of the change from baseline over the 6 week treatment showed that the oxygen uptake (VO 2 ), percentages of maximum oxygen uptake (VO 2max) , power at first ventilatory threshold, and power at second ventilatory threshold increased to a higher degree in the medium and high dosage groups compared with the control group. However, there was no difference in VO 2max , O 2 -pulse, VO 2 related to work rate, and peak power after the 6 week treatment from baseline in any of these groups. Conclusion NMN increases the aerobic capacity of humans during exercise training, and the improvement is likely the result of enhanced O 2 utilization of the skeletal muscle. Trial registration number ChiCTR2000035138 ."
    },
    {
      "paperId": "5cd1e3f7664bdd04d0f4d8f27274677d697344b8",
      "url": "https://www.semanticscholar.org/paper/5cd1e3f7664bdd04d0f4d8f27274677d697344b8",
      "title": "EFFECT OF AEROBIC EXERCISE TRAINING WITH AND WITHOUT BLOOD FLOW RESTRICTION ON AEROBIC CAPACITY IN HEALTHY YOUNG ADULTS: A SYSTEMATIC REVIEW WITH META-ANALYSIS.",
      "year": 2020,
      "openAccessPdf": {
        "url": "https://doi.org/10.26603/ijspt20200175",
        "status": "GOLD",
        "license": "CCBYNC",
        "disclaimer": "Notice: Paper or abstract available at https://api.unpaywall.org/v2/10.26603/ijspt20200175?email=<INSERT_YOUR_EMAIL> or https://doi.org/10.26603/ijspt20200175, which is subject to the license by the author or copyright owner provided with this content. Please go to the source to verify the license and copyright information for your use."
      },
      "authors": [
        {
          "authorId": "25852170",
          "name": "M. Formiga"
        },
        {
          "authorId": "1620075882",
          "name": "R. Fay"
        },
        {
          "authorId": "1622643157",
          "name": "Savannah Hutchinson"
        },
        {
          "authorId": "1622634507",
          "name": "Nicholas Locandro"
        },
        {
          "authorId": "2073740283",
          "name": "Ángel Ceballos"
        },
        {
          "authorId": "1622634510",
          "name": "Alexandra Lesh"
        },
        {
          "authorId": "1622642999",
          "name": "Joel Buscheck"
        },
        {
          "authorId": "1622646579",
          "name": "Jacy Meanor"
        },
        {
          "authorId": "40430660",
          "name": "Johnny G. Owens"
        },
        {
          "authorId": "6697130",
          "name": "L. Cahalin"
        }
      ],
      "abstract": "Background\nExercise training (ET) with blood flow restriction (BFR) is becoming increasingly popular, but the majority of BFR ET studies have evaluated skeletal muscle strength and hypertrophy. The favorable effect of BFR ET on skeletal muscle and the vasculature appears to improve aerobic capacity (AC) although conflicting results have been observed.Purpose: The purposes of this systematic review with meta- analysis were to examine the effects of aerobic ET with and without BFR on AC and to compare the effect of low-to-moderate aerobic ET with and without BFR to high-intensity aerobic ET with and without BFR on AC.\n\n\nStudy Design\nSystematic Review with Meta-analysis.\n\n\nMethods\nA comprehensive search for studies examining the effects of aerobic ET with and without BFR on AC was performed. Inclusion criteria were: (a) the study was conducted in healthy individuals, (b) there was random allocation of study participants to training and control groups, (c) BFR was the sole intervention difference between the groups.\n\n\nResults\nA total of seven studies (5 low-to-moderate ET and 2 high-intensity ET) were included in the meta-analysis providing data from 121 subjects. There was a significant standardized mean difference (SMD) of 0.38 (95% CI = 0.01, 0.75) in AC between the BFR and non-BFR groups of all seven studies (z = 2.01; p = 0.04). Separate analyses of the five low-to-moderate aerobic ET studies found similar results with aerobic ET with BFR eliciting a significantly greater AC (z = 2.47; p=0.01) than aerobic ET without BFR (SMD of 0.57; 95% CI = 0.12, 1.01). Separate analyses of the two high-intensity aerobic ET studies with and without BFR found no significant difference in AC between the groups (SMD of - 0.01; 95% CI = - 0.67, 0.64).\n\n\nConclusion\nAerobic ET with BFR elicits a significantly greater AC than aerobic ET without BFR in healthy young adults. However, low-to-moderate intensity aerobic ET with BFR elicited a greater improvement in AC than aerobic ET without BFR while high-intensity aerobic ET with BFR did not elicit an improvement in AC over high-intensity aerobic ET without BFR.\n\n\nLevel of Evidence\n1a."
    },
    {
      "paperId": "81ea43eb6bb497f2ed83a5bde912da78fc7f164c",
      "url": "https://www.semanticscholar.org/paper/81ea43eb6bb497f2ed83a5bde912da78fc7f164c",
      "title": "Central cardiovascular system limits to aerobic capacity",
      "year": 2020,
      "openAccessPdf": {
        "url": "https://www.ncbi.nlm.nih.gov/pmc/articles/PMC8744147",
        "status": "GREEN",
        "license": null,
        "disclaimer": "Notice: Paper or abstract available at https://api.unpaywall.org/v2/10.1113/EP088187?email=<INSERT_YOUR_EMAIL> or https://doi.org/10.1113/EP088187, which is subject to the license by the author or copyright owner provided with this content. Please go to the source to verify the license and copyright information for your use."
      },
      "authors": [
        {
          "authorId": "4475360",
          "name": "M. Joyner"
        },
        {
          "authorId": "6508772",
          "name": "P. Dominelli"
        }
      ],
      "abstract": "What is the topic of this review? The limits to maximal aerobic capacity. What advances does it highlight? A synthesis of data and ideas about what limits maximal aerobic capacity demonstrates the central roles of cardiac output, stroke volume and red blood cell mass in the complex physiological responses to maximal exercise. In healthy humans these factors, along with skeletal muscle blood flow, dominate systemic delivery of oxygen to the contracting muscles and set the upper limit of aerobic energy production by skeletal muscles. In elite athletes and patients with pulmonary disease the lungs can also limit oxygen uptake and delivery."
    },
    {
      "paperId": "bfc1bd844367a90770b562fd1ba6048c9817a02d",
      "url": "https://www.semanticscholar.org/paper/bfc1bd844367a90770b562fd1ba6048c9817a02d",
      "title": "Aerobic capacity and telomere length in human skeletal muscle and leukocytes across the lifespan",
      "year": 2020,
      "openAccessPdf": {
        "url": "https://doi.org/10.18632/aging.102627",
        "status": "GOLD",
        "license": "CCBY",
        "disclaimer": "Notice: Paper or abstract available at https://pmc.ncbi.nlm.nih.gov/articles/PMC6977669, which is subject to the license by the author or copyright owner provided with this content. Please go to the source to verify the license and copyright information for your use."
      },
      "authors": [
        {
          "authorId": "15988959",
          "name": "Danielle Hiam"
        },
        {
          "authorId": "2110281551",
          "name": "Cassandra Smith"
        },
        {
          "authorId": "2052291",
          "name": "S. Voisin"
        },
        {
          "authorId": "29363561",
          "name": "J. Denham"
        },
        {
          "authorId": "144591373",
          "name": "Xu Yan"
        },
        {
          "authorId": "32712399",
          "name": "Shanie Landen"
        },
        {
          "authorId": "12238585",
          "name": "M. Jacques"
        },
        {
          "authorId": "1456728148",
          "name": "Javier Alvarez-Romero"
        },
        {
          "authorId": "32808254",
          "name": "A. Garnham"
        },
        {
          "authorId": "49544587",
          "name": "M. Woessner"
        },
        {
          "authorId": "50301047",
          "name": "M. Herrmann"
        },
        {
          "authorId": "143702662",
          "name": "G. Duque"
        },
        {
          "authorId": "4579872",
          "name": "I. Levinger"
        },
        {
          "authorId": "6430643",
          "name": "N. Eynon"
        }
      ],
      "abstract": "A reduction in aerobic capacity and the shortening of telomeres are hallmarks of the ageing process. We examined whether a lower aerobic capacity is associated with shorter TL in skeletal muscle and/or leukocytes, across a wide age range of individuals. We also tested whether TL in human skeletal muscle (MTL) correlates with TL in leukocytes (LTL). Eighty-two recreationally active, healthy men from the Gene SMART cohort (31.4±8.2 years; body mass index (BMI)=25.3±3.3kg/m2), and 11 community dwelling older men (74.2±7.5years-old; BMI=28.7±2.8kg/m2) participated in the study. Leukocytes and skeletal muscle samples were collected at rest. Relative telomere length (T/S ratio) was measured by RT-PCR. Associations between TL, aerobic capacity (VO2 peak and peak power) and age were assessed with robust linear models. Older age was associated with shorter LTL (45% variance explained, P<0.001), but not MTL (P= 0.7). Aerobic capacity was not associated with MTL (P=0.5), nor LTL (P=0.3). MTL and LTL were correlated across the lifespan (rs=0.26, P=0.03). In healthy individuals, age explain most of the variability of LTL and this appears to be independent of individual aerobic capacity. Individuals with longer LTL also have a longer MTL, suggesting that there might be a shared molecular mechanism regulating telomere length."
    }
  ]
}