{
  "total": 1413371,
  "offset": 0,
  "next": 5,
  "data": [
    {
      "paperId": "ed6a17b396f03c0e54967478e9a1de74db9146fe",
      "url": "https://www.semanticscholar.org/paper/ed6a17b396f03c0e54967478e9a1de74db9146fe",
      "title": "A new method for detecting anaerobic threshold by gas exchange.",
      "year": 1986,
      "openAccessPdf": {
        "url": "",
        "status": "CLOSED",
        "license": null,
        "disclaimer": "Notice: The following paper fields have been elided by the publisher: {'abstract'}. Paper or abstract available at https://api.unpaywall.org/v2/10.1152/JAPPL.1986.60.6.2020?email=<INSERT_YOUR_EMAIL> or https://doi.org/10.1152/JAPPL.1986.60.6.2020, which is subject to the license by the author or copyright owner provided with this content. Please go to the source to verify the license and copyright information for your use."
      },
      "authors": [
        {
          "authorId": "30618837",
          "name": "W. Beaver"
        },
        {
          "authorId": "24078493",
          "name": "K. Wasserman"
        },
        {
          "authorId": "2737425",
          "name": "B. Whipp"
        }
      ],
      "abstract": null
    },
    {
      "paperId": "ebdded86e94344859a681c512d2232fb5e5f69fd",
      "url": "https://www.semanticscholar.org/paper/ebdded86e94344859a681c512d2232fb5e5f69fd",
      "title": "The anaerobic threshold: 50+ years of controversy",
      "year": 2020,
      "openAccessPdf": {
        "url": "https://onlinelibrary.wiley.com/doi/pdfdirect/10.1113/JP279963",
        "status": "BRONZE",
        "license": null,
        "disclaimer": "Notice: Paper or abstract available at https://api.unpaywall.org/v2/10.1113/JP279963?email=<INSERT_YOUR_EMAIL> or https://doi.org/10.1113/JP279963, which is subject to the license by the author or copyright owner provided with this content. Please go to the source to verify the license and copyright information for your use."
      },
      "authors": [
        {
          "authorId": "1708093",
          "name": "D. Poole"
        },
        {
          "authorId": "5787310",
          "name": "H. Rossiter"
        },
        {
          "authorId": "122408892",
          "name": "G. Brooks"
        },
        {
          "authorId": "2011834",
          "name": "L. Gladden"
        }
      ],
      "abstract": "The anaerobic threshold (AT) remains a widely recognized, and contentious, concept in exercise physiology and medicine. As conceived by Karlman Wasserman, the AT coalesced the increase of blood lactate concentration ([La−]), during a progressive exercise test, with an excess pulmonary carbon dioxide output ( V̇CO2 ). Its principal tenets were: limiting oxygen (O2) delivery to exercising muscle→increased glycolysis, La− and H+ production→decreased muscle and blood pH→with increased H+ buffered by blood [HCO3−]→increased CO2 release from blood→increased V̇CO2 and pulmonary ventilation. This schema stimulated scientific scrutiny which challenged the fundamental premise that muscle anoxia was requisite for increased muscle and blood [La−]. It is now recognized that insufficient O2 is not the primary basis for lactataemia. Increased production and utilization of La− represent the response to increased glycolytic flux elicited by increasing work rate, and determine the oxygen uptake ( V̇O2 ) at which La− accumulates in the arterial blood (the lactate threshold; LT). However, the threshold for a sustained non‐oxidative contribution to exercise energetics is the critical power, which occurs at a metabolic rate often far above the LT and separates heavy from very heavy/severe‐intensity exercise. Lactate is now appreciated as a crucial energy source, major gluconeogenic precursor and signalling molecule but there is no ipso facto evidence for muscle dysoxia or anoxia. Non‐invasive estimation of LT using the gas exchange threshold (non‐linear increase of V̇CO2 versus V̇O2 ) remains important in exercise training and in the clinic, but its conceptual basis should now be understood in light of lactate shuttle biology."
    },
    {
      "paperId": "c6760cc8558369dbba2d0cb8a9abf4868be08d2b",
      "url": "https://www.semanticscholar.org/paper/c6760cc8558369dbba2d0cb8a9abf4868be08d2b",
      "title": "Detection of the Anaerobic Threshold in Endurance Sports: Validation of a New Method Using Correlation Properties of Heart Rate Variability",
      "year": 2021,
      "openAccessPdf": {
        "url": "https://www.mdpi.com/2411-5142/6/2/38/pdf?version=1620268195",
        "status": "GOLD",
        "license": "CCBY",
        "disclaimer": "Notice: Paper or abstract available at https://pmc.ncbi.nlm.nih.gov/articles/PMC8167649, which is subject to the license by the author or copyright owner provided with this content. Please go to the source to verify the license and copyright information for your use."
      },
      "authors": [
        {
          "authorId": "2064646229",
          "name": "B. Rogers"
        },
        {
          "authorId": "35043398",
          "name": "David Giles"
        },
        {
          "authorId": "2630608",
          "name": "N. Draper"
        },
        {
          "authorId": "3798315",
          "name": "L. Mourot"
        },
        {
          "authorId": "5330353",
          "name": "T. Gronwald"
        }
      ],
      "abstract": "Past attempts to define an anaerobic threshold (AnT) have relied upon gas exchange kinetics, lactate testing and field-based evaluations. DFA a1, an index of heart rate (HR) variability (HRV) fractal correlation properties, has been shown to decrease with exercise intensity. The intent of this study is to investigate whether the AnT derived from gas exchange is associated with the transition from a correlated to uncorrelated random HRV pattern signified by a DFA a1 value of 0.5. HRV and gas exchange data were obtained from 15 participants during an incremental treadmill run. Comparison of the HR reached at the second ventilatory threshold (VT2) was made to the HR reached at a DFA a1 value of 0.5 (HRVT2). Based on Bland–Altman analysis and linear regression, there was strong agreement between VT2 and HRVT2 measured by HR (r = 0.78, p < 0.001). Mean VT2 was reached at a HR of 174 (±12) bpm compared to mean HRVT2 at a HR of 171 (±16) bpm. In summary, the HR associated with a DFA a1 value of 0.5 on an incremental treadmill ramp was closely related to that of the HR at the VT2 derived from gas exchange analysis. A distinct numerical value of DFA a1 representing an uncorrelated, random interbeat pattern appears to be associated with the VT2 and shows potential as a noninvasive marker for training intensity distribution and performance status."
    },
    {
      "paperId": "a32419d738f071c8b6b89e27ecfb2faab69ed3e6",
      "url": "https://www.semanticscholar.org/paper/a32419d738f071c8b6b89e27ecfb2faab69ed3e6",
      "title": "A novel device for detecting anaerobic threshold using sweat lactate during exercise",
      "year": 2021,
      "openAccessPdf": {
        "url": "https://www.nature.com/articles/s41598-021-84381-9.pdf",
        "status": "GOLD",
        "license": "CCBY",
        "disclaimer": "Notice: Paper or abstract available at https://api.unpaywall.org/v2/10.1038/s41598-021-84381-9?email=<INSERT_YOUR_EMAIL> or https://doi.org/10.1038/s41598-021-84381-9, which is subject to the license by the author or copyright owner provided with this content. Please go to the source to verify the license and copyright information for your use."
      },
      "authors": [
        {
          "authorId": "2062949964",
          "name": "Y. Seki"
        },
        {
          "authorId": "2028965260",
          "name": "Daisuke Nakashima"
        },
        {
          "authorId": "50495062",
          "name": "Y. Shiraishi"
        },
        {
          "authorId": "23206927",
          "name": "Toshinobu Ryuzaki"
        },
        {
          "authorId": "2004104381",
          "name": "Hidehiko Ikura"
        },
        {
          "authorId": "2104390808",
          "name": "Kotaro Miura"
        },
        {
          "authorId": "144410141",
          "name": "Masatoshi Suzuki"
        },
        {
          "authorId": "8325600",
          "name": "Takatomo Watanabe"
        },
        {
          "authorId": "144095217",
          "name": "T. Nagura"
        },
        {
          "authorId": "2051860247",
          "name": "Morio Matsumato"
        },
        {
          "authorId": "46292278",
          "name": "M. Nakamura"
        },
        {
          "authorId": "2115367570",
          "name": "Kazuki Sato"
        },
        {
          "authorId": "3196711",
          "name": "K. Fukuda"
        },
        {
          "authorId": "6776747",
          "name": "Yoshinori Katsumata"
        }
      ],
      "abstract": "The lactate threshold (LT1), which is defined as the first rise in lactate concentration during incremental exercise, has not been non-invasively and conveniently determined in a clinical setting. We aimed to visualize changes in lactate concentration in sweat during exercise using our wearable lactate sensor and investigate the relationship between the lactate threshold (LT1) and ventilatory threshold (VT1). Twenty-three healthy subjects and 42 patients with cardiovascular diseases (CVDs) were enrolled. During exercise, the dynamic changes in lactate values in sweat were visualized in real-time with a sharp continuous increase up to volitional exhaustion and a gradual decrease during the recovery period. The LT1 in sweat was well correlated with the LT1 in blood and the VT1 (r = 0.92 and 0.71, respectively). In addition, the Bland–Altman plot described no bias between the mean values (mean differences: − 4.5 and 2.5 W, respectively). Continuous monitoring of lactate concentrations during exercise can provide additional information for detecting the VT1."
    },
    {
      "paperId": "b77ce98fa2303ca6b905a3e247f636e70e9acd54",
      "url": "https://www.semanticscholar.org/paper/b77ce98fa2303ca6b905a3e247f636e70e9acd54",
      "title": "Anaerobic Threshold Biophysical Characterisation of the Four Swimming Techniques",
      "year": 2020,
      "openAccessPdf": {
        "url": "https://ubibliorum.ubi.pt/bitstream/10400.6/9194/1/2%20-%2010.1055%40a-0975-9532.pdf",
        "status": "GREEN",
        "license": "other-oa",
        "disclaimer": "Notice: Paper or abstract available at https://api.unpaywall.org/v2/10.1055/a-0975-9532?email=<INSERT_YOUR_EMAIL> or https://doi.org/10.1055/a-0975-9532, which is subject to the license by the author or copyright owner provided with this content. Please go to the source to verify the license and copyright information for your use."
      },
      "authors": [
        {
          "authorId": "152986462",
          "name": "D. Carvalho"
        },
        {
          "authorId": "143783604",
          "name": "Susana Soares"
        },
        {
          "authorId": "5832880",
          "name": "Rodrigo Zacca"
        },
        {
          "authorId": "2067636081",
          "name": "João Sousa"
        },
        {
          "authorId": "2603979",
          "name": "D. Marinho"
        },
        {
          "authorId": "1390547210",
          "name": "Antonio J. Silva"
        },
        {
          "authorId": "1398013341",
          "name": "J. Vilas-Boas"
        },
        {
          "authorId": "31515200",
          "name": "R. Fernandes"
        }
      ],
      "abstract": "Abstract The anaerobic threshold (AnT) seems to be not only a physiologic boundary but also a transition after which swimmers technique changes, modifying their biomechanical behaviour. We expanded the AnT concept to a biophysical construct in the four conventional swimming techniques. Seventy-two elite swimmers performed a 5×200 m incremental protocol in their preferred swimming technique (with a 0.05 m·s−1 increase and a 30 s interval between steps). A capillary blood samples were collected from the fingertip and stroke rate (SR) and length (SL) determined for the assessment of [La], SR and SL vs. velocity inflexion points (using the interception of a pair of linear and exponential regression curves). The [La] values at the AnT were 3.3±1.0, 3.9±1.1, 2.9±1 .34 and 4.5±1.4 mmol·l−1 (mean±SD) for front crawl, backstroke, breaststroke and butterfly, and its corresponding velocity correlated highly with those at SR and SL inflection points (r=0.91–0.99, p<0.001). The agreement analyses confirmed that AnT represents a biophysical boundary in the four competitive swimming techniques and can be determined individually using [La] and/or SR/SL. Blood lactate increase speed can help characterise swimmers’ anaerobic behaviour after AnT and between competitive swimming techniques."
    }
  ]
}