{
  "total": 24094,
  "offset": 0,
  "next": 5,
  "data": [
    {
      "paperId": "d530ee0cc1c2fb029d2fc7e508199bc241e5d58b",
      "url": "https://www.semanticscholar.org/paper/d530ee0cc1c2fb029d2fc7e508199bc241e5d58b",
      "title": "Physical Status: The Use and Interpretation of Anthropometry",
      "year": 1996,
      "openAccessPdf": {
        "url": "https://doi.org/10.1093/ajcn/64.5.830",
        "status": "BRONZE",
        "license": "publisher-specific-oa",
        "disclaimer": "Notice: Paper or abstract available at https://api.unpaywall.org/v2/10.1093/AJCN/64.5.830?email=<INSERT_YOUR_EMAIL> or https://doi.org/10.1093/AJCN/64.5.830, which is subject to the license by the author or copyright owner provided with this content. Please go to the source to verify the license and copyright information for your use."
      },
      "authors": [
        {
          "authorId": "7849651",
          "name": "A. R. Frisancho"
        }
      ],
      "abstract": null
    },
    {
      "paperId": "bf65d1443082c83a33a42f1a9c810c302094b168",
      "url": "https://www.semanticscholar.org/paper/bf65d1443082c83a33a42f1a9c810c302094b168",
      "title": "Anthropometry",
      "year": 2023,
      "openAccessPdf": {
        "url": "",
        "status": "CLOSED",
        "license": null,
        "disclaimer": "Notice: Paper or abstract available at https://api.unpaywall.org/v2/10.4135/9781412952644.n20?email=<INSERT_YOUR_EMAIL> or https://doi.org/10.4135/9781412952644.n20, which is subject to the license by the author or copyright owner provided with this content. Please go to the source to verify the license and copyright information for your use."
      },
      "authors": [
        {
          "authorId": "2080389144",
          "name": "B. Mrugalska"
        },
        {
          "authorId": "2071303115",
          "name": "Waldemar Karwowski"
        }
      ],
      "abstract": null
    },
    {
      "paperId": "5802c6e94dcce9e6720f1130d7ff48120cf8d1e9",
      "url": "https://www.semanticscholar.org/paper/5802c6e94dcce9e6720f1130d7ff48120cf8d1e9",
      "title": "Physical Status: The Use and Interpretation of Anthropometry. Report of a WHO Expert Committee",
      "year": 1996,
      "openAccessPdf": {
        "url": "",
        "status": "CLOSED",
        "license": null,
        "disclaimer": "Notice: The following paper fields have been elided by the publisher: {'abstract'}. Paper or abstract available at https://api.unpaywall.org/v2/10.1002/(SICI)1520-6300(1996)8:6<786::AID-AJHB11>3.0.CO;2-I?email=<INSERT_YOUR_EMAIL> or https://doi.org/10.1002/(SICI)1520-6300(1996)8:6<786::AID-AJHB11>3.0.CO;2-I, which is subject to the license by the author or copyright owner provided with this content. Please go to the source to verify the license and copyright information for your use."
      },
      "authors": [
        {
          "authorId": "46731469",
          "name": "P. Eveleth"
        }
      ],
      "abstract": null
    },
    {
      "paperId": "20505e91a0dc32287cd6d9375083cf847a5f3482",
      "url": "https://www.semanticscholar.org/paper/20505e91a0dc32287cd6d9375083cf847a5f3482",
      "title": "Digital Anthropometry: A Systematic Review on Precision, Reliability and Accuracy of Most Popular Existing Technologies",
      "year": 2023,
      "openAccessPdf": {
        "url": "https://www.mdpi.com/2072-6643/15/2/302/pdf?version=1674018858",
        "status": "GOLD",
        "license": "CCBY",
        "disclaimer": "Notice: Paper or abstract available at https://pmc.ncbi.nlm.nih.gov/articles/PMC9864001, which is subject to the license by the author or copyright owner provided with this content. Please go to the source to verify the license and copyright information for your use."
      },
      "authors": [
        {
          "authorId": "2021160490",
          "name": "Edoardo Mocini"
        },
        {
          "authorId": "2743703",
          "name": "C. Cammarota"
        },
        {
          "authorId": "2200198259",
          "name": "Francesco Frigerio"
        },
        {
          "authorId": "3479575",
          "name": "L. Muzzioli"
        },
        {
          "authorId": "2128611565",
          "name": "C. Piciocchi"
        },
        {
          "authorId": "2200198250",
          "name": "Doriana Lacalaprice"
        },
        {
          "authorId": "12361364",
          "name": "F. Buccolini"
        },
        {
          "authorId": "143722035",
          "name": "L. Donini"
        },
        {
          "authorId": "90940099",
          "name": "A. Pinto"
        }
      ],
      "abstract": "Digital anthropometry (DA) has been recently developed for body composition evaluation and for postural analysis. The aims of this review are to examine the current state of DA technology, as well as to verify the methods for identifying the best technology to be used in the field of DA by evaluating the reliability and accuracy of the available technologies on the market, and lay the groundwork for future technological developments. A literature search was performed and 28 studies met the inclusion criteria. The reliability and accuracy of DA was high in most studies, especially in the assessment of patients with obesity, although they varied according to the technology used; a good correlation was found between DA and conventional anthropometry (CA) and body composition estimates. DA is less time-consuming and less expensive and could be used as a screening tool before more expensive imaging techniques or as an alternative to other less affordable techniques. At present, DA could be useful in clinical practice, but the heterogeneity of the available studies (different devices used, laser technologies, population examined, etc.) necessitates caution in the interpretation of the obtained results. Furthermore, the need to develop integrated technologies for analyzing body composition according to multi-compartmental models is increasingly evident."
    },
    {
      "paperId": "03093604cf6cfa07ebed90ab2bf2fe333cf10912",
      "url": "https://www.semanticscholar.org/paper/03093604cf6cfa07ebed90ab2bf2fe333cf10912",
      "title": "Methods over Materials: The Need for Sport-Specific Equations to Accurately Predict Fat Mass Using Bioimpedance Analysis or Anthropometry",
      "year": 2023,
      "openAccessPdf": {
        "url": "https://doi.org/10.3390/nu15020278",
        "status": "GOLD",
        "license": "CCBY",
        "disclaimer": "Notice: Paper or abstract available at https://pmc.ncbi.nlm.nih.gov/articles/PMC9866214, which is subject to the license by the author or copyright owner provided with this content. Please go to the source to verify the license and copyright information for your use."
      },
      "authors": [
        {
          "authorId": "143999469",
          "name": "F. Campa"
        },
        {
          "authorId": "5482229",
          "name": "C. Matias"
        },
        {
          "authorId": "14743626",
          "name": "T. Moro"
        },
        {
          "authorId": "146780730",
          "name": "G. Cerullo"
        },
        {
          "authorId": "81293844",
          "name": "A. Casolo"
        },
        {
          "authorId": "82248916",
          "name": "F. J. Teixeira"
        },
        {
          "authorId": "49838657",
          "name": "A. Paoli"
        }
      ],
      "abstract": "Bioelectrical impedance analysis (BIA) and anthropometry are considered alternatives to well-established reference techniques for assessing body composition. In team sports, the percentage of fat mass (FM%) is one of the most informative parameters, and a wide range of predictive equations allow for its estimation through both BIA and anthropometry. Although it is not clear which of these two techniques is more accurate for estimating FM%, the choice of the predictive equation could be a determining factor. The present study aimed to examine the validity of BIA and anthropometry in estimating FM% with different predictive equations, using dual X-ray absorptiometry (DXA) as a reference, in a group of futsal players. A total of 67 high-level male futsal players (age 23.7 ± 5.4 years) underwent BIA, anthropometric measurements, and DXA scanning. Four generalized, four athletic, and two sport-specific predictive equations were used for estimating FM% from raw bioelectric and anthropometric parameters. DXA-derived FM% was used as a reference. BIA-based generalized equations overestimated FM% (ranging from 1.13 to 2.69%, p < 0.05), whereas anthropometry-based generalized equations underestimated FM% in the futsal players (ranging from −1.72 to −2.04%, p < 0.05). Compared to DXA, no mean bias (p > 0.05) was observed using the athletic and sport-specific equations. Sport-specific equations allowed for more accurate and precise FM% estimations than did athletic predictive equations, with no trend (ranging from r = −0.217 to 0.235, p > 0.05). Regardless of the instrument, the choice of the equation determines the validity in FM% prediction. In conclusion, BIA and anthropometry can be used interchangeably, allowing for valid FM% estimations, provided that athletic and sport-specific equations are applied."
    }
  ]
}