{
  "total": 16641121,
  "offset": 0,
  "next": 3,
  "data": [
    {
      "paperId": "126dfe72feef6ede2dc5ce8437e49862ca29cd4a",
      "url": "https://www.semanticscholar.org/paper/126dfe72feef6ede2dc5ce8437e49862ca29cd4a",
      "title": "Balance Control of a Novel Wheel-legged Robot: Design and Experiments",
      "year": 2021,
      "openAccessPdf": {
        "url": "",
        "status": null,
        "license": null,
        "disclaimer": "Notice: Paper or abstract available at https://api.unpaywall.org/v2/10.1109/ICRA48506.2021.9561579?email=<INSERT_YOUR_EMAIL> or https://doi.org/10.1109/ICRA48506.2021.9561579, which is subject to the license by the author or copyright owner provided with this content. Please go to the source to verify the license and copyright information for your use."
      },
      "authors": [
        {
          "authorId": "2118511355",
          "name": "Shuai Wang"
        },
        {
          "authorId": "2049028298",
          "name": "Leilei Cui"
        },
        {
          "authorId": "46247117",
          "name": "Jingfan Zhang"
        },
        {
          "authorId": "2049020532",
          "name": "Jie Lai"
        },
        {
          "authorId": "2109563479",
          "name": "Dongsheng Zhang"
        },
        {
          "authorId": "47031268",
          "name": "Kewei Chen"
        },
        {
          "authorId": "2149514010",
          "name": "Yu Zheng"
        },
        {
          "authorId": "2049003395",
          "name": "Zhengyou Zhang"
        },
        {
          "authorId": "144073377",
          "name": "Zhong-Ping Jiang"
        }
      ],
      "abstract": "This paper presents a balance control technique for a novel wheel-legged robot. We first derive a dynamic model of the robot and then apply a linear feedback controller based on output regulation and linear quadratic regulator (LQR) methods to maintain the standing of the robot on the ground without moving backward and forward mightily. To take into account nonlinearities of the model and obtain a large domain of stability, a nonlinear controller based on the interconnection and damping assignment - passivity-based control (IDA-PBC) method is exploited to control the robot in more general scenarios. Physical experiments are performed with various control tasks. Experimental results demonstrate that the proposed linear output regulator can maintain the standing of the robot, while the proposed nonlinear controller can balance the robot under an initial starting angle far away from the equilibrium point, or under a changing robot height."
    },
    {
      "paperId": "4e79cbdd2595b783a7045231a9d8436a571950f0",
      "url": "https://www.semanticscholar.org/paper/4e79cbdd2595b783a7045231a9d8436a571950f0",
      "title": "The Effect of Robotic Assisted Gait Training With Lokomat® on Balance Control After Stroke: Systematic Review and Meta-Analysis",
      "year": 2021,
      "openAccessPdf": {
        "url": "https://www.frontiersin.org/articles/10.3389/fneur.2021.661815/pdf",
        "status": "GOLD",
        "license": "CCBY",
        "disclaimer": "Notice: Paper or abstract available at https://pmc.ncbi.nlm.nih.gov/articles/PMC8289887, which is subject to the license by the author or copyright owner provided with this content. Please go to the source to verify the license and copyright information for your use."
      },
      "authors": [
        {
          "authorId": "2117612719",
          "name": "Federica Baronchelli"
        },
        {
          "authorId": "2905479",
          "name": "C. Zucchella"
        },
        {
          "authorId": "8776609",
          "name": "M. Serrao"
        },
        {
          "authorId": "4103488",
          "name": "D. Intiso"
        },
        {
          "authorId": "49152134",
          "name": "M. Bartolo"
        }
      ],
      "abstract": "Introduction: Disturbances of balance control are common after stroke, affecting the quality of gait and increasing the risk of falls. Because balance and gait disorders may persist also in the chronic stage, reducing individual independence and participation, they represent primary goals of neurorehabilitation programs. For this purpose, in recent years, numerous technological devices have been developed, among which one of the most widespread is the Lokomat®, an actuated exoskeleton that guide the patient's limbs, simulating a symmetrical bilateral gait. Preliminary evidence suggests that beyond gait parameters, robotic assisted gait training may also improve balance. Therefore, the aim of this systematic review was to summarize evidence about the effectiveness of Lokomat® in improving balance in stroke patients. Methods: Randomized controlled trials published between January 1989 and August 2020, comparing Lokomat® training to conventional therapy for stroke patients, were retrieved from seven electronic databases. Balance, assessed by means of validated clinical scales, was considered as outcome measure. The Physiotherapy Evidence Database (PEDro) scale was used to evaluate the methodological quality of the studies. The study protocol was registered on PROSPERO (no. CRD42020197531). Results: After the removal of the duplicates, according to the inclusion criteria, 13 studies were selected, involving 445 subacute or chronic stroke patients. Eleven papers contributed to three meta-analyses. Favorable results for recovery of balance in stroke survivors treated with Lokomat® were shown using Timed Up and Go (pooled mean difference = −3.40, 95% CI −4.35 to −2.44; p < 0.00001) and Rivermead Mobility Index as outcome measures (pooled mean difference = 0.40, 95% CI 0.26–0.55; p < 0.00001). Inconclusive results were found when balance was measured by means of the Berg Balance Scale (pooled mean difference = 0.17, 95% CI −0.26 to 0.60; p = 0.44). Conclusions: Overall, most studies have shown beneficial effects of Lokomat® on balance recovery for stroke survivors, at least comparable to conventional physical therapy. However, due to the limited number of studies and their high heterogeneity, further research is needed to draw more solid and definitive conclusions."
    },
    {
      "paperId": "a12d00daf1d497938d0fe361eea7df262d3c7053",
      "url": "https://www.semanticscholar.org/paper/a12d00daf1d497938d0fe361eea7df262d3c7053",
      "title": "Learning-Based Balance Control of Wheel-Legged Robots",
      "year": 2021,
      "openAccessPdf": {
        "url": "https://doi.org/10.1109/lra.2021.3100269",
        "status": "BRONZE",
        "license": "publisher-specific-oa",
        "disclaimer": "Notice: The following paper fields have been elided by the publisher: {'abstract'}. Paper or abstract available at https://api.unpaywall.org/v2/10.1109/LRA.2021.3100269?email=<INSERT_YOUR_EMAIL> or https://doi.org/10.1109/LRA.2021.3100269, which is subject to the license by the author or copyright owner provided with this content. Please go to the source to verify the license and copyright information for your use."
      },
      "authors": [
        {
          "authorId": "2049028298",
          "name": "Leilei Cui"
        },
        {
          "authorId": "2118511355",
          "name": "Shuai Wang"
        },
        {
          "authorId": "46247117",
          "name": "Jingfan Zhang"
        },
        {
          "authorId": "2109563479",
          "name": "Dongsheng Zhang"
        },
        {
          "authorId": "2049020532",
          "name": "Jie Lai"
        },
        {
          "authorId": "2149514010",
          "name": "Yu Zheng"
        },
        {
          "authorId": "2049003395",
          "name": "Zhengyou Zhang"
        },
        {
          "authorId": "144073377",
          "name": "Zhong-Ping Jiang"
        }
      ],
      "abstract": null
    }
  ]
}