{
  "total": 5752,
  "offset": 0,
  "next": 3,
  "data": [
    {
      "paperId": "2201d9c68cad22365fdd700dfa5ca889088d4de8",
      "url": "https://www.semanticscholar.org/paper/2201d9c68cad22365fdd700dfa5ca889088d4de8",
      "title": "BCAA nitrogen flux in brown fat controls metabolic health independent of thermogenesis",
      "year": 2024,
      "openAccessPdf": {
        "url": "https://www.cell.com/article/S0092867424003465/pdf",
        "status": "HYBRID",
        "license": "CCBY",
        "disclaimer": "Notice: Paper or abstract available at https://pmc.ncbi.nlm.nih.gov/articles/PMC11145561, which is subject to the license by the author or copyright owner provided with this content. Please go to the source to verify the license and copyright information for your use."
      },
      "authors": [
        {
          "authorId": "12021259",
          "name": "Anthony R. P. Verkerke"
        },
        {
          "authorId": "2298168078",
          "name": "Dandan Wang"
        },
        {
          "authorId": "2297774194",
          "name": "Naofumi Yoshida"
        },
        {
          "authorId": "2516429",
          "name": "Zachary H Taxin"
        },
        {
          "authorId": "2252087520",
          "name": "Xu Shi"
        },
        {
          "authorId": "2182558672",
          "name": "Shuning Zheng"
        },
        {
          "authorId": "2239826733",
          "name": "Yuka Li"
        },
        {
          "authorId": "2297776551",
          "name": "Christopher Auger"
        },
        {
          "authorId": "2297774735",
          "name": "Satoshi Oikawa"
        },
        {
          "authorId": "8162636",
          "name": "Jin-Seon Yook"
        },
        {
          "authorId": "2129629078",
          "name": "Melia Granath-Panelo"
        },
        {
          "authorId": "2153233250",
          "name": "Wentao He"
        },
        {
          "authorId": "2297811746",
          "name": "Guo-Fang Zhang"
        },
        {
          "authorId": "6787642",
          "name": "Mami Matsushita"
        },
        {
          "authorId": "2242096630",
          "name": "Masayuki Saito"
        },
        {
          "authorId": "1864575",
          "name": "R. Gerszten"
        },
        {
          "authorId": "27144415",
          "name": "E. Mills"
        },
        {
          "authorId": "2297774355",
          "name": "Alexander S. Banks"
        },
        {
          "authorId": "2297774086",
          "name": "Yasushi Ishihama"
        },
        {
          "authorId": "2297778062",
          "name": "Phillip J. White"
        },
        {
          "authorId": "7800788",
          "name": "R. McGarrah"
        },
        {
          "authorId": "6915628",
          "name": "T. Yoneshiro"
        },
        {
          "authorId": "6566305",
          "name": "S. Kajimura"
        }
      ],
      "abstract": null
    },
    {
      "paperId": "817ea5d321c56eb730bdf722e936cf2bfb7797fc",
      "url": "https://www.semanticscholar.org/paper/817ea5d321c56eb730bdf722e936cf2bfb7797fc",
      "title": "The role of BCAA metabolism in metabolic health and disease",
      "year": 2024,
      "openAccessPdf": {
        "url": "https://www.nature.com/articles/s12276-024-01263-6.pdf",
        "status": "GOLD",
        "license": "CCBY",
        "disclaimer": "Notice: Paper or abstract available at https://pmc.ncbi.nlm.nih.gov/articles/PMC11297153, which is subject to the license by the author or copyright owner provided with this content. Please go to the source to verify the license and copyright information for your use."
      },
      "authors": [
        {
          "authorId": "10138968",
          "name": "Byeong Hun Choi"
        },
        {
          "authorId": "2309461677",
          "name": "Seunghoon Hyun"
        },
        {
          "authorId": "2309459880",
          "name": "Seung-Hoi Koo"
        }
      ],
      "abstract": "It has long been postulated that dietary restriction is beneficial for ensuring longevity and extending the health span of mammals, including humans. In particular, a reduction in protein consumption has been shown to be specifically linked to the beneficial effect of dietary restriction on metabolic disorders, presumably by reducing the activity of the mechanistic target of rapamycin complex (mTORC) 1 and the reciprocal activation of AMP-activated protein kinase (AMPK) and sirtuin pathways. Although it is widely used as a dietary supplement to delay the aging process in humans, recent evidence suggests that branched-chain amino acids (BCAAs) might be a major cause of the deteriorating effect of a protein diet on aging and related disorders. In this review, we delineate the regulation of metabolic pathways for BCAAs at the tissue-specific level and summarize recent findings regarding the role of BCAAs in the control of metabolic health and disease in mammals. This review article illustrates the function of branched-chain amino acids (BCAAs - essential nutrients we get from food) and how they’re processed in our bodies, in relation to health and illness. BCAAs are connected to aging processes and metabolic health - the body’s way of converting food into energy. Recent studies found that reducing BCAA intake can improve the health and lifespan of rodents. Similar studies were also conducted by using different animal models, like yeast, flies, rodents, and primates. It also emphasized the potential influence of BCAAs on human disease and aging metabolic processes. The review article concluded that BCAAs and their processing are vital for metabolic health and lifespan, and more research is needed to understand their effect on human health. Further studies on BCAAs could be important for creating diet plans and treatments for metabolic issues and aging-related diseases. This summary was initially drafted using artificial intelligence, then revised and fact-checked by the author."
    },
    {
      "paperId": "5afe182901cf1ae3321415b31b33ab7a7bd01587",
      "url": "https://www.semanticscholar.org/paper/5afe182901cf1ae3321415b31b33ab7a7bd01587",
      "title": "BCAA metabolism in pancreatic cancer affects lipid balance by regulating fatty acid import into mitochondria",
      "year": 2024,
      "openAccessPdf": {
        "url": "https://cancerandmetabolism.biomedcentral.com/counter/pdf/10.1186/s40170-024-00335-5",
        "status": "GOLD",
        "license": "CCBY",
        "disclaimer": "Notice: Paper or abstract available at https://pmc.ncbi.nlm.nih.gov/articles/PMC10967191, which is subject to the license by the author or copyright owner provided with this content. Please go to the source to verify the license and copyright information for your use."
      },
      "authors": [
        {
          "authorId": "1717320347",
          "name": "Klára Gotvaldová"
        },
        {
          "authorId": "15011655",
          "name": "Jitka Špačková"
        },
        {
          "authorId": "2293403542",
          "name": "Jiří Novotný"
        },
        {
          "authorId": "2293403522",
          "name": "Kamila Baslarová"
        },
        {
          "authorId": "2246064911",
          "name": "Petr Ježek"
        },
        {
          "authorId": "3518175",
          "name": "L. Rossmeislová"
        },
        {
          "authorId": "5915719",
          "name": "J. Gojda"
        },
        {
          "authorId": "3831171",
          "name": "K. Smolková"
        }
      ],
      "abstract": "Background Pancreatic ductal adenocarcinoma (PDAC) has been associated with the host dysmetabolism of branched-chain amino acids (BCAAs), however, the implications for the role of BCAA metabolism in PDAC development or progression are not clear. The mitochondrial catabolism of valine, leucine, and isoleucine is a multistep process leading to the production of short-chain R-CoA species. They can be subsequently exported from mitochondria as short-chain carnitines (SC-CARs), utilized in anabolic pathways, or released from the cells. Methods We examined the specificities of BCAA catabolism and cellular adaptation strategies to BCAA starvation in PDAC cells in vitro. We used metabolomics and lipidomics to quantify major metabolic changes in response to BCAA withdrawal. Using confocal microscopy and flow cytometry we quantified the fluorescence of BODIPY probe and the level of lipid droplets (LDs). We used BODIPY-conjugated palmitate to evaluate transport of fatty acids (FAs) into mitochondria. Also, we have developed a protocol for quantification of SC-CARs, BCAA-derived metabolites. Results Using metabolic profiling, we found that BCAA starvation leads to massive triglyceride (TG) synthesis and LD accumulation. This was associated with the suppression of activated FA transport into the mitochondrial matrix. The suppression of FA import into mitochondria was rescued with the inhibitor of the acetyl-CoA carboxylase (ACC) and the activator of AMP kinase (AMPK), which both regulate carnitine palmitoyltransferase 1A (CPT1) activation status. Conclusions Our data suggest that BCAA catabolism is required for the import of long chain carnitines (LC-CARs) into mitochondria, whereas the disruption of this link results in the redirection of activated FAs into TG synthesis and its deposition into LDs. We propose that this mechanism protects cells against mitochondrial overload with LC-CARs and it might be part of the universal reaction to amino acid perturbations during cancer growth, regulating FA handling and storage."
    }
  ]
}