{
  "total": 263212,
  "offset": 0,
  "next": 5,
  "data": [
    {
      "paperId": "7bce4d5ea04b680419903594e01857751c4fc550",
      "url": "https://www.semanticscholar.org/paper/7bce4d5ea04b680419903594e01857751c4fc550",
      "title": "Effect of Resistance Band and Barbell Exercises on Bicep Muscles Strength",
      "year": 2024,
      "openAccessPdf": {
        "url": "",
        "status": null,
        "license": null,
        "disclaimer": "Notice: Paper or abstract available at https://api.unpaywall.org/v2/10.53555/ajbr.v27i4s.5645?email=<INSERT_YOUR_EMAIL> or https://doi.org/10.53555/ajbr.v27i4s.5645, which is subject to the license by the author or copyright owner provided with this content. Please go to the source to verify the license and copyright information for your use."
      },
      "authors": [
        {
          "authorId": "2337918053",
          "name": "Mohd Kamaal"
        }
      ],
      "abstract": null
    },
    {
      "paperId": "f40bfb4411dde53b4f0a0570a08d8c28ad247cef",
      "url": "https://www.semanticscholar.org/paper/f40bfb4411dde53b4f0a0570a08d8c28ad247cef",
      "title": "The Effect of Burpees and Bicep Curl Exercises to Improve Smash Skills in Volleyball Games",
      "year": 2023,
      "openAccessPdf": {
        "url": "http://ejurnal.budiutomomalang.ac.id/index.php/prosiding_penjas/article/download/2280/1507",
        "status": "BRONZE",
        "license": null,
        "disclaimer": "Notice: Paper or abstract available at https://api.unpaywall.org/v2/10.33503/prosiding_penjas_pjkribu.v1i1.2280?email=<INSERT_YOUR_EMAIL> or https://doi.org/10.33503/prosiding_penjas_pjkribu.v1i1.2280, which is subject to the license by the author or copyright owner provided with this content. Please go to the source to verify the license and copyright information for your use."
      },
      "authors": [
        {
          "authorId": "2205018992",
          "name": "Aditia Khairul Hakiki"
        },
        {
          "authorId": "2361964638",
          "name": "Ahmad Junaidi"
        }
      ],
      "abstract": "The purpose of the study was To find out the effect of burpees exercises and biceps curl exercises on smash skills. The next goal is to find out which exercise is better between burpees and biceps curl against smash skills. The method used in this study is an experimental method. The subjects in this study were 30 players of the Selorejo Village BBI volleyball team. The data retrieval method used uses a smash test, which aims to measure the accuracy of directing the ball in the smash. This study used two research groups, namely burpees and biceps curl. Based on the results of data analysis using the t-test and getting results: There is an influence of burpees and biceps curl training methods on smash skills. This statement is reinforced by the results of the t-test burpees having a t-test value of 49.33, t-table at a significance level of 5% and d.b. (freedom rate) 14 is 2.145. Biceps curl has a t-test value of 18.04, t-table at a significance level of 5%, d.b. (degree of freedom) 14 is 2.145. There was a significant difference between the program latihan burpees and biceps curl to smash skills -0.479 < 2.145."
    },
    {
      "paperId": "fa1a7576dd548faf4f60abe0ebc64f1f9e5592f5",
      "url": "https://www.semanticscholar.org/paper/fa1a7576dd548faf4f60abe0ebc64f1f9e5592f5",
      "title": "Electromyographic activation and performance analysis during three sets of bicep curl exercises among untrained women",
      "year": 2023,
      "openAccessPdf": {
        "url": "",
        "status": "CLOSED",
        "license": null,
        "disclaimer": "Notice: Paper or abstract available at https://api.unpaywall.org/v2/10.1063/5.0148595?email=<INSERT_YOUR_EMAIL> or https://doi.org/10.1063/5.0148595, which is subject to the license by the author or copyright owner provided with this content. Please go to the source to verify the license and copyright information for your use."
      },
      "authors": [
        {
          "authorId": "101954517",
          "name": "M. Janep"
        },
        {
          "authorId": "2292807786",
          "name": "Muhammad Zulfadli Marsal"
        },
        {
          "authorId": "2238325844",
          "name": "Nor Fazila Abd Malek"
        },
        {
          "authorId": "1725443511",
          "name": "Ernie Leong Yen Lee"
        },
        {
          "authorId": "46934279",
          "name": "Kevin Tan"
        },
        {
          "authorId": "2067947083",
          "name": "R. Pratama"
        },
        {
          "authorId": "82497636",
          "name": "A. Nadzalan"
        }
      ],
      "abstract": null
    },
    {
      "paperId": "3644fbe36bf0e3b853e7200a0e12619126b9c612",
      "url": "https://www.semanticscholar.org/paper/3644fbe36bf0e3b853e7200a0e12619126b9c612",
      "title": "Pentanque shooting accuracy through exercise bicep arm workout, Zottman curl, and Dumbbell clean",
      "year": 2024,
      "openAccessPdf": {
        "url": "",
        "status": "CLOSED",
        "license": null,
        "disclaimer": "Notice: Paper or abstract available at https://api.unpaywall.org/v2/10.56984/8zg020anr7?email=<INSERT_YOUR_EMAIL> or https://doi.org/10.56984/8zg020anr7, which is subject to the license by the author or copyright owner provided with this content. Please go to the source to verify the license and copyright information for your use."
      },
      "authors": [
        {
          "authorId": "2318996597",
          "name": "Jupr"
        },
        {
          "authorId": "146981848",
          "name": "Idris Moh Latar"
        },
        {
          "authorId": "2218326499",
          "name": "Dedi Ahmadi"
        },
        {
          "authorId": "120194610",
          "name": "Ad Baan"
        },
        {
          "authorId": "2280936137",
          "name": "Didik Cahyono"
        },
        {
          "authorId": "2319000593",
          "name": "Hamdiana"
        },
        {
          "authorId": "2079698754",
          "name": "Aref Vai"
        },
        {
          "authorId": "2319000350",
          "name": "Aulia Gusdernawati"
        }
      ],
      "abstract": "Pentaque is one of the new sports that is quite popular in Indonesia with dominant games using arm and hand strength to throw small balls made of iron, in other words, “bosi”. This study aims to test the methods of these three exercises, namely biceps, Zottman curl, and dumbbell clean to improve the ability of the arm muscles in throwing or shooting accuracy for pentaque athletes. This type of research is a 3 × 2 factorial design experiment, including independent, dependent, and attributive variables with the research sample being the entire population, namely students of the Physical Education, Health and Recreation Study Program, Mulawarman University, totaling 36 students. Exercises to improve the results of shooting pétanque are carried out in 18 meetings which are carried out 3 times a week, the dose of exercise given is by doing exercises according to the group, namely biceps curls, dumbbell clean, and Zottman curls carried out in 3 sets and 8 repetitions with 1 minute of rest allowed between each interval, data analysis using one-way ANOVA. The results obtained in this study were the training methods and muscle strength obtained a significance value of 0.002 < 0.05, thus there was a significant interaction between the training methods (biceps curl, dumbbell clean, and Zottman curl) and arm muscle strength (high and low) on Improved petanque shooting accuracy."
    },
    {
      "paperId": "09cffa383e10122a3c95fe82dc90afeb41b14a2b",
      "url": "https://www.semanticscholar.org/paper/09cffa383e10122a3c95fe82dc90afeb41b14a2b",
      "title": "The Effects of Different Types of External Load Equipment on Muscle Activation Comparing Two Bench Press Exercises Variations",
      "year": 2024,
      "openAccessPdf": {
        "url": "https://doi.org/10.47206/ijsc.v4.i1.254",
        "status": "GOLD",
        "license": "CCBY",
        "disclaimer": "Notice: Paper or abstract available at https://api.unpaywall.org/v2/10.47206/ijsc.v4.i1.254?email=<INSERT_YOUR_EMAIL> or https://doi.org/10.47206/ijsc.v4.i1.254, which is subject to the license by the author or copyright owner provided with this content. Please go to the source to verify the license and copyright information for your use."
      },
      "authors": [
        {
          "authorId": "2333230725",
          "name": "Miguel Rosa"
        },
        {
          "authorId": "2333065461",
          "name": "Ricardo Martins"
        },
        {
          "authorId": "2332988000",
          "name": "Nuno Loureiro"
        }
      ],
      "abstract": "Background: Exercise selection plays a key role in the muscle recruitment pattern of different muscles groups, and the type of external load system may affect the muscle demand due to varying joint torques. Methods: This study aimed to compare the muscle activation of the main muscle groups involved in the bench press performed with two different types of external resistance, a free-weight (i.e., dumbbell), and a pulley system (i.e., cable), in trained individuals. Twelve resistance-trained young adults (26±4.7 years; 26.6±2.0 kg/m2) performed one set of 10 maximal repetitions (RM) with 75% 1RM in dumbbell bench press (DBP) and cable bench press (CBP). The muscle activity of the pectoral major (PM), anterior deltoid (AD), bicep brachii (BB), and triceps brachii (TB) was recorded with surface electromyography (EMG), and the maximal voluntary isometric contraction (MVIC) was assessed for each muscle group. The Mann-Whitney U test was used with p≤0.05. Results: There were no significant differences in muscle activity for PM and AD among the exercises (p>0.05). However, the BB showed greater activity on the CBP (p≤0.05), and the activation of the TT was higher on the DBP (p≤0.05). Conclusions: The results suggest that for resistance-trained individuals, the PM and AD were similarly recruited in these two exercises. Nevertheless, the CBP was superior to the BB muscle activity, and the DBP was superior to the TB muscle activity."
    }
  ]
}