{
  "total": 7325574,
  "offset": 0,
  "next": 3,
  "data": [
    {
      "paperId": "c439e863c6a527e53c0c5be43e9debdae0b24020",
      "url": "https://www.semanticscholar.org/paper/c439e863c6a527e53c0c5be43e9debdae0b24020",
      "title": "2024 ESC Guidelines for the management of elevated blood pressure and hypertension.",
      "year": 2024,
      "openAccessPdf": {
        "url": "https://academic.oup.com/eurheartj/advance-article-pdf/doi/10.1093/eurheartj/ehae178/58916755/ehae178.pdf",
        "status": "HYBRID",
        "license": "other-oa",
        "disclaimer": "Notice: Paper or abstract available at https://api.unpaywall.org/v2/10.1093/eurheartj/ehae178?email=<INSERT_YOUR_EMAIL> or https://doi.org/10.1093/eurheartj/ehae178, which is subject to the license by the author or copyright owner provided with this content. Please go to the source to verify the license and copyright information for your use."
      },
      "authors": [
        {
          "authorId": "2267319753",
          "name": "J. W. McEvoy"
        },
        {
          "authorId": "2512752",
          "name": "Cian P. McCarthy"
        },
        {
          "authorId": "2257571984",
          "name": "Rosa-Maria Bruno"
        },
        {
          "authorId": "2302931648",
          "name": "S. Brouwers"
        },
        {
          "authorId": "2312627787",
          "name": "Michelle D Canavan"
        },
        {
          "authorId": "2243862339",
          "name": "Claudio Ceconi"
        },
        {
          "authorId": "2241362427",
          "name": "R. Christodorescu"
        },
        {
          "authorId": "2261274133",
          "name": "Stella S. Daskalopoulou"
        },
        {
          "authorId": "2248197030",
          "name": "Charles J Ferro"
        },
        {
          "authorId": "2256495162",
          "name": "E. Gerdts"
        },
        {
          "authorId": "6041453",
          "name": "H. Hanssen"
        },
        {
          "authorId": "2319243687",
          "name": "Julie Harris"
        },
        {
          "authorId": "11923665",
          "name": "L. Lauder"
        },
        {
          "authorId": "2319366346",
          "name": "Richard J. McManus"
        },
        {
          "authorId": "2311200203",
          "name": "Gerry Molloy"
        },
        {
          "authorId": "2248467320",
          "name": "Kazem Rahimi"
        },
        {
          "authorId": "2244502399",
          "name": "Vera Regitz-Zagrosek"
        },
        {
          "authorId": "2239799329",
          "name": "G. Rossi"
        },
        {
          "authorId": "4660180",
          "name": "E. Sandset"
        },
        {
          "authorId": "2318875381",
          "name": "B. Scheenaerts"
        },
        {
          "authorId": "2241869257",
          "name": "J. Staessen"
        },
        {
          "authorId": "2174272461",
          "name": "Izabella Uchmanowicz"
        },
        {
          "authorId": "2254463172",
          "name": "Maurizio Volterrani"
        },
        {
          "authorId": "5293587",
          "name": "R. Touyz"
        }
      ],
      "abstract": null
    },
    {
      "paperId": "4c2dd3cb528c02726bd60682067f350fecb9647c",
      "url": "https://www.semanticscholar.org/paper/4c2dd3cb528c02726bd60682067f350fecb9647c",
      "title": "The Seventh Report of the Joint National Committee on Prevention, Detection, Evaluation, and Treatment of High Blood Pressure: the JNC 7 report.",
      "year": 2003,
      "openAccessPdf": {
        "url": "",
        "status": "CLOSED",
        "license": null,
        "disclaimer": "Notice: The following paper fields have been elided by the publisher: {'abstract'}. Paper or abstract available at https://api.unpaywall.org/v2/10.1097/00132578-200307000-00027?email=<INSERT_YOUR_EMAIL> or https://doi.org/10.1097/00132578-200307000-00027, which is subject to the license by the author or copyright owner provided with this content. Please go to the source to verify the license and copyright information for your use."
      },
      "authors": [
        {
          "authorId": "5741068",
          "name": "A. Chobanian"
        },
        {
          "authorId": "145180257",
          "name": "G. Bakris"
        },
        {
          "authorId": "4474719",
          "name": "H. Black"
        },
        {
          "authorId": "6455627",
          "name": "W. Cushman"
        },
        {
          "authorId": "143613945",
          "name": "L. Green"
        },
        {
          "authorId": "37696325",
          "name": "J. Izzo"
        },
        {
          "authorId": "38602225",
          "name": "Daniel W. Jones"
        },
        {
          "authorId": "3825170",
          "name": "B. Materson"
        },
        {
          "authorId": "4106810",
          "name": "S. Oparil"
        },
        {
          "authorId": "4129027",
          "name": "J. Wright"
        },
        {
          "authorId": "5288415",
          "name": "E. Roccella"
        }
      ],
      "abstract": null
    },
    {
      "paperId": "978479a741f52e91fb4eab72ef2d4b29a3f064be",
      "url": "https://www.semanticscholar.org/paper/978479a741f52e91fb4eab72ef2d4b29a3f064be",
      "title": "2014 evidence-based guideline for the management of high blood pressure in adults: report from the panel members appointed to the Eighth Joint National Committee (JNC 8).",
      "year": 2014,
      "openAccessPdf": {
        "url": "",
        "status": "CLOSED",
        "license": null,
        "disclaimer": "Notice: The following paper fields have been elided by the publisher: {'abstract'}. Paper or abstract available at https://api.unpaywall.org/v2/10.1001/jama.2013.284427?email=<INSERT_YOUR_EMAIL> or https://doi.org/10.1001/jama.2013.284427, which is subject to the license by the author or copyright owner provided with this content. Please go to the source to verify the license and copyright information for your use."
      },
      "authors": [
        {
          "authorId": "144446537",
          "name": "P. James"
        },
        {
          "authorId": "4106810",
          "name": "S. Oparil"
        },
        {
          "authorId": "35011634",
          "name": "B. Carter"
        },
        {
          "authorId": "6455627",
          "name": "W. Cushman"
        },
        {
          "authorId": "1397948290",
          "name": "C. Dennison-Himmelfarb"
        },
        {
          "authorId": "35791457",
          "name": "J. Handler"
        },
        {
          "authorId": "3710772",
          "name": "D. Lackland"
        },
        {
          "authorId": "37687524",
          "name": "M. LeFevre"
        },
        {
          "authorId": "2538754",
          "name": "T. Mackenzie"
        },
        {
          "authorId": "4026934",
          "name": "O. Ogedegbe"
        },
        {
          "authorId": "1406028473",
          "name": "Sidney C. Smith"
        },
        {
          "authorId": "2733521",
          "name": "L. Svetkey"
        },
        {
          "authorId": "4926719",
          "name": "S. Taler"
        },
        {
          "authorId": "2596274",
          "name": "R. Townsend"
        },
        {
          "authorId": "4129027",
          "name": "J. Wright"
        },
        {
          "authorId": "4777614",
          "name": "A. Narva"
        },
        {
          "authorId": "49098553",
          "name": "E. Ortiz"
        }
      ],
      "abstract": null
    }
  ]
}