{
  "total": 238,
  "offset": 0,
  "next": 3,
  "data": [
    {
      "paperId": "69e96d44112eba3ca14f8a2be2a09f978578eff2",
      "url": "https://www.semanticscholar.org/paper/69e96d44112eba3ca14f8a2be2a09f978578eff2",
      "title": "Performance-enhancing effects of caffeine and L-Theanine among Iranian elite wrestlers: a focus on cognitive and specific physical performance",
      "year": 2025,
      "openAccessPdf": {
        "url": "",
        "status": null,
        "license": "CCBYNC",
        "disclaimer": "Notice: Paper or abstract available at https://pmc.ncbi.nlm.nih.gov/articles/PMC12456047, which is subject to the license by the author or copyright owner provided with this content. Please go to the source to verify the license and copyright information for your use."
      },
      "authors": [
        {
          "authorId": "2381343319",
          "name": "Rouzbeh Razazan"
        },
        {
          "authorId": "66883295",
          "name": "Mohammad Hemmatinafar"
        },
        {
          "authorId": "2236628024",
          "name": "Babak Imanian"
        },
        {
          "authorId": "2243579294",
          "name": "Nima Jahaniboushehri"
        },
        {
          "authorId": "2067175001",
          "name": "Rasoul Rezaei"
        },
        {
          "authorId": "2351365681",
          "name": "Gholamhossein Nazemzadegan"
        }
      ],
      "abstract": "ABSTRACT Background Caffeine is a well-known ergogenic aid that can enhance physical and cognitive performance. However, it often induces side effects, such as anxiety and overstimulation, which can be problematic in high-pressure sports like wrestling. L-theanine, a non-stimulant amino acid found in tea, may help mitigate these effects by promoting a calm yet focused mental state. This study aimed to investigate the acute effects of caffeine, L-theanine, and their combination on physical performance, cognitive function, and anxiety in elite male wrestlers. Methods In a double-blind, placebo-controlled, crossover design, 12 elite male wrestlers (21.8 ± 2.1 years) completed four test sessions under randomized conditions: placebo (PLA), caffeine (CAF; 3 mg/kg), L-theanine (THE; 3 mg/kg), and caffeine + L-theanine (CAF+THE; 3 mg/kg each). After 60 minutes, athletes performed the wall-squat test, vertical jump height (VJH), medicine ball throw (MBT), handgrip strength, and the Specific Wrestling Fitness Test (SWFT). Cognitive function was assessed pre- and post-SWFT using a computerized Stroop test. Anxiety was assessed using the State-Trait Anxiety Inventory (STAI), and side effects were recorded. Results CAF+THE outperformed PLA in wall-squat time (p = 0.001), MBT (p = 0.005), VJH (p = 0.011), and grip strength (p = 0.004). SWFT throw count was highest in CAF+THE versus all other conditions (p < 0.001). Post-SWFT Stroop reaction time was faster in CAF+THE than PLA (p = 0.004) and THE (p = 0.036), and accuracy was also higher (p = 0.009 vs PLA). CAF alone increased state anxiety compared to PLA (p = 0.021), while CAF+THE reduced anxiety to below placebo levels (8% incidence vs 33%). Trait anxiety was lower in CAF+THE compared to CAF (p = 0.018). The prevalence of caffeine-induced tachycardia (92%) was notably reduced under CAF+THE (17%). Conclusion CAF+THE (3 mg/kg each) enhances elite wrestlers’ strength, endurance, cognitive speed, and accuracy while reducing anxiety and physiological side effects commonly associated with caffeine alone. This combination represents a safe, practical supplement strategy for combat sports athletes who must maintain explosive performance and mental control under stress. Coaches are encouraged to trial CAF+THE protocols during training to personalize timing and dosage."
    },
    {
      "paperId": "8ba877ebd9ae462e81cb557fa2427b25ebdaccfb",
      "url": "https://www.semanticscholar.org/paper/8ba877ebd9ae462e81cb557fa2427b25ebdaccfb",
      "title": "CAFFEINE INTAKE ALMOST ALWAYS AFFECTS PHYSICAL PERFORMANCE AND COGNITIVE PROCESSES RESPONSIBLE FOR AWARENESS",
      "year": 2023,
      "openAccessPdf": {
        "url": "https://revistas.cff.org.br/?journal=infarma&page=article&op=download&path%5B%5D=3139&path%5B%5D=pdf",
        "status": "GOLD",
        "license": "CCBYNCND",
        "disclaimer": "Notice: Paper or abstract available at https://api.unpaywall.org/v2/10.14450/2318-9312.v35.e2.a2023.pp133-147?email=<INSERT_YOUR_EMAIL> or https://doi.org/10.14450/2318-9312.v35.e2.a2023.pp133-147, which is subject to the license by the author or copyright owner provided with this content. Please go to the source to verify the license and copyright information for your use."
      },
      "authors": [
        {
          "authorId": "6360150",
          "name": "R. De Giorgio"
        }
      ],
      "abstract": "Sports foods and supplements can play a significant role in the sports nutrition plans of high-level athletes. It has been found that taking specific dietary supplements can have ergogenic and performance-enhancing effects. Over the past two decades, there have been no major changes in the recommendations for caffeine supplementation. However, scientific knowledge has been significant in recent times, such that the state of the art needs to be updated. This study aims to confirm that caffeine (1,3,7-trimethylxanthine), a substance found in beverages such as coffee, tea and energy drinks, can be both an ergogenic support for individuals engaged in physical activity and an effective cognitive support. In this context, this review outlines the current framework of knowledge. The relationship between the uses and effects of caffeine in power and endurance sports has been demonstrated. In order to achieve and maintain the high levels of performance required in sporting events, planning proper sports diet supplementation can only strengthen and revitalize athletes after strenuous training. Furthermore, the effects of caffeine intake on the state of alertness have been evaluated in the military as well. Significant physical performance, such as marching over rough terrain, sometimes with very heavy loads, may be required during military training and tactical operations. In addition, operational situations with reduced or sleep deprivation may occur.Thus, several studies argue that genetic background, diet, gender identity and hormonal status have a bearing on the absorption, metabolism and physiological and functional effects of caffeine. Regarding the key points - individualized dosages and timing of caffeine intake - it would be desirable to go further with the studies to optimize the effects of caffeine."
    },
    {
      "paperId": "0cb3b93ae0721b1b49950daac6b310e99b037081",
      "url": "https://www.semanticscholar.org/paper/0cb3b93ae0721b1b49950daac6b310e99b037081",
      "title": "A Single Dose of Caffeine Ingestion Improves Physical and Cognitive Performance During A 1500-M Run Competition",
      "year": 2024,
      "openAccessPdf": {
        "url": "https://journals.kmanpub.com/index.php/Health-Nexus/article/download/1877/2648",
        "status": "HYBRID",
        "license": "CCBYNC",
        "disclaimer": "Notice: Paper or abstract available at https://api.unpaywall.org/v2/10.61838/kman.hn.2.1.4?email=<INSERT_YOUR_EMAIL> or https://doi.org/10.61838/kman.hn.2.1.4, which is subject to the license by the author or copyright owner provided with this content. Please go to the source to verify the license and copyright information for your use."
      },
      "authors": [
        {
          "authorId": "1753406830",
          "name": "Amir Khcharem"
        },
        {
          "authorId": "2661580",
          "name": "Liwa Masmoudi"
        },
        {
          "authorId": "145177759",
          "name": "Z. Sahnoun"
        }
      ],
      "abstract": "Caffeine is a psychoactive world widely used substance to improve physical and cognitive athletes’ performance. However, its relative impact during outdoor competitions is not well investigated. The present investigation aimed to assess the impacts of a single moderate dose of caffeine ingestion on physical and cognitive performance following a 1500-m running competition. Methods: Fifteen recreational runners performed two test sessions in a randomized order at 09:00 a.m. after ingesting 5 mg.kg-1 caffeine or a placebo. At each session, participants realized the competition of 1500-m running in a field setting. Before and after the race, they performed the correct detection and reaction-time tasks. Compared to placebo, caffeine ingestion improved 1500-m performance time (1.5%, p < .01), increased correct detections (10.6%, p < .01), and decreased reaction time (6.3%, p < .001) following the race. Caffeine consumption is an effective strategy to enhance athletes’ physical and cognitive performances during such running distances."
    }
  ]
}