{
  "total": 1375024,
  "offset": 0,
  "next": 3,
  "data": [
    {
      "paperId": "b99679692416b54722190fa5d1f90cae984776be",
      "url": "https://www.semanticscholar.org/paper/b99679692416b54722190fa5d1f90cae984776be",
      "title": "Metabolic mechanisms in physiological and pathological cardiac hypertrophy: new paradigms and challenges",
      "year": 2023,
      "openAccessPdf": {
        "url": "",
        "status": null,
        "license": null,
        "disclaimer": "Notice: The following paper fields have been elided by the publisher: {'abstract'}. Paper or abstract available at https://api.unpaywall.org/v2/10.1038/s41569-023-00887-x?email=<INSERT_YOUR_EMAIL> or https://doi.org/10.1038/s41569-023-00887-x, which is subject to the license by the author or copyright owner provided with this content. Please go to the source to verify the license and copyright information for your use."
      },
      "authors": [
        {
          "authorId": "6881968",
          "name": "J. Ritterhoff"
        },
        {
          "authorId": "144350888",
          "name": "R. Tian"
        }
      ],
      "abstract": null
    },
    {
      "paperId": "115114800e974a5534901f067999f19f1d369a4b",
      "url": "https://www.semanticscholar.org/paper/115114800e974a5534901f067999f19f1d369a4b",
      "title": "Regression of cardiac hypertrophy in health and disease: mechanisms and therapeutic potential",
      "year": 2023,
      "openAccessPdf": {
        "url": "https://www.ncbi.nlm.nih.gov/pmc/articles/PMC10121965",
        "status": "GREEN",
        "license": null,
        "disclaimer": "Notice: The following paper fields have been elided by the publisher: {'abstract'}. Paper or abstract available at https://api.unpaywall.org/v2/10.1038/s41569-022-00806-6?email=<INSERT_YOUR_EMAIL> or https://doi.org/10.1038/s41569-022-00806-6, which is subject to the license by the author or copyright owner provided with this content. Please go to the source to verify the license and copyright information for your use."
      },
      "authors": [
        {
          "authorId": "2189436922",
          "name": "Thomas G. Martin"
        },
        {
          "authorId": "2199375625",
          "name": "Miranda A. Juarros"
        },
        {
          "authorId": "2902313",
          "name": "L. Leinwand"
        }
      ],
      "abstract": null
    },
    {
      "paperId": "2072f4994bf55b532b55f4d2b2b3c90a9ce3fd3b",
      "url": "https://www.semanticscholar.org/paper/2072f4994bf55b532b55f4d2b2b3c90a9ce3fd3b",
      "title": "USP25 Ameliorates Pathological Cardiac Hypertrophy by Stabilizing SERCA2a in Cardiomyocytes",
      "year": 2023,
      "openAccessPdf": {
        "url": "https://www.ahajournals.org/doi/pdf/10.1161/CIRCRESAHA.122.321849",
        "status": "BRONZE",
        "license": null,
        "disclaimer": "Notice: Paper or abstract available at https://api.unpaywall.org/v2/10.1161/CIRCRESAHA.122.321849?email=<INSERT_YOUR_EMAIL> or https://doi.org/10.1161/CIRCRESAHA.122.321849, which is subject to the license by the author or copyright owner provided with this content. Please go to the source to verify the license and copyright information for your use."
      },
      "authors": [
        {
          "authorId": "7579000",
          "name": "Bozhi Ye"
        },
        {
          "authorId": "2111824430",
          "name": "Hao Zhou"
        },
        {
          "authorId": "2144355464",
          "name": "Yanghao Chen"
        },
        {
          "authorId": "145951573",
          "name": "Wu Luo"
        },
        {
          "authorId": "2158343081",
          "name": "Wante Lin"
        },
        {
          "authorId": "2161257517",
          "name": "Ying Zhao"
        },
        {
          "authorId": "5927401",
          "name": "Jibo Han"
        },
        {
          "authorId": "2162782986",
          "name": "Xue Han"
        },
        {
          "authorId": "2179909086",
          "name": "Weijian Huang"
        },
        {
          "authorId": "32858528",
          "name": "Gaojun Wu"
        },
        {
          "authorId": "2155426843",
          "name": "Xu Wang"
        },
        {
          "authorId": "2161072160",
          "name": "Guang Liang"
        }
      ],
      "abstract": "Background: Pathological cardiac hypertrophy can lead to heart failure and is one of the leading causes of death globally. Understanding the molecular mechanism of pathological cardiac hypertrophy will contribute to the treatment of heart failure. DUBs (deubiquitinating enzymes) are essential to cardiac pathophysiology by precisely controlling protein function, localization, and degradation. This study set out to investigate the role and molecular mechanism of a DUB, USP25 (ubiquitin-specific peptidase 25), in pathological cardiac hypertrophy. Methods: The role of USP25 in myocardial hypertrophy was evaluated in murine cardiomyocytes in response to Ang II (angiotensin II) and transverse aortic constriction stimulation and in hypertrophic myocardium tissues of heart failure patients. Liquid chromotography with mass spectrometry/mass spectrometry analysis combined with Co-IP was used to identify SERCA2a (sarcoplasmic/endoplasmic reticulum Ca2+-ATPase 2A), an antihypertrophy protein, as an interacting protein of USP25. To clarify the molecular mechanism of USP25 in the regulation of SERCA2a, we constructed a series of mutant plasmids of USP25. In addition, we overexpressed USP25 and SERCA2a in the heart with adenoassociated virus serotype 9 vectors to validate the biological function of USP25 and SERCA2a interaction. Results: We revealed increased protein level of USP25 in murine cardiomyocytes subject to Ang II and transverse aortic constriction stimulation and in hypertrophic myocardium tissues of patients with heart failure. USP25 deficiency aggravated cardiac hypertrophy and cardiac dysfunction under Ang II and transverse aortic constriction treatment. Mechanistically, USP25 bound to SERCA2a directly via its USP (ubiquitin-specific protease) domain and cysteine at position 178 of USP25 exerts deubiquitination to maintain the stability of the SERCA2a protein by removing the K48 ubiquitin chain and preventing proteasomal pathway degradation, thereby maintaining calcium handling in cardiomyocytes. Moreover, restoration of USP25 expression via adenoassociated virus serotype 9 vectors in USP25−/− mice attenuated Ang II-induced cardiac hypertrophy and cardiac dysfunction, whereas myocardial overexpression of SERCA2a could mimic the effect of USP25. Conclusions: We confirmed that USP25 inhibited cardiac hypertrophy by deubiquitinating and stabilizing SERCA2a."
    }
  ]
}