{
  "total": 1507935,
  "offset": 0,
  "next": 3,
  "data": [
    {
      "paperId": "0840bc724cf83edac006f55ec0f3e993b17922aa",
      "url": "https://www.semanticscholar.org/paper/0840bc724cf83edac006f55ec0f3e993b17922aa",
      "title": "NAT10 Is Involved in Cardiac Remodeling Through ac4C-Mediated Transcriptomic Regulation",
      "year": 2023,
      "openAccessPdf": {
        "url": "https://www.ahajournals.org/doi/pdf/10.1161/CIRCRESAHA.122.322244",
        "status": "BRONZE",
        "license": null,
        "disclaimer": "Notice: Paper or abstract available at https://api.unpaywall.org/v2/10.1161/CIRCRESAHA.122.322244?email=<INSERT_YOUR_EMAIL> or https://doi.org/10.1161/CIRCRESAHA.122.322244, which is subject to the license by the author or copyright owner provided with this content. Please go to the source to verify the license and copyright information for your use."
      },
      "authors": [
        {
          "authorId": "11857899",
          "name": "Jing Shi"
        },
        {
          "authorId": "41071994",
          "name": "Chuanxi Yang"
        },
        {
          "authorId": "2155700826",
          "name": "Jing Zhang"
        },
        {
          "authorId": "2217946",
          "name": "Kun Zhao"
        },
        {
          "authorId": "2042793593",
          "name": "Peng Li"
        },
        {
          "authorId": "2266376632",
          "name": "Chuiyu Kong"
        },
        {
          "authorId": "2109044469",
          "name": "Xiaoguang Wu"
        },
        {
          "authorId": "48728967",
          "name": "Haoliang Sun"
        },
        {
          "authorId": "2266384460",
          "name": "Rui Zheng"
        },
        {
          "authorId": "46912300",
          "name": "Wei Sun"
        },
        {
          "authorId": "2161253654",
          "name": "Lianmin Chen"
        },
        {
          "authorId": "144496861",
          "name": "X. Kong"
        }
      ],
      "abstract": "BACKGROUND: Heart failure, characterized by cardiac remodeling, is associated with abnormal epigenetic processes and aberrant gene expression. Here, we aimed to elucidate the effects and mechanisms of NAT10 (N-acetyltransferase 10)-mediated N4-acetylcytidine (ac4C) acetylation during cardiac remodeling. METHODS: NAT10 and ac4C expression were detected in both human and mouse subjects with cardiac remodeling through multiple assays. Subsequently, acetylated RNA immunoprecipitation and sequencing, thiol-linked alkylation for the metabolic sequencing of RNA (SLAM-seq), and ribosome sequencing (Ribo-seq) were employed to elucidate the role of ac4C-modified posttranscriptional regulation in cardiac remodeling. Additionally, functional experiments involving the overexpression or knockdown of NAT10 were conducted in mice models challenged with Ang II (angiotensin II) and transverse aortic constriction. RESULTS: NAT10 expression and RNA ac4C levels were increased in in vitro and in vivo cardiac remodeling models, as well as in patients with cardiac hypertrophy. Silencing and inhibiting NAT10 attenuated Ang II-induced cardiomyocyte hypertrophy and cardiofibroblast activation. Next-generation sequencing revealed ac4C changes in both mice and humans with cardiac hypertrophy were associated with changes in global mRNA abundance, stability, and translation efficiency. Mechanistically, NAT10 could enhance the stability and translation efficiency of CD47 and ROCK2 transcripts by upregulating their mRNA ac4C modification, thereby resulting in an increase in their protein expression during cardiac remodeling. Furthermore, the administration of Remodelin, a NAT10 inhibitor, has been shown to prevent cardiac functional impairments in mice subjected to transverse aortic constriction by suppressing cardiac fibrosis, hypertrophy, and inflammatory responses, while also regulating the expression levels of CD47 and ROCK2 (Rho associated coiled-coil containing protein kinase 2). CONCLUSIONS: Therefore, our data suggest that modulating epitranscriptomic processes, such as ac4C acetylation through NAT10, may be a promising therapeutic target against cardiac remodeling."
    },
    {
      "paperId": "5bfbfb214009b4af13e4e62fbc5197b550db718c",
      "url": "https://www.semanticscholar.org/paper/5bfbfb214009b4af13e4e62fbc5197b550db718c",
      "title": "Ginsenoside Rg1 Protects against Cardiac Remodeling in Heart Failure via SIRT1/PINK1/Parkin‐Mediated Mitophagy",
      "year": 2023,
      "openAccessPdf": {
        "url": "https://onlinelibrary.wiley.com/doi/pdfdirect/10.1002/cbdv.202200730",
        "status": "HYBRID",
        "license": "CCBYNCND",
        "disclaimer": "Notice: Paper or abstract available at https://api.unpaywall.org/v2/10.1002/cbdv.202200730?email=<INSERT_YOUR_EMAIL> or https://doi.org/10.1002/cbdv.202200730, which is subject to the license by the author or copyright owner provided with this content. Please go to the source to verify the license and copyright information for your use."
      },
      "authors": [
        {
          "authorId": "10338196",
          "name": "Sibin Guan"
        },
        {
          "authorId": "14632364",
          "name": "Yuanfeng Xin"
        },
        {
          "authorId": "2200729129",
          "name": "Yagang Ding"
        },
        {
          "authorId": "1573980566",
          "name": "Qingliu Zhang"
        },
        {
          "authorId": "72549949",
          "name": "Wei Han"
        }
      ],
      "abstract": "Adverse cardiac remodeling may lead to the development and progression of heart failure, which is lack of effective clinical treatment. Ginsenoside Rg1 (GRg1), a primary ingredient of Panax ginseng, protects against diverse cardiovascular disease, but its effects on cardiac remodeling remain unclear. Thus, we investigated the protective effect and mechanism of GRg1 on cardiac remodeling after myocardial infarction. GRg1 significantly ameliorated cardiac remodeling in mice with left anterior descending coronary artery ligation, reflected by reduced left ventricular dilation and decreased cardiac fibrosis, accompanied by improved cardiac function. Mechanistically, GRg1 considerably increased mitophagosomes formation, ameliorated cardiac mitochondria damage, and enhanced SIRT1/PINK1/Parkin‐mediated mitophagy during cardiac remodeling. Consistently, GRg1 increased cell viability and attenuated apoptosis and fibrotic responses in H2O2‐treated H9c2 cells by promoting the SIRT1/PINK1/Parkin axis. Furthermore, SIRT1‐specific inhibitor (EX527) or the use of small interfering RNA against Parkin abolished the protective effect of GRg1 in vitro. These findings reveal a novel mechanism of GRg1 alleviating cardiac remodeling via enhancing SIRT1/PINK1/Parkin‐mediated mitophagy."
    },
    {
      "paperId": "b338292649ce2c0d51a8ebb82f87c6130c1bc7c5",
      "url": "https://www.semanticscholar.org/paper/b338292649ce2c0d51a8ebb82f87c6130c1bc7c5",
      "title": "OTUD1 promotes pathological cardiac remodeling and heart failure by targeting STAT3 in cardiomyocytes",
      "year": 2023,
      "openAccessPdf": {
        "url": "https://www.thno.org/v13p2263.pdf",
        "status": "GOLD",
        "license": "CCBYNC",
        "disclaimer": "Notice: Paper or abstract available at https://pmc.ncbi.nlm.nih.gov/articles/PMC10157730, which is subject to the license by the author or copyright owner provided with this content. Please go to the source to verify the license and copyright information for your use."
      },
      "authors": [
        {
          "authorId": "2266362056",
          "name": "Mengyang Wang"
        },
        {
          "authorId": "2162782986",
          "name": "Xue Han"
        },
        {
          "authorId": "2026744630",
          "name": "Tianxiang Yu"
        },
        {
          "authorId": "2160623217",
          "name": "Min-xiu Wang"
        },
        {
          "authorId": "145951573",
          "name": "Wu Luo"
        },
        {
          "authorId": "14822171",
          "name": "C. Zou"
        },
        {
          "authorId": "50079475",
          "name": "Xiuyun Li"
        },
        {
          "authorId": "2216207675",
          "name": "Gao Li"
        },
        {
          "authorId": "32858528",
          "name": "Gaojun Wu"
        },
        {
          "authorId": "47906748",
          "name": "Yi Wang"
        },
        {
          "authorId": "2161072160",
          "name": "Guang Liang"
        }
      ],
      "abstract": "Rationale: Understanding the molecular mechanisms of deleterious cardiac remodeling is important for the development of treatments for heart failure. Recent studies have highlighted a role of deubiquitinating enzymes in cardiac pathophysiology. In the present study, we screened for alteration of deubiquitinating enzymes in experimental models of cardiac remodeling, which indicated a potential role of OTU Domain-Containing Protein 1 (OTUD1). Methods: Wide-type or OTUD1 knockout mice with chronic angiotensin II infusion and transverse aortic constriction (TAC) were utilized to develop cardiac remodeling and heart failure. We also overexpressed OTUD1 in mouse heart with AAV9 vector to validate the function of OTUD1. LC-MS/MS analysis combined with Co-IP was used to identify the interacting proteins and substrates of OTUD1. Results: We found that OTUD1 is elevated in mouse heart tissues following chronic angiotensin II administration. OTUD1 knockout mice were significantly protected against angiotensin II-induced cardiac dysfunction, hypertrophy, fibrosis and inflammatory response. Similar results were obtained in the TAC model. Mechanistically, OTUD1 bounds to the SH2 domain of STAT3 and causes deubiquitination of STAT3. Cysteine at position 320 of OTUD1 exerts K63 deubiquitination to promote STAT3 phosphorylation and nuclear translocation, thereby increasing STAT3 activity to induce inflammatory responses, fibrosis, and hypertrophy in cardiomyocytes. Finally, OTUD1 overexpression by AAV9 vector increases Ang II-induced cardiac remodeling in mice and OTUD1-regulated responses can be inhibited by blocking STAT3. Conclusion: Cardiomyocyte OTUD1 promotes pathological cardiac remodeling and dysfunction by deubiquitinating STAT3. These studies have highlighted a novel role of OTUD1 in hypertensive heart failure and identified STAT3 as a target of OTUD1 in mediating these actions."
    }
  ]
}