{
  "total": 5256147,
  "offset": 0,
  "next": 5,
  "data": [
    {
      "paperId": "af27bd8ef61a74e637c91c636e67ae9259e9a900",
      "url": "https://www.semanticscholar.org/paper/af27bd8ef61a74e637c91c636e67ae9259e9a900",
      "title": "Investigating low rates of compliance to graduated compression therapy for chronic venous insufficiency: A systematic review",
      "year": 2024,
      "openAccessPdf": {
        "url": "https://onlinelibrary.wiley.com/doi/pdfdirect/10.1111/iwj.14833",
        "status": "GOLD",
        "license": "CCBYNCND",
        "disclaimer": "Notice: Paper or abstract available at https://pmc.ncbi.nlm.nih.gov/articles/PMC10961173, which is subject to the license by the author or copyright owner provided with this content. Please go to the source to verify the license and copyright information for your use."
      },
      "authors": [
        {
          "authorId": "2293241857",
          "name": "Elise Stevenson"
        },
        {
          "authorId": "49845226",
          "name": "A. Coda"
        },
        {
          "authorId": "2293241903",
          "name": "Michael D. J. Bourke"
        }
      ],
      "abstract": "Chronic venous insufficiency (CVI) is a chronic lower limb progressive disorder with significant burden. Graduated compression therapy is the gold‐standard treatment, but its underutilisation, as indicated in recent literature, may be contributing to the growing burden of CVI. The aim of this systematic review is to determine the reasons for poor compliance in patients who are prescribed graduated compression therapy in the management of chronic venous insufficiency. A systematic review of the literature was conducted to identify the reasons for non‐compliance in wearing graduated compression therapy in the management of chronic venous insufficiency. The keyword search was conducted through Medline, PubMed, CINAHL, Cochrane library, AMED, and Embase databases from 2000 to April 2023. Qualitative and quantitative studies were included with no study design or language limits imposed on the search. The study populations were restricted to adults aged over 18 years, diagnosed with chronic venous insufficiency. Of the 856 studies found, 80 full‐text articles were reviewed, with 14 being eligible for the review. Due to the variability in study designs, the results were summarised rather than subjected to meta‐analysis. There are five main overarching themes for non‐compliance, which are physical limitations, health literacy, discomfort, financial issues, and psychosocial issues with emerging sub‐themes. Graduated compression therapy has the potential to reduce the burden of chronic venous insufficiency if patients are more compliant with their prescription."
    },
    {
      "paperId": "f9ef1fd5f339c3b9444cbe10d94c8d63be7cab5d",
      "url": "https://www.semanticscholar.org/paper/f9ef1fd5f339c3b9444cbe10d94c8d63be7cab5d",
      "title": "Randomized adaptive selection trial of cryotherapy, compression therapy, and placebo to prevent taxane-induced peripheral neuropathy in patients with breast cancer",
      "year": 2023,
      "openAccessPdf": {
        "url": "",
        "status": "CLOSED",
        "license": null,
        "disclaimer": "Notice: The following paper fields have been elided by the publisher: {'abstract'}. Paper or abstract available at https://api.unpaywall.org/v2/10.1007/s10549-023-07172-y?email=<INSERT_YOUR_EMAIL> or https://doi.org/10.1007/s10549-023-07172-y, which is subject to the license by the author or copyright owner provided with this content. Please go to the source to verify the license and copyright information for your use."
      },
      "authors": [
        {
          "authorId": "2823232",
          "name": "M. Accordino"
        },
        {
          "authorId": "2268837197",
          "name": "Shing Lee"
        },
        {
          "authorId": "2272151761",
          "name": "Cheng Shiun Leu"
        },
        {
          "authorId": "2271238102",
          "name": "Bruce Levin"
        },
        {
          "authorId": "3467662",
          "name": "M. Trivedi"
        },
        {
          "authorId": "77168993",
          "name": "K. Crew"
        },
        {
          "authorId": "6799263",
          "name": "K. Kalinsky"
        },
        {
          "authorId": "1443737644",
          "name": "R. Raghunathan"
        },
        {
          "authorId": "2168754661",
          "name": "Khadija Faheem"
        },
        {
          "authorId": "2069665820",
          "name": "Erik Harden"
        },
        {
          "authorId": "2158254995",
          "name": "Alessandra Taboada"
        },
        {
          "authorId": "2271757952",
          "name": "Beatriz Desanti de Oliveira"
        },
        {
          "authorId": "2271327061",
          "name": "Elisabeth Larson"
        },
        {
          "authorId": "2117488752",
          "name": "Lauren E. Franks"
        },
        {
          "authorId": "1659099535",
          "name": "Erin Honan"
        },
        {
          "authorId": "2125282111",
          "name": "Cynthia Law"
        },
        {
          "authorId": "2256166091",
          "name": "D. Hershman"
        }
      ],
      "abstract": null
    },
    {
      "paperId": "13e9fadf4ffe98f42eed60aa36ef451be123019f",
      "url": "https://www.semanticscholar.org/paper/13e9fadf4ffe98f42eed60aa36ef451be123019f",
      "title": "Effect of ankle brachial index (abi) and compression therapy on diabetic foot ulcer healing.",
      "year": 2023,
      "openAccessPdf": {
        "url": "",
        "status": "CLOSED",
        "license": null,
        "disclaimer": "Notice: Paper or abstract available at https://api.unpaywall.org/v2/10.2174/1573399819666230331083420?email=<INSERT_YOUR_EMAIL> or https://doi.org/10.2174/1573399819666230331083420, which is subject to the license by the author or copyright owner provided with this content. Please go to the source to verify the license and copyright information for your use."
      },
      "authors": [
        {
          "authorId": "2119360947",
          "name": "Asmat Burhan"
        },
        {
          "authorId": "79317368",
          "name": "F. Arofiati"
        },
        {
          "authorId": "2213307078",
          "name": "Vanessa Abreu da Silva"
        },
        {
          "authorId": "2213436153",
          "name": "Septian Mixrova Sebayang"
        }
      ],
      "abstract": "PURPOSE\nKnowing the effect of compression therapy on the value of the Ankle Brachial Index in the healing process of Diabetic Foot Ulcer.\n\n\nDESIGN\nThis study used a quasi-experimental method with pretest-posttest with control group design with purposive sampling and non-equivalent control groups for eight weeks of treatment.\n\n\nSUBJECTS AND SETTING\nPatients diagnosed with Diabetic Foot Ulcer have and have Peripheral Artery Disease, patient characteristics are homogenized, age >18 years, wound care every three days, Ankle Brachial Index values between 0.6-1.3 mmHg, research three clinics in Indonesia in February 2021 Methods: The population with Diabetic Foot Ulcer was screened by inclusion criteria with Ankle Brachial Index and Bates-Jensen Wound Assessment Tool instruments, a total of n=140; in the study, thirteen samples were excluded, the intervention group was given Compression Therapy n= 68, and the control group was compression stockings for eight weeks n=59, the data were statistically analyzed non-parametric test using Wilcoxon and Mann-Whitney U.\n\n\nRESULTS\nStatistical analysis showed that the mean difference in paired group means was 26.4%. Meanwhile, in the mean analysis, the difference in the post-test healing of diabetic foot ulcers was 2.83%; p=0.000 and improvement of peripheral microcirculation was 33.02%; p=0.000 in the eighth week. Thus, compression therapy intervention in diabetic foot ulcer patients can improve peripheral microcirculation and increase Diabetic Foot Ulcers healing compared to the control group.\n\n\nCONCLUSION\nCompression therapy tailored to the patient's needs and according to standard operating procedures can improve peripheral microcirculation, so that blood flow in the legs becomes normal; it can speed up the healing process of Diabetic Foot Ulcers."
    },
    {
      "paperId": "8082e15f7add19eaca58366a6f85bbcd49c7514a",
      "url": "https://www.semanticscholar.org/paper/8082e15f7add19eaca58366a6f85bbcd49c7514a",
      "title": "The Usefulness of the Application of Compression Therapy among Lipedema Patients-Pilot Study",
      "year": 2023,
      "openAccessPdf": {
        "url": "https://www.mdpi.com/1660-4601/20/2/914/pdf?version=1673487360",
        "status": "GOLD",
        "license": "CCBY",
        "disclaimer": "Notice: Paper or abstract available at https://pmc.ncbi.nlm.nih.gov/articles/PMC9859460, which is subject to the license by the author or copyright owner provided with this content. Please go to the source to verify the license and copyright information for your use."
      },
      "authors": [
        {
          "authorId": "2096557871",
          "name": "Monika Czerwińska"
        },
        {
          "authorId": "49761924",
          "name": "Jacek Teodorczyk"
        },
        {
          "authorId": "2193995181",
          "name": "Dawid Spychała"
        },
        {
          "authorId": "1400689072",
          "name": "R. Hansdorfer-Korzon"
        }
      ],
      "abstract": "(1) Background: Although lipedema has gained more interest among researchers, specific treatment methods are still unknown. This study aims to identify the effects of compression therapy combined with exercises compared to exercising only. Moreover, the aim is to assess the methodology and outcome measurements before conducting a larger study. (2) Methods: Six women with lipedema were enrolled in the study; three were undergoing exercise program and compression therapy using compression leggings, and the remaining three were undergoing exercises only. During the first 4 weeks, intervention was under the supervision of a physiotherapist, and in the remaining weeks, participants were exercising independently. Measurements of circumference, weight, thickness of the skin and adipose tissue, symptom severity, and quality of life were taken at baseline, after 4 weeks and after 6 weeks; (3) Results: There was a significant decrease in the subjectively reported tendency for bruising and pain at palpation among patients that received compression therapy. Additionally, there was a tendency to reduce or maintain the circumference of the legs in patients using compression, while it tended to increase in patients without compression. (4) Conclusions: Preliminary results indicate that compression therapy, combined with exercises, could improve the quality of life and decrease the severity of lipedema symptoms. Further studies on a large clinical group are advisable."
    },
    {
      "paperId": "95c24f02f4e93ab78ffbe84573270412cecdff11",
      "url": "https://www.semanticscholar.org/paper/95c24f02f4e93ab78ffbe84573270412cecdff11",
      "title": "Compression Therapy in Dermatology",
      "year": 2023,
      "openAccessPdf": {
        "url": "https://link.springer.com/content/pdf/10.1007/s13671-023-00388-7.pdf",
        "status": "HYBRID",
        "license": "CCBY",
        "disclaimer": "Notice: Paper or abstract available at https://api.unpaywall.org/v2/10.1007/s13671-023-00388-7?email=<INSERT_YOUR_EMAIL> or https://doi.org/10.1007/s13671-023-00388-7, which is subject to the license by the author or copyright owner provided with this content. Please go to the source to verify the license and copyright information for your use."
      },
      "authors": [
        {
          "authorId": "2162290",
          "name": "M. Romanelli"
        },
        {
          "authorId": "2129478903",
          "name": "F. Manzo Margiotta"
        },
        {
          "authorId": "2150580665",
          "name": "A. Michelucci"
        },
        {
          "authorId": "2132873304",
          "name": "G. Granieri"
        },
        {
          "authorId": "2372740",
          "name": "A. Janowska"
        },
        {
          "authorId": "3742615",
          "name": "V. Dini"
        }
      ],
      "abstract": "Purpose of Review The compression therapy provides valuable support during management of vascular and inflammatory lower leg skin disorders. The review outlines the mechanism of action and the treatment options available with indications for use in wound management and general dermatology. Recent Findings Atypical wounds such as pyoderma gangrenosum, cutaneous vasculitis and other inflammatory skin diseases may benefit from the use of compression therapy. Adherence to treatment is always a challenging aspects for patients and caregiver, but modern technologies and specific materials have improved the compliance during treatment. Summary Compression therapy is a main option in vascular ulcer management. The technology provided by different devices together with new methods of bandaging application have increased the outcomes and acceptability from patients. Physicians should be aware of the advantages provided by compression therapy in skin diseases."
    }
  ]
}