{
  "total": 7425440,
  "offset": 0,
  "next": 5,
  "data": [
    {
      "paperId": "3e4b98cd215fad6cd92dcda22520fe6942937d3d",
      "url": "https://www.semanticscholar.org/paper/3e4b98cd215fad6cd92dcda22520fe6942937d3d",
      "title": "Effects of Contrast Therapy Using Infrared and Cryotherapy as Compared with Contrast Bath Therapy on Blood Flow, Muscle Tone, and Pain Threshold in Young Healthy Adults",
      "year": 2020,
      "openAccessPdf": {
        "url": "https://www.ncbi.nlm.nih.gov/pmc/articles/PMC7425122",
        "status": "GREEN",
        "license": "CCBYNCND",
        "disclaimer": "Notice: Paper or abstract available at https://pmc.ncbi.nlm.nih.gov/articles/PMC7425122, which is subject to the license by the author or copyright owner provided with this content. Please go to the source to verify the license and copyright information for your use."
      },
      "authors": [
        {
          "authorId": "2116515998",
          "name": "Jinhong Kim"
        },
        {
          "authorId": "40900765",
          "name": "Hyunkyung Jung"
        },
        {
          "authorId": "40487736",
          "name": "Jongeun Yim"
        }
      ],
      "abstract": "Background The aim of this research was to compare the effects of contrast bath therapy (CBT) and contrast therapy (CT) using infrared (IR) and cryotherapy (CR) on blood flow, muscle tone, and pain in the forearm. Material/Methods Twenty healthy individuals participated in this study. Each participant received 2 kinds of CT separated by a week. CBT involved immersion in hot water (38–40°C) for 4 minutes, followed by 1 minute of immersion in cold water (12–14°C) for four rotations. CT using IR and CR was performed in the same manner as CBT. Results The variables measured were blood flow, muscle tone, and pain before and after intervention. Both types of CT produced fluctuations in the blood flow (P<0.05). The pain threshold increased on both therapies; a significant increase was noted with IR and CR (P<0.05) therapies. Muscle elasticity was induced and stiffness was reduced with all therapies (P<0.05). IR and CR resulted in significant changes (P<0.05) in blood flow as compared with the CBT. Conclusions The results of this study suggest that CT using IR and CR is more effective in improving blood flow than CBT and has the same effect on muscle tone and pain. Nonetheless, using IR and CR is efficient with regard to mobility and maintaining temperature; therefore, it would be convenient to use these in clinical settings. Further studies involving CT should be carried out to determine whether our findings are clinically relevant."
    },
    {
      "paperId": "31b06dd0b49643729a95f2cb879bf975ac4fca07",
      "url": "https://www.semanticscholar.org/paper/31b06dd0b49643729a95f2cb879bf975ac4fca07",
      "title": "Contrast therapy promoting skin scald repair.",
      "year": 2025,
      "openAccessPdf": {
        "url": "",
        "status": null,
        "license": null,
        "disclaimer": "Notice: Paper or abstract available at https://api.unpaywall.org/v2/10.1093/jbcr/iraf161?email=<INSERT_YOUR_EMAIL> or https://doi.org/10.1093/jbcr/iraf161, which is subject to the license by the author or copyright owner provided with this content. Please go to the source to verify the license and copyright information for your use."
      },
      "authors": [
        {
          "authorId": "2239810728",
          "name": "Shuang Guo"
        },
        {
          "authorId": "2256940027",
          "name": "Yongqi Xie"
        },
        {
          "authorId": "2256863468",
          "name": "Run Peng"
        },
        {
          "authorId": "2256967351",
          "name": "Liang Zhang"
        },
        {
          "authorId": "2378941642",
          "name": "Chunjia Zhang"
        },
        {
          "authorId": "2379835907",
          "name": "Shuangyue Zhang"
        },
        {
          "authorId": "2257132339",
          "name": "Mingliang Yang"
        }
      ],
      "abstract": "Contrast therapy (CT), alternating cooling and heating therapy, has been investigated for its potential benefits in treating soft tissue injuries in sports. This study examines the efficacy of CT in enhancing skin scald repair. We established a standardized rat scald burn model, and randomized the subjects to three groups: CT, cold therapy (COT), and untreated model control (MC). Interventions commenced immediately after injury. Cutaneous blood perfusion, tissue oxygen saturation and wound healing rates were assessed. Inflammatory cytokine (IL-6, IL-1β, TNF-α) quantification were measured by Elisa. Histological changes were analyzed by hematoxylin-eosin and TUNEL staining. After 21 days' observation, CT demonstrated significant suppression of TNF-αand IL-6 protein expression in burned tissue by day 3 post-burn. Additionally, CT enhanced localized blood perfusion at both wound center/edge and increased oxygen saturation at wound edge post-treatment. The epithelial thickness in the CT group was greater than in the COT and MC groups, with a lower proportion of TUNEL-positive cells. The CT group also showed less ulceration and edema. The CT group had a higher wound healing rate on days 1, 7, and 14 post-burn compared to the other groups. In conclusion, CT ameliorates local blood microcirculation, reduces harmful inflammatory factors in scalded skin tissue, and accelerates wound healing. These findings suggest that CT may be a potential effective treatment for acute scald injuries."
    },
    {
      "paperId": "f829168282e61e5ffe343e2562f169bcd617753a",
      "url": "https://www.semanticscholar.org/paper/f829168282e61e5ffe343e2562f169bcd617753a",
      "title": "Contrast therapy: Tissue heating and cooling properties within the equine distal limb.",
      "year": 2020,
      "openAccessPdf": {
        "url": "",
        "status": null,
        "license": null,
        "disclaimer": "Notice: Paper or abstract available at https://api.unpaywall.org/v2/10.1111/evj.13278?email=<INSERT_YOUR_EMAIL> or https://doi.org/10.1111/evj.13278, which is subject to the license by the author or copyright owner provided with this content. Please go to the source to verify the license and copyright information for your use."
      },
      "authors": [
        {
          "authorId": "5333648",
          "name": "K. Haussler"
        },
        {
          "authorId": "1684911157",
          "name": "Shana R. Wilde"
        },
        {
          "authorId": "46484066",
          "name": "M. Davis"
        },
        {
          "authorId": "38995649",
          "name": "A. Hess"
        },
        {
          "authorId": "144590375",
          "name": "C. McIlwraith"
        }
      ],
      "abstract": "BACKGROUND\nRehabilitation of tendon injuries in horses often involves cryotherapy to reduce inflammation and occasionally tissue heating to increase collagen extensibility. The application of alternating cold and hot (i.e. contrast therapy) is widely used in human physical therapy; however, its utility in equine rehabilitation is largely unknown.\n\n\nOBJECTIVES\nThe objectives of this study were to 1) assess if the equipment could achieve therapeutic tissue temperatures (< 15°C and > 40°C) at different tissue depths relative to the digital flexor tendons and 2) evaluate the time-temperature profiles during serial heating and cooling cycles using a contrast therapy device.\n\n\nSTUDY DESIGN\nIn vivo experiment.\n\n\nMETHODS\nIn 4 adult horses with normal forelimb digital flexor tendons, fine-wire temperature probes were placed superficially on the skin and implanted subcutaneously, deep to the superficial digital flexor tendon (SDFT), and deep to the deep digital flexor tendon (DDFT). Temperatures were recorded over three complete thermal (hot-cold) cycles. Minimum and maximum temperatures were recorded and the rate of temperature changes and the areas underneath the time-temperature curves (i.e. thermal load) were calculated.\n\n\nRESULTS\nMinimum and maximum tissue temperatures (°C) included: superficial skin [12.6 ± 1.0; 42.4 ± 2.4], subcutaneous tissues [14.1 ± 0.8; 42.3 ± 2.2], deep to the SDFT [15.6 ± 0.8; 41.7 ± 2.6], and deep to DDFT [25.1 ± 2.0; 38.0 ± 3.5]. An initial rapid rate of tissue temperature change between 3.2 to 4.3°C/min occurred within tissues to the depth of the DDFT. Tissue thermal loads during heating ranged from 255 to 607°C*sec and from 309 to 780°C*sec during tissue cooling, with the lower values noted deep to the DDFT.\n\n\nMAIN LIMITATIONS\nUnknown clinical efficacy in diseased tissues.\n\n\nCONCLUSIONS\nThe applied contrast therapy was consistently able to induce cooling and heating of tissues to the depth of the DDFT."
    },
    {
      "paperId": "52abd1fd81c17755d0346ed329aaeac3c2e39189",
      "url": "https://www.semanticscholar.org/paper/52abd1fd81c17755d0346ed329aaeac3c2e39189",
      "title": "Contrast Therapy and Heat Therapy in Subacute Stage of Grade I and II Lateral Ankle Sprains",
      "year": 2016,
      "openAccessPdf": {
        "url": "",
        "status": "CLOSED",
        "license": null,
        "disclaimer": "Notice: The following paper fields have been elided by the publisher: {'abstract'}. Paper or abstract available at https://api.unpaywall.org/v2/10.1177/1938640016640885?email=<INSERT_YOUR_EMAIL> or https://doi.org/10.1177/1938640016640885, which is subject to the license by the author or copyright owner provided with this content. Please go to the source to verify the license and copyright information for your use."
      },
      "authors": [
        {
          "authorId": "84410047",
          "name": "R. Weerasekara"
        },
        {
          "authorId": "2251003919",
          "name": "Sampath Tennakoon"
        },
        {
          "authorId": "2270816604",
          "name": "Hilary J. Suraweera"
        }
      ],
      "abstract": null
    },
    {
      "paperId": "a8eea6735f8dcfaed835819edcb97907cacad172",
      "url": "https://www.semanticscholar.org/paper/a8eea6735f8dcfaed835819edcb97907cacad172",
      "title": "Phonological contrast therapy for children making consistent phonological errors",
      "year": 2017,
      "openAccessPdf": {
        "url": "",
        "status": null,
        "license": null
      },
      "authors": [
        {
          "authorId": "48687098",
          "name": "Sharon Crosbie"
        },
        {
          "authorId": "40473700",
          "name": "Alison Holm"
        }
      ],
      "abstract": null
    }
  ]
}