{
  "total": 614,
  "offset": 0,
  "next": 3,
  "data": [
    {
      "paperId": "336637ab663f04b90612b6a12272343caac10797",
      "url": "https://www.semanticscholar.org/paper/336637ab663f04b90612b6a12272343caac10797",
      "title": "Creatine Supplementation and Upper Limb Strength Performance: A Systematic Review and Meta-Analysis",
      "year": 2016,
      "openAccessPdf": {
        "url": "",
        "status": "CLOSED",
        "license": null,
        "disclaimer": "Notice: The following paper fields have been elided by the publisher: {'abstract'}. Paper or abstract available at https://api.unpaywall.org/v2/10.1007/s40279-016-0571-4?email=<INSERT_YOUR_EMAIL> or https://doi.org/10.1007/s40279-016-0571-4, which is subject to the license by the author or copyright owner provided with this content. Please go to the source to verify the license and copyright information for your use."
      },
      "authors": [
        {
          "authorId": "6908111",
          "name": "C. Lanhers"
        },
        {
          "authorId": "2055084705",
          "name": "B. Pereira"
        },
        {
          "authorId": "144481366",
          "name": "G. Naughton"
        },
        {
          "authorId": "4338344",
          "name": "M. Trousselard"
        },
        {
          "authorId": "4212525",
          "name": "F. Lesage"
        },
        {
          "authorId": "5309753",
          "name": "F. Dutheil"
        }
      ],
      "abstract": null
    },
    {
      "paperId": "e0e2abc6d39674e389761e8760462af6aa3e3abb",
      "url": "https://www.semanticscholar.org/paper/e0e2abc6d39674e389761e8760462af6aa3e3abb",
      "title": "Creatine Supplementation and Lower Limb Strength Performance: A Systematic Review and Meta-Analyses",
      "year": 2015,
      "openAccessPdf": {
        "url": "",
        "status": "CLOSED",
        "license": null,
        "disclaimer": "Notice: The following paper fields have been elided by the publisher: {'abstract'}. Paper or abstract available at https://api.unpaywall.org/v2/10.1007/s40279-015-0337-4?email=<INSERT_YOUR_EMAIL> or https://doi.org/10.1007/s40279-015-0337-4, which is subject to the license by the author or copyright owner provided with this content. Please go to the source to verify the license and copyright information for your use."
      },
      "authors": [
        {
          "authorId": "6908111",
          "name": "C. Lanhers"
        },
        {
          "authorId": "2055084705",
          "name": "B. Pereira"
        },
        {
          "authorId": "144481366",
          "name": "G. Naughton"
        },
        {
          "authorId": "4338344",
          "name": "M. Trousselard"
        },
        {
          "authorId": "4212525",
          "name": "F. Lesage"
        },
        {
          "authorId": "5309753",
          "name": "F. Dutheil"
        }
      ],
      "abstract": null
    },
    {
      "paperId": "f02dcee29a7e2e59da4fa1ed810f7812a088bcb9",
      "url": "https://www.semanticscholar.org/paper/f02dcee29a7e2e59da4fa1ed810f7812a088bcb9",
      "title": "Effects of Short-Term Creatine Monohydrate Supplementation Combined with Strength Training on the Physical Fitness Characteristics and Muscle Hypertrophy in Junior Women Wrestlers",
      "year": 2024,
      "openAccessPdf": {
        "url": "",
        "status": null,
        "license": null,
        "disclaimer": "Notice: Paper or abstract available at https://api.unpaywall.org/v2/10.1055/s-0044-1788683?email=<INSERT_YOUR_EMAIL> or https://doi.org/10.1055/s-0044-1788683, which is subject to the license by the author or copyright owner provided with this content. Please go to the source to verify the license and copyright information for your use."
      },
      "authors": [
        {
          "authorId": "83381627",
          "name": "G. Zahabi"
        },
        {
          "authorId": "2395862174",
          "name": "Amador García‐Ramos"
        },
        {
          "authorId": "2279096428",
          "name": "Vladimir Ilic"
        },
        {
          "authorId": "4022314",
          "name": "A. Nedeljković"
        },
        {
          "authorId": "13959731",
          "name": "V. Štajer"
        },
        {
          "authorId": "2138182001",
          "name": "Nenad Žugaj"
        },
        {
          "authorId": "101111532",
          "name": "Damir Pekas"
        }
      ],
      "abstract": "Abstract Background  Creatine is a nutritional supplement commonly used to increase strength performance and muscle mass, but its effects on female wrestlers are still unclear and equivocal. The purpose of the present study is to investigate the efficacy of short-term creatine monohydrate supplementation combined with strength training on the physical fitness characteristics and muscle hypertrophy in junior women wrestlers. Methodology  Eighteen women wrestlers (age = 18.7 ± 0.9 years, body mass index = 21.4 ± 2.5 kg/m 2 ) participated in this research. Participants were randomly divided into three groups: Experimental Group 1—EXP1: (training with creatine supplementation), Experimental Group 2—EXP2: (training without creatine supplementation), and Control group (without training or creatine supplementation). Strength training was performed for 6 weeks, four sessions per week, with a training intensity ranging from 65 to 75% of the maximal heart rate reserve and one-repetition maximum. EXP1 was supplemented with 10 g creatine during training days. Various physical fitness characteristics and muscle hypertrophy variables were collected at three time points (pretest, midtest, and posttest). Results  A number of variables were significantly improved in the EXP1 after 6 weeks (weight, body mass index, one-repetition maximum, agility, muscular power, and hypertrophy) but not in the EXP2 and control groups. Conclusion  Short-term creatine supplementation, in conjunction with strength training, emerges as a highly effective approach for enhancing hypertrophy and boosting physical fitness factors in female wrestlers. Therefore, it is recommended that junior wrestlers individuals supplement with creatine during their strength training routines."
    }
  ]
}