{
  "total": 16472,
  "offset": 0,
  "next": 5,
  "data": [
    {
      "paperId": "63bdd76fdf5d71e73542d8946125ab6218827d33",
      "url": "https://www.semanticscholar.org/paper/63bdd76fdf5d71e73542d8946125ab6218827d33",
      "title": "Efficacy of cryotherapy in the prevention of chemotherapy-induced peripheral neuropathy: A systematic review and meta-analysis",
      "year": 2024,
      "openAccessPdf": {
        "url": "",
        "status": "CLOSED",
        "license": null,
        "disclaimer": "Notice: The following paper fields have been elided by the publisher: {'abstract'}. Paper or abstract available at https://api.unpaywall.org/v2/10.1007/s00520-024-08680-3?email=<INSERT_YOUR_EMAIL> or https://doi.org/10.1007/s00520-024-08680-3, which is subject to the license by the author or copyright owner provided with this content. Please go to the source to verify the license and copyright information for your use."
      },
      "authors": [
        {
          "authorId": "2300218505",
          "name": "Hsiu-Yu Tai"
        },
        {
          "authorId": "2198745495",
          "name": "Lee-Yuan Lin"
        },
        {
          "authorId": "2291322635",
          "name": "Tsai-Wei Huang"
        },
        {
          "authorId": "2005133556",
          "name": "Made Satya Nugraha Gautama"
        }
      ],
      "abstract": null
    },
    {
      "paperId": "1df4b69a603012be7bb94b22f5b1cdbb81a3511e",
      "url": "https://www.semanticscholar.org/paper/1df4b69a603012be7bb94b22f5b1cdbb81a3511e",
      "title": "Cryotherapy for treating soft tissue injuries in sport medicine: a critical review",
      "year": 2024,
      "openAccessPdf": {
        "url": "",
        "status": "CLOSED",
        "license": null,
        "disclaimer": "Notice: Paper or abstract available at https://api.unpaywall.org/v2/10.1136/bjsports-2024-108304?email=<INSERT_YOUR_EMAIL> or https://doi.org/10.1136/bjsports-2024-108304, which is subject to the license by the author or copyright owner provided with this content. Please go to the source to verify the license and copyright information for your use."
      },
      "authors": [
        {
          "authorId": "2243244399",
          "name": "S. Racinais"
        },
        {
          "authorId": "2313061929",
          "name": "Valentin Dablainville"
        },
        {
          "authorId": "2313063564",
          "name": "Yohan Rousse"
        },
        {
          "authorId": "108793414",
          "name": "M. Ihsan"
        },
        {
          "authorId": "84656625",
          "name": "Marie-Elaine Grant"
        },
        {
          "authorId": "2313063538",
          "name": "Wolfgang Schobersberger"
        },
        {
          "authorId": "145777847",
          "name": "R. Budgett"
        },
        {
          "authorId": "2242631957",
          "name": "L. Engebretsen"
        }
      ],
      "abstract": "Sports medicine physicians and physiotherapists commonly use cryotherapy (eg, ice application) postinjury to decrease tissue temperature with the objective of reducing pain, limiting secondary injury and inflammation, and supporting healing. However, besides the analgesic effect of cryotherapy, a literature search revealed no evidence from human studies that cryotherapy limits secondary injury or has positive effects on tissue regeneration. Thus, our current understanding of the potential mechanisms and applications of cryotherapy largely relies on the results from animal studies. Importantly, treatment should not aim at obliterating the inflammatory and regeneration processes but instead aim to restore an adapted/normal regulation of these processes to improve function and recovery. However, some animal studies suggest that cryotherapy may delay or impair tissue regeneration. With the translation of laboratory animal studies to human sport medicine being limited by different injury and muscle characteristics, the effect of cryotherapy in patients with musculoskeletal injuries is uncertain. Thus, pending the results of human studies, cryotherapy may be recommended in the first 6 hours following an injury to reduce pain (and possibly haematoma), but it should be used with caution beyond 12 hours postinjury as animal studies suggest it may interfere with tissue healing and regeneration."
    },
    {
      "paperId": "fed67f0411f819f1dcc46dbf65cd29061de69435",
      "url": "https://www.semanticscholar.org/paper/fed67f0411f819f1dcc46dbf65cd29061de69435",
      "title": "Randomized controlled trial of compressive cryotherapy versus standard cryotherapy after total knee arthroplasty: pain, swelling, range of motion and functional recovery",
      "year": 2024,
      "openAccessPdf": {
        "url": "https://bmcmusculoskeletdisord.biomedcentral.com/counter/pdf/10.1186/s12891-024-07310-7",
        "status": "GOLD",
        "license": "CCBY",
        "disclaimer": "Notice: Paper or abstract available at https://pmc.ncbi.nlm.nih.gov/articles/PMC10900683, which is subject to the license by the author or copyright owner provided with this content. Please go to the source to verify the license and copyright information for your use."
      },
      "authors": [
        {
          "authorId": "2287812530",
          "name": "Aude Quesnot"
        },
        {
          "authorId": "2287812513",
          "name": "Simon Mouchel"
        },
        {
          "authorId": "2287822479",
          "name": "Salma Ben Salah"
        },
        {
          "authorId": "2287809964",
          "name": "Ilana Baranes"
        },
        {
          "authorId": "2147294430",
          "name": "Lucas Martinez"
        },
        {
          "authorId": "2267674814",
          "name": "Fabien Billuart"
        }
      ],
      "abstract": "Background After total knee arthroplasty (TKA), patients have limited knee range of motion (ROM), trophic changes and pain. Cryotherapy and compression are recommended in the literature, but no study has shown that cryotherapy and compression combined leads to better results than cryotherapy alone. The primary objective was to compare knee ROM after 21 days of rehabilitation post-TKA between patients who underwent rehabilitation with compressive cryotherapy with those who had cryotherapy alone. The secondary objectives were to compare other trophic, pain and functional outcomes. Methods Forty patients were randomized into two groups: Standard Cryotherapy (SC = 20, median age 77 years), which applied cold packs along with their rehabilitation; and Compressive Cryotherapy (CC = 20, median age 76 years), which received cold compression. Knee joint’s passive and active ROM (primary outcome) were measured with a goniometer. Knee’s circumference, fluctuation test, pain at rest and during activity, 6-minute walking test (6MWT) and KOOS questionnaire were secondary outcomes. The groups were compared on D1 (baseline) and D21 of rehabilitation. A survival analysis has compared the groups on D1, D8, D15, D21. Results All subjects had a significant improvement in all the parameters on D21 relative to D1 ( p  < .05), except for pain at rest ( p  = .065 for CC and p  = .052 for SC). On D21, the CC group had a significantly larger improvement in the joint effusion ( p  = .002), pain during activity ( p  = .005), 6MWT ( p  = .018) and KOOS ( p  = .004) than the SC group. Based on the survival analysis, the CC group had significantly faster improvement in the joint ROM ( p  = .011 for flexion and p  = .038 for extension) and knee circumference ( p  = .013) than the SC group. Conclusions Both cryotherapy methods improved joint ROM, trophic changes, pain and function. Adding dynamic compression to a cryotherapy protocol provided further benefits: a significantly faster improvement in passive knee flexion ROM, a greater reduction of swelling, and pain during activity. Similarly, walking distance and KOOS questionnaire were significantly better for CC. Trials registration The study was registered in the ClinicalTrials.gov database on 14/09/2023 (identifier: NCT06037824)."
    },
    {
      "paperId": "6ac22154c8b569da5affb4919fbad5900270c9d8",
      "url": "https://www.semanticscholar.org/paper/6ac22154c8b569da5affb4919fbad5900270c9d8",
      "title": "Evaluating safety risks of whole-body cryotherapy/cryostimulation (WBC): a scoping review from an international consortium",
      "year": 2023,
      "openAccessPdf": {
        "url": "https://eurjmedres.biomedcentral.com/counter/pdf/10.1186/s40001-023-01385-z",
        "status": "GOLD",
        "license": "CCBY",
        "disclaimer": "Notice: Paper or abstract available at https://pmc.ncbi.nlm.nih.gov/articles/PMC10537204, which is subject to the license by the author or copyright owner provided with this content. Please go to the source to verify the license and copyright information for your use."
      },
      "authors": [
        {
          "authorId": "2248341291",
          "name": "Fabien D. Legrand"
        },
        {
          "authorId": "2248342106",
          "name": "Benoit Dugué"
        },
        {
          "authorId": "2248353140",
          "name": "Joe Costello"
        },
        {
          "authorId": "2248365944",
          "name": "Chris M Bleakley"
        },
        {
          "authorId": "2248098404",
          "name": "Elżbieta Miller"
        },
        {
          "authorId": "12626864",
          "name": "J. Broatch"
        },
        {
          "authorId": "2248341217",
          "name": "Guillaume Polidori"
        },
        {
          "authorId": "4612634",
          "name": "A. Lubkowska"
        },
        {
          "authorId": "2248152887",
          "name": "Julien Louis"
        },
        {
          "authorId": "2248353301",
          "name": "Giovanni Lombardi"
        },
        {
          "authorId": "2248340924",
          "name": "François Bieuzen"
        },
        {
          "authorId": "2241864179",
          "name": "Paolo Capodaglio"
        }
      ],
      "abstract": "Over the two last decades, whole-body cryotherapy/cryostimulation (WBC) has emerged as an exciting non-pharmacological treatment influencing inflammatory events at a cellular and physiological level, which can result in improved sleep quality, faster neuromuscular recovery after high-intensity exercise, and chronic pain relief for patients suffering different types of diseases (fibromyalgia, rheumatism, arthritis). Some evidence even suggests that WBC has benefits on mental health (depression, anxiety disorders) and cognitive functions in both adults and older adults, due to increased circulating BDNF levels. Recently, some safety concerns have been expressed by influential public health authorities (e.g., FDA, INSERM) based on reports from patients who developed adverse events upon or following WBC treatment. However, part of the data used to support these claims involved individuals whose entire body (except head) was exposed to extreme cold vaporized liquid nitrogen while standing in a narrow bathtub. Such a procedure is known as partial-body cryotherapy (PBC), and is often erroneously mistaken to be whole-body cryotherapy. Although having similarities in terms of naming and pursued aims, these two approaches are fundamentally different. The present article reviews the available literature on the main safety concerns associated with the use of true whole-body cryotherapy. English- and French-language reports of empirical studies including case reports, case series, and randomized controlled trials (RCTs) were identified through searches of PubMed, Scopus, Cochrane, and Web of Science electronic databases. Five case reports and two RCTs were included for a total of 16 documented adverse events (AEs). A critical in-depth evaluation of these AEs (type, severity, context of onset, participant’s medical background, follow-up) is proposed and used to illustrate that WBC-related safety risks are within acceptable limits and can be proactively prevented by adhering to existing recommendations, contraindications, and commonsense guidelines."
    },
    {
      "paperId": "f9ef1fd5f339c3b9444cbe10d94c8d63be7cab5d",
      "url": "https://www.semanticscholar.org/paper/f9ef1fd5f339c3b9444cbe10d94c8d63be7cab5d",
      "title": "Randomized adaptive selection trial of cryotherapy, compression therapy, and placebo to prevent taxane-induced peripheral neuropathy in patients with breast cancer",
      "year": 2023,
      "openAccessPdf": {
        "url": "",
        "status": "CLOSED",
        "license": null,
        "disclaimer": "Notice: The following paper fields have been elided by the publisher: {'abstract'}. Paper or abstract available at https://api.unpaywall.org/v2/10.1007/s10549-023-07172-y?email=<INSERT_YOUR_EMAIL> or https://doi.org/10.1007/s10549-023-07172-y, which is subject to the license by the author or copyright owner provided with this content. Please go to the source to verify the license and copyright information for your use."
      },
      "authors": [
        {
          "authorId": "2823232",
          "name": "M. Accordino"
        },
        {
          "authorId": "2268837197",
          "name": "Shing Lee"
        },
        {
          "authorId": "2272151761",
          "name": "Cheng Shiun Leu"
        },
        {
          "authorId": "2271238102",
          "name": "Bruce Levin"
        },
        {
          "authorId": "3467662",
          "name": "M. Trivedi"
        },
        {
          "authorId": "77168993",
          "name": "K. Crew"
        },
        {
          "authorId": "6799263",
          "name": "K. Kalinsky"
        },
        {
          "authorId": "1443737644",
          "name": "R. Raghunathan"
        },
        {
          "authorId": "2168754661",
          "name": "Khadija Faheem"
        },
        {
          "authorId": "2069665820",
          "name": "Erik Harden"
        },
        {
          "authorId": "2158254995",
          "name": "Alessandra Taboada"
        },
        {
          "authorId": "2271757952",
          "name": "Beatriz Desanti de Oliveira"
        },
        {
          "authorId": "2271327061",
          "name": "Elisabeth Larson"
        },
        {
          "authorId": "2117488752",
          "name": "Lauren E. Franks"
        },
        {
          "authorId": "1659099535",
          "name": "Erin Honan"
        },
        {
          "authorId": "2125282111",
          "name": "Cynthia Law"
        },
        {
          "authorId": "2256166091",
          "name": "D. Hershman"
        }
      ],
      "abstract": null
    }
  ]
}