{
  "total": 7279694,
  "offset": 0,
  "next": 5,
  "data": [
    {
      "paperId": "52a35febdba0e1196b4e32fb9763be0cbc145b09",
      "url": "https://www.semanticscholar.org/paper/52a35febdba0e1196b4e32fb9763be0cbc145b09",
      "title": "Polyethylene oxide film coating enhances lithium cycling efficiency of an anode-free lithium-metal battery.",
      "year": 2018,
      "openAccessPdf": {
        "url": "https://doi.org/10.1039/c7nr09058g",
        "status": "HYBRID",
        "license": "publisher-specific, author manuscript: http://rsc.li/journals-terms-of-use",
        "disclaimer": "Notice: The following paper fields have been elided by the publisher: {'abstract'}. Paper or abstract available at https://api.unpaywall.org/v2/10.1039/C7NR09058G?email=<INSERT_YOUR_EMAIL> or https://doi.org/10.1039/C7NR09058G, which is subject to the license by the author or copyright owner provided with this content. Please go to the source to verify the license and copyright information for your use."
      },
      "authors": [
        {
          "authorId": "40637580",
          "name": "Addisu Alemayehu Assegie"
        },
        {
          "authorId": "15177968",
          "name": "Ju-Hsiang Cheng"
        },
        {
          "authorId": "112964824",
          "name": "Li-Ming Kuo"
        },
        {
          "authorId": "50193246",
          "name": "Wei‐Nien Su"
        },
        {
          "authorId": "145489383",
          "name": "B. Hwang"
        }
      ],
      "abstract": null
    },
    {
      "paperId": "3f7a7c122898f63ad8feb80f26750bd0b7ef34af",
      "url": "https://www.semanticscholar.org/paper/3f7a7c122898f63ad8feb80f26750bd0b7ef34af",
      "title": "Combinatorial Methods for Improving Lithium Metal Cycling Efficiency",
      "year": 2018,
      "openAccessPdf": {
        "url": "http://jes.ecsdl.org/content/165/13/A3000.full.pdf",
        "status": "HYBRID",
        "license": "CCBY",
        "disclaimer": "Notice: Paper or abstract available at https://api.unpaywall.org/v2/10.1149/2.0401813JES?email=<INSERT_YOUR_EMAIL> or https://doi.org/10.1149/2.0401813JES, which is subject to the license by the author or copyright owner provided with this content. Please go to the source to verify the license and copyright information for your use."
      },
      "authors": [
        {
          "authorId": "12500227",
          "name": "M. Genovese"
        },
        {
          "authorId": "93105896",
          "name": "A. Louli"
        },
        {
          "authorId": "94130945",
          "name": "Rochelle Weber"
        },
        {
          "authorId": "50644202",
          "name": "R. Sanderson"
        },
        {
          "authorId": "2109890095",
          "name": "Michel B. Johnson"
        },
        {
          "authorId": "5465828",
          "name": "J. Dahn"
        }
      ],
      "abstract": "An efficient combinatorial approach for the design and evaluation of surface coatings to improve lithium metal cycling efficiency is demonstrated. The reliability of a 64 electrode combinatorial cell was verified through lithium metal cycling in a range of electrolytes on unmodified Ni and Cu electrode plates with parallel verification using conventional Cu|| Li coin cells. A 1M LiPF6 FEC:TFEC fluorinated electrolyte demonstrated the best performance with coulombic efficiencies of 98.3% and 97.6% in the combinatorial cell (cyclic voltammetry) and coin cell (galvanostatic cycling) respectively, compared to only 91.0% (CV) and 90.3% (galvanostatic) for a 1M LiPF6 EC:DEC control electrolyte. High throughput sputtering was used to deposit different thin film coatings of varying thickness on the 64-channel cell plates to probe the lithium cycling performance as a function of electrolyte and surface coating. Zn surface coatings with thickness between 400–900 nm proved most beneficial; significantly reducing the lithium nucleation potential and leading to more stable cycling at high coulombic efficiency (99.0% in the combinatorial cell with FEC:TFEC electrolyte). These findings not only highlight some useful strategies for improving lithium metal cycling efficiency, but also show the potential for more advanced combinatorial analysis to design superior anodes for lithium metal cells. © The Author(s) 2018. Published by ECS. This is an open access article distributed under the terms of the Creative Commons Attribution 4.0 License (CC BY, http://creativecommons.org/licenses/by/4.0/), which permits unrestricted reuse of the work in any medium, provided the original work is properly cited. [DOI: 10.1149/2.0401813jes]"
    },
    {
      "paperId": "63d024bd72eb8171dbdb86a7dbeab81c88edfac3",
      "url": "https://www.semanticscholar.org/paper/63d024bd72eb8171dbdb86a7dbeab81c88edfac3",
      "title": "Cycling efficiency and energy cost of walking in young and older adults.",
      "year": 2018,
      "openAccessPdf": {
        "url": "https://www.physiology.org/doi/pdf/10.1152/japplphysiol.00789.2017",
        "status": "BRONZE",
        "license": null,
        "disclaimer": "Notice: The following paper fields have been elided by the publisher: {'abstract'}. Paper or abstract available at https://api.unpaywall.org/v2/10.1152/japplphysiol.00789.2017?email=<INSERT_YOUR_EMAIL> or https://doi.org/10.1152/japplphysiol.00789.2017, which is subject to the license by the author or copyright owner provided with this content. Please go to the source to verify the license and copyright information for your use."
      },
      "authors": [
        {
          "authorId": "3618184",
          "name": "G. Gaesser"
        },
        {
          "authorId": "5130507",
          "name": "Wesley J Tucker"
        },
        {
          "authorId": "3212858",
          "name": "Brandon J. Sawyer"
        },
        {
          "authorId": "6769095",
          "name": "D. Bhammar"
        },
        {
          "authorId": "3046739",
          "name": "S. Angadi"
        }
      ],
      "abstract": null
    },
    {
      "paperId": "fdefbe14a2748f0cb49bc5c062a6611c4a6c11db",
      "url": "https://www.semanticscholar.org/paper/fdefbe14a2748f0cb49bc5c062a6611c4a6c11db",
      "title": "Efficiency of cycling exercise: Quantification, mechanisms, and misunderstandings",
      "year": 2022,
      "openAccessPdf": {
        "url": "",
        "status": null,
        "license": null,
        "disclaimer": "Notice: Paper or abstract available at https://api.unpaywall.org/v2/10.1111/sms.14149?email=<INSERT_YOUR_EMAIL> or https://doi.org/10.1111/sms.14149, which is subject to the license by the author or copyright owner provided with this content. Please go to the source to verify the license and copyright information for your use."
      },
      "authors": [
        {
          "authorId": "1816150844",
          "name": "Keenan B. MacDougall"
        },
        {
          "authorId": "81210138",
          "name": "Tara. M. Falconer"
        },
        {
          "authorId": "2671224",
          "name": "B. MacIntosh"
        }
      ],
      "abstract": "The energetics of cycling represents a well‐studied area of exercise science, yet there are still many questions that remain. Efficiency, broadly defined as the ratio of energy output to energy input, is one key metric that, despite its importance from both a scientific as well as performance perspective, is commonly misunderstood. There are many factors that may affect cycling efficiency, both intrinsic (e.g., muscle fiber type composition) and extrinsic (e.g., cycling cadence, prior exercise, and training), creating a complex interplay of many components. Due to its relative simplicity, the measurement of oxygen uptake continues to be the most common means of measuring the energy cost of exercise (and thus efficiency); however, it is limited to only a small proportion of the range of outputs humans are capable of, further limiting our understanding of the energetics of high‐intensity exercise and any mechanistic bases therein. This review presents evidence that delta efficiency does not represent muscular efficiency and challenges the notion that the slow component of oxygen uptake represents decreasing efficiency. It is noted that gross efficiency increases as intensity of exercise increases in spite of the fact that fast‐twitch fibers are recruited to achieve this high power output. Understanding the energetics of high‐intensity exercise will require critical evaluation of the available data."
    },
    {
      "paperId": "29ef1bc193e8f8eca0553581682e3b7aa6ddb1f6",
      "url": "https://www.semanticscholar.org/paper/29ef1bc193e8f8eca0553581682e3b7aa6ddb1f6",
      "title": "Lithium dendrite suppression and cycling efficiency of lithium anode",
      "year": 2018,
      "openAccessPdf": {
        "url": "https://www.sciencedirect.com/science/article/am/pii/S1388248117303478",
        "status": "BRONZE",
        "license": "publisher-specific-oa",
        "disclaimer": "Notice: The following paper fields have been elided by the publisher: {'abstract'}. Paper or abstract available at https://api.unpaywall.org/v2/10.1016/J.ELECOM.2017.12.012?email=<INSERT_YOUR_EMAIL> or https://doi.org/10.1016/J.ELECOM.2017.12.012, which is subject to the license by the author or copyright owner provided with this content. Please go to the source to verify the license and copyright information for your use."
      },
      "authors": [
        {
          "authorId": "2151330468",
          "name": "P. Zhang"
        },
        {
          "authorId": "2359775948",
          "name": "Jiajia Zhu"
        },
        {
          "authorId": "2111002407",
          "name": "Miao Wang"
        },
        {
          "authorId": "91553406",
          "name": "N. Imanishi"
        },
        {
          "authorId": "145612801",
          "name": "O. Yamamoto"
        }
      ],
      "abstract": null
    }
  ]
}