{
  "total": 1293,
  "offset": 0,
  "next": 5,
  "data": [
    {
      "paperId": "1ffc6d138b61a441e58b6cafdaa6a5d539d0bb06",
      "url": "https://www.semanticscholar.org/paper/1ffc6d138b61a441e58b6cafdaa6a5d539d0bb06",
      "title": "Normative data for the squat, bench press and deadlift exercises in powerlifting: Data from 809,986 competition entries.",
      "year": 2024,
      "openAccessPdf": {
        "url": "",
        "status": "CLOSED",
        "license": null,
        "disclaimer": "Notice: Paper or abstract available at https://api.unpaywall.org/v2/10.1016/j.jsams.2024.07.005?email=<INSERT_YOUR_EMAIL> or https://doi.org/10.1016/j.jsams.2024.07.005, which is subject to the license by the author or copyright owner provided with this content. Please go to the source to verify the license and copyright information for your use."
      },
      "authors": [
        {
          "authorId": "8254368",
          "name": "Daniel J. van den Hoek"
        },
        {
          "authorId": "2244475258",
          "name": "Patrick L. Beaumont"
        },
        {
          "authorId": "2311263801",
          "name": "Adele K. van den Hoek"
        },
        {
          "authorId": "13097042",
          "name": "Patrick J Owen"
        },
        {
          "authorId": "51212116",
          "name": "Joel M. Garrett"
        },
        {
          "authorId": "84544596",
          "name": "R. Buhmann"
        },
        {
          "authorId": "2242980749",
          "name": "C. Latella"
        }
      ],
      "abstract": null
    },
    {
      "paperId": "321f6860198d7abec74ee53693127eeddc248d46",
      "url": "https://www.semanticscholar.org/paper/321f6860198d7abec74ee53693127eeddc248d46",
      "title": "The effect of real-time visual feedback and verbal encouragement on repetition velocity of squat, bench press and deadlift exercises in competitive powerlifters",
      "year": 2024,
      "openAccessPdf": {
        "url": "",
        "status": "CLOSED",
        "license": null,
        "disclaimer": "Notice: Paper or abstract available at https://api.unpaywall.org/v2/10.1177/17479541241298189?email=<INSERT_YOUR_EMAIL> or https://doi.org/10.1177/17479541241298189, which is subject to the license by the author or copyright owner provided with this content. Please go to the source to verify the license and copyright information for your use."
      },
      "authors": [
        {
          "authorId": "1785392774",
          "name": "V. Concon"
        },
        {
          "authorId": "2332225926",
          "name": "Ronaldo Kobal"
        },
        {
          "authorId": "1406039949",
          "name": "L. Carvalho"
        },
        {
          "authorId": "6957156",
          "name": "E. Crivoi do Carmo"
        },
        {
          "authorId": "2332227997",
          "name": "David Coimbra"
        },
        {
          "authorId": "2259291677",
          "name": "Renato Barroso"
        }
      ],
      "abstract": "This study aimed to compare the effects of real-time visual feedback, verbal encouragement, and no-feedback control condition on repetition velocity. Twelve highly-trained powerlifters (10 men and 2 women) participated in a crossover-designed experiment, performing the same training session under three conditions: real-time visual feedback (VF), verbal encouragement (VE), and control. The training session involved three sets of four repetitions in the squat, bench press, and deadlift exercises, with a workload set at 70% of one-repetition maximum (1RM). Repetition velocity was measured using a linear encoder. In the VF condition, participants observed their velocity on a mobile screen after each repetition. In the VE condition, participants received verbal encouragement without access to velocity information on the screen. The Control condition provided no feedback. A mixed model analysis was used to compare velocity across repetitions, sets, and conditions. Results revealed differences between the control condition and both VE and VF in the squat and bench press exercises (p < 0.05). Only in the VF condition, velocity was higher than control in the deadlift exercise (p < 0.05). Coaches and practitioners are encouraged to use real-time visual feedback and/or verbal encouragement during training to enhance repetition velocity. Incorporating these feedback strategies during strength training of highly-trained powerlifters can improve velocity performance."
    },
    {
      "paperId": "3dd0cad7bfc03b33bf366c5663e9d51238816b09",
      "url": "https://www.semanticscholar.org/paper/3dd0cad7bfc03b33bf366c5663e9d51238816b09",
      "title": "The magnitude of correlation between deadlift 1RM and jumping performance is sports dependent",
      "year": 2024,
      "openAccessPdf": {
        "url": "https://www.frontiersin.org/articles/10.3389/fspor.2024.1345213/pdf?isPublishedV2=False",
        "status": "GOLD",
        "license": "CCBY",
        "disclaimer": "Notice: Paper or abstract available at https://pmc.ncbi.nlm.nih.gov/articles/PMC10825955, which is subject to the license by the author or copyright owner provided with this content. Please go to the source to verify the license and copyright information for your use."
      },
      "authors": [
        {
          "authorId": "9529455",
          "name": "S. Schiemann"
        },
        {
          "authorId": "6313629",
          "name": "M. Keiner"
        },
        {
          "authorId": "2059533087",
          "name": "K. Wirth"
        },
        {
          "authorId": "2156790313",
          "name": "L. Lohmann"
        },
        {
          "authorId": "2188531457",
          "name": "Carl-M. Wagner"
        },
        {
          "authorId": "2252084051",
          "name": "D. Behm"
        },
        {
          "authorId": "2166141154",
          "name": "K. Warneke"
        }
      ],
      "abstract": "Introduction Based on the assumption of maximal strength as a basic ability, several studies show a high influence of maximum strength on jumping performance in several sport athletes. However, there is a wide range of correlations from r = 0.17–0.9 between squat 1RM and jumping performance in different sports. Additionally, there are only a few studies investigating the influence of deadlift one repetition maximum (1RM) on jumping performance. Thus, this study aimed to investigate the correlations between 1RM in the deadlift on jumping performance using the countermovement jump height (CMJ) and squat jump height (SJ) considering different sports. Methods 103 athletes with experience in the deadlift from soccer, basketball, American football, powerlifting as well as participants from different sports without any deadlift experience (control group) were included to this study. Results Overall statistics showed a significant moderate influence of deadlift 1RM (r = 0.301–0.472) on jumping performance. However, subgroup analysis showed no significant correlation between deadlift 1RM and jumping performance in control participants, while moderate correlations could be detected in powerlifters (r = 0.34–0.39), soccer players (r = 0.437–0.46), American football players (0.584–0.62) and high correlations in basketball players (r = 0.809–0.848) showing significant influence of type of sport on correlations between deadlift maximum strength and jumping performance. Discussion Presented results underline movement velocity- and task specificity of strength training routines which is discussed in the light of the respective sports."
    },
    {
      "paperId": "fb697f980dca05a41a3178c98e5eb6547fe387e5",
      "url": "https://www.semanticscholar.org/paper/fb697f980dca05a41a3178c98e5eb6547fe387e5",
      "title": "Force Production and Electromyographic Activity during Different Flywheel Deadlift Exercises",
      "year": 2024,
      "openAccessPdf": {
        "url": "https://www.mdpi.com/2075-4663/12/4/95/pdf?version=1711726699",
        "status": "GOLD",
        "license": "CCBY",
        "disclaimer": "Notice: Paper or abstract available at https://pmc.ncbi.nlm.nih.gov/articles/PMC11054580, which is subject to the license by the author or copyright owner provided with this content. Please go to the source to verify the license and copyright information for your use."
      },
      "authors": [
        {
          "authorId": "1398913589",
          "name": "Sergio Maroto-Izquierdo"
        },
        {
          "authorId": "2290328156",
          "name": "David García-López"
        },
        {
          "authorId": "2098063152",
          "name": "Marco Beato"
        },
        {
          "authorId": "2013036",
          "name": "I. Bautista"
        },
        {
          "authorId": "1401718557",
          "name": "J. Hernández-Davó"
        },
        {
          "authorId": "2273442604",
          "name": "J. Raya-González"
        },
        {
          "authorId": "1484639690",
          "name": "Fernando Martín-Rivera"
        }
      ],
      "abstract": "This study aimed to characterize and compare force production and muscle activity during four flywheel deadlift exercises (bilateral [Bi] vs. unilateral [Uni]) with different loading conditions (vertical [Ver] vs. horizontal [Hor]). Twenty-three team-sport athletes underwent assessments for exercise kinetics (hand-grip force), along with surface electromyography (sEMG) of the proximal (BFProx) and medial biceps femoris (BFMed), semitendinosus (ST), and gluteus medius (GM). Mean and peak force were highest (p < 0.001) in Bi + Ver compared with Bi + Hor, Uni + Ver, and Uni + Hor. Although no significant differences were observed between Bi + Hor and Uni + Ver, both variants showed higher (p < 0.001) average force and peak eccentric force when compared with Uni + Hor. The presence of eccentric overload was only observed in the vertically loaded variants. Bi + Ver and Uni + Ver showed higher (p < 0.05) sEMG levels in BFProx and BFMed compared with the Uni + Hor variant. In addition, Uni + Ver registered the largest GM and ST sEMG values. In conclusion, the vertical variants of the flywheel deadlift exercise led to higher muscle force production and sEMG compared with their horizontal counterparts. Both Bi + Ver and Uni + Ver may be effective in promoting an increase in hamstring muscles activity and muscle force at long muscle length, while the Uni + Ver variant may be more effective in promoting GM and ST involvement."
    },
    {
      "paperId": "63cadb86c144c7dfcc9b3735988d119903ef2bbb",
      "url": "https://www.semanticscholar.org/paper/63cadb86c144c7dfcc9b3735988d119903ef2bbb",
      "title": "Enhancing deadlift training through an artificial intelligence-driven personal coaching system using skeletal analysis",
      "year": 2024,
      "openAccessPdf": {
        "url": "https://doi.org/10.47197/retos.v60.109183",
        "status": "GOLD",
        "license": "CCBY",
        "disclaimer": "Notice: Paper or abstract available at https://api.unpaywall.org/v2/10.47197/retos.v60.109183?email=<INSERT_YOUR_EMAIL> or https://doi.org/10.47197/retos.v60.109183, which is subject to the license by the author or copyright owner provided with this content. Please go to the source to verify the license and copyright information for your use."
      },
      "authors": [
        {
          "authorId": "2183410456",
          "name": "Bolganay Kaldarova"
        },
        {
          "authorId": "2057093969",
          "name": "Aigerim Toktarova"
        },
        {
          "authorId": "2131192277",
          "name": "Rustam Abdrakhmanov"
        }
      ],
      "abstract": "This paper presents an innovative AI-driven personal coaching system designed to enhance deadlift training through advanced skeletal analysis and deep learning techniques. The proposed system employs the PoseNet model to capture and analyze real-time video feeds, extracting keypoint coordinates and skeletal angles to monitor user posture and movements accurately. Utilizing Local Histograms of Oriented Gradients (LHOG) and Local Histograms of Optical Flow (LHOF) methods, the system performs comprehensive feature extraction, assessing both static and dynamic aspects of the exercise. The deep learning model, trained on an extensive dataset of correctly and incorrectly performed deadlifts, classifies the correctness of the exercise with high accuracy, providing real-time feedback and personalized recommendations to users. This immediate corrective feedback facilitates prompt adjustments, reduces injury risk, and promotes proper technique, enhancing the overall efficacy of strength training. The system's ability to offer user-specific feedback, tailored to individual body structures and movement patterns, ensures relevance and effectiveness in diverse training environments. Practical applications of this system span gyms, rehabilitation centers, and home settings, making it a valuable tool for personal trainers and physiotherapists. While the study demonstrates significant potential, it also identifies areas for future research, including algorithm refinement, dataset expansion, and integration of additional metrics and technologies. Overall, the proposed system represents a substantial advancement in exercise monitoring and improvement, contributing to the broader field of AI-driven fitness and health technologies, and paving the way for safer and more effective strength training routines.\nKeywords: AI-driven coaching, deadlift training, skeletal analysis, PoseNet, deep learning, exercise monitoring, real-time feedback."
    }
  ]
}