{
  "total": 2527,
  "offset": 0,
  "next": 3,
  "data": [
    {
      "paperId": "c6e44e4810cbb284706bb4e2142804950b7c291e",
      "url": "https://www.semanticscholar.org/paper/c6e44e4810cbb284706bb4e2142804950b7c291e",
      "title": "Delayed onset muscle soreness (DOMS)",
      "year": 2021,
      "openAccessPdf": {
        "url": "https://doi.org/10.53347/rid-93009",
        "status": "HYBRID",
        "license": "CCBYNCSA",
        "disclaimer": "Notice: Paper or abstract available at https://api.unpaywall.org/v2/10.53347/rid-93009?email=<INSERT_YOUR_EMAIL> or https://doi.org/10.53347/rid-93009, which is subject to the license by the author or copyright owner provided with this content. Please go to the source to verify the license and copyright information for your use."
      },
      "authors": [
        {
          "authorId": "2134387046",
          "name": "H. Knipe"
        },
        {
          "authorId": "2134628347",
          "name": "D. Nicoletti"
        }
      ],
      "abstract": "Mechanisms behind DOMS: 1)Popping Sarcomere hypothesis This theory states that during eccentric contraction (the ‘down’ phase of an exercise) the myofibrils (the most basic muscle unit) experience significant stretch. During this stretch, the weaker myofibrils absorb most of the stretch until they are overstretched and fail to reconnect because they are disrupted. Following disruption, the inflammatory response by the immune system follows. 2) Inflammatory response Following disruption, leukocytes (white blood cells) are released to the injured tissue and enter via soluble intercellular adhesion molecule 1 (sICAM-1, labeled as ‘adhesive molecules’ on figure). Thereafter, proinflammatory proteins and reactive oxygen species are made in the muscle by cells of the immune system. Additionally, the immune system mobilizes other cells to phagocytize damaged muscle debris. This intramuscular degradation amplifies the initial muscle damage. What is DOMS? We’ve all felt it the day after a hard workout and it can last a few days. Loss of strength and stiffness in all the fatigued muscle areas in addition to an inability to walk down the stairs, truly a reward for hard work."
    },
    {
      "paperId": "f7f8df8a4dcc9f5d6cc480e9f85bf9a9d4b2e6bf",
      "url": "https://www.semanticscholar.org/paper/f7f8df8a4dcc9f5d6cc480e9f85bf9a9d4b2e6bf",
      "title": "Delayed onset muscle soreness (DOMS)",
      "year": 2019,
      "openAccessPdf": {
        "url": "https://doi.org/10.53347/rid-69292",
        "status": "HYBRID",
        "license": "CCBYNCSA",
        "disclaimer": "Notice: Paper or abstract available at https://api.unpaywall.org/v2/10.53347/rid-69292?email=<INSERT_YOUR_EMAIL> or https://doi.org/10.53347/rid-69292, which is subject to the license by the author or copyright owner provided with this content. Please go to the source to verify the license and copyright information for your use."
      },
      "authors": [
        {
          "authorId": "51151560",
          "name": "Henry Knipe"
        },
        {
          "authorId": "2268660783",
          "name": "Daniel Martin"
        }
      ],
      "abstract": "Any type of activity that places unaccustomed loads on muscle may lead to delayed onset muscle soreness (DOMS). This type of soreness is different from acute soreness, which is pain that develops during the actual activity. Delayed soreness typically begins to develop 12-24 hours after the exercise has been performed and may produce the greatest pain between 24-72 hours after the exercise has been performed."
    },
    {
      "paperId": "5e73879e403707b5db095ffb838e978fb542c545",
      "url": "https://www.semanticscholar.org/paper/5e73879e403707b5db095ffb838e978fb542c545",
      "title": "Delayed onset muscle soreness (DOMS)",
      "year": 2012,
      "openAccessPdf": {
        "url": "https://doi.org/10.53347/rid-16544",
        "status": "HYBRID",
        "license": "CCBYNCSA",
        "disclaimer": "Notice: Paper or abstract available at https://api.unpaywall.org/v2/10.53347/rid-16544?email=<INSERT_YOUR_EMAIL> or https://doi.org/10.53347/rid-16544, which is subject to the license by the author or copyright owner provided with this content. Please go to the source to verify the license and copyright information for your use."
      },
      "authors": [
        {
          "authorId": "2258817186",
          "name": "Mostafa El-Feky"
        },
        {
          "authorId": "1421853226",
          "name": "C. O’Donnell"
        }
      ],
      "abstract": "Dr. Corey Schuler serves as Director of Medical Education for Natural Health International, a leading nutraceutical company in the area of natural alternatives for hormone balance and dedicated to empowering people with the knowledge and tools needed to support optimal health. Dr. Schuler also teaches graduate programs in clinical nutrition at Northwestern Health Sciences University and New York Chiropractic College. He serves on a number of medical boards in addition to maintaining a private practice in the Twin Cities, Minnesota. Dr. Schuler is a licensed nutritionist, board-certified nutrition specialist, and chiropractic physician."
    }
  ]
}