{
  "total": 8736,
  "offset": 0,
  "next": 3,
  "data": [
    {
      "paperId": "263d0a0a31c3e657284a1df6a124d303a4c4eab5",
      "url": "https://www.semanticscholar.org/paper/263d0a0a31c3e657284a1df6a124d303a4c4eab5",
      "title": "EAA/EMQN best practice guidelines for molecular diagnosis of Y‐chromosomal microdeletions: State of the art 2023",
      "year": 2023,
      "openAccessPdf": {
        "url": "https://onlinelibrary.wiley.com/doi/pdfdirect/10.1111/andr.13514",
        "status": "HYBRID",
        "license": "CCBYNCND",
        "disclaimer": "Notice: Paper or abstract available at https://api.unpaywall.org/v2/10.1111/andr.13514?email=<INSERT_YOUR_EMAIL> or https://doi.org/10.1111/andr.13514, which is subject to the license by the author or copyright owner provided with this content. Please go to the source to verify the license and copyright information for your use."
      },
      "authors": [
        {
          "authorId": "4881143",
          "name": "C. Krausz"
        },
        {
          "authorId": "1403760445",
          "name": "Paulo Navarro-Costa"
        },
        {
          "authorId": "2240911232",
          "name": "Martina Wilke"
        },
        {
          "authorId": "4642253",
          "name": "F. Tüttelmann"
        }
      ],
      "abstract": "Testing for AZoospermia Factor (AZF) deletions of the Y chromosome is a key component of the diagnostic workup of azoospermic and severely oligozoospermic men. This revision of the 2013 European Academy of Andrology (EAA) and EMQN CIC (previously known as the European Molecular Genetics Quality Network) laboratory guidelines summarizes recent clinically relevant advances and provides an update on the results of the external quality assessment program jointly offered by both organizations. A basic multiplex PCR reaction followed by a deletion extension analysis remains the gold‐standard methodology to detect and correctly interpret AZF deletions. Recent data have led to an update of the sY84 reverse primer sequence, as well as to a refinement of what were previously considered as interchangeable border markers for AZFa and AZFb deletion breakpoints. More specifically, sY83 and sY143 are no longer recommended for the deletion extension analysis, leaving sY1064 and sY1192, respectively, as first‐choice markers. Despite the transition, currently underway in several countries, toward a diagnosis based on certified kits, it should be noted that many of these commercial products are not recommended due to an unnecessarily high number of tested markers, and none of those currently available are, to the best of our knowledge, in accordance with the new first‐choice markers for the deletion extension analysis. The gr/gr partial AZFc deletion remains a population‐specific risk factor for impaired sperm production and a predisposing factor for testicular germ cell tumors. Testing for this deletion type is, as before, left at the discretion of the diagnostic labs and referring clinicians. Annual participation in an external quality control program is strongly encouraged, as the 22‐year experience of the EMQN/EAA scheme clearly demonstrates a steep decline in diagnostic errors and an improvement in reporting practice."
    },
    {
      "paperId": "0b71ba32ca174c8b8085b390aa04b3c40ec65456",
      "url": "https://www.semanticscholar.org/paper/0b71ba32ca174c8b8085b390aa04b3c40ec65456",
      "title": "The European Academy of Andrology (EAA) ultrasound study on healthy, fertile men: An overview on male genital tract ultrasound reference ranges",
      "year": 2022,
      "openAccessPdf": {
        "url": "https://ddd.uab.cat/pub/artpub/2022/pmc_9828651/pmc_9828651.pdf",
        "status": "GREEN",
        "license": "CCBYNCND",
        "disclaimer": "Notice: Paper or abstract available at https://pmc.ncbi.nlm.nih.gov/articles/PMC9828651, which is subject to the license by the author or copyright owner provided with this content. Please go to the source to verify the license and copyright information for your use."
      },
      "authors": [
        {
          "authorId": "33856931",
          "name": "F. Lotti"
        },
        {
          "authorId": "121343600",
          "name": "F. Frizza"
        },
        {
          "authorId": "5139009",
          "name": "G. Balercia"
        },
        {
          "authorId": "6331016",
          "name": "A. Barbonetti"
        },
        {
          "authorId": "5701030",
          "name": "H. Behre"
        },
        {
          "authorId": "4089317",
          "name": "A. Calogero"
        },
        {
          "authorId": "120871296",
          "name": "J. Cremers"
        },
        {
          "authorId": "4279487",
          "name": "F. Francavilla"
        },
        {
          "authorId": "15276433",
          "name": "A. Isidori"
        },
        {
          "authorId": "6978207",
          "name": "S. Kliesch"
        },
        {
          "authorId": "5525492",
          "name": "S. La Vignera"
        },
        {
          "authorId": "144904844",
          "name": "A. Lenzi"
        },
        {
          "authorId": "40390167",
          "name": "Marios Marcou"
        },
        {
          "authorId": "3692037",
          "name": "A. Pilatz"
        },
        {
          "authorId": "4622811",
          "name": "O. Poolamets"
        },
        {
          "authorId": "4134879",
          "name": "M. Punab"
        },
        {
          "authorId": "2060099310",
          "name": "M. F. Godoy"
        },
        {
          "authorId": "8857697",
          "name": "Claudia Quintian"
        },
        {
          "authorId": "10195646",
          "name": "O. Rajmil"
        },
        {
          "authorId": "11430046",
          "name": "Gianmaria Salvio"
        },
        {
          "authorId": "3657436",
          "name": "O. Shaeer"
        },
        {
          "authorId": "145768746",
          "name": "W. Weidner"
        },
        {
          "authorId": "6387725",
          "name": "E. Maseroli"
        },
        {
          "authorId": "5102866",
          "name": "S. Cipriani"
        },
        {
          "authorId": "144169004",
          "name": "E. Baldi"
        },
        {
          "authorId": "1388409717",
          "name": "S. Degl’innocenti"
        },
        {
          "authorId": "6945675",
          "name": "G. Danza"
        },
        {
          "authorId": "5601069",
          "name": "A. Caldini"
        },
        {
          "authorId": "4162354",
          "name": "A. Terreni"
        },
        {
          "authorId": "152349584",
          "name": "L. Boni"
        },
        {
          "authorId": "4881143",
          "name": "C. Krausz"
        },
        {
          "authorId": "143876778",
          "name": "M. Maggi"
        }
      ],
      "abstract": "So far, male genital tract color‐Doppler ultrasound (MGT‐CDUS) was not standardized. Recently, the European Academy of Andrology (EAA) published the results of a multicenter study assessing the CDUS characteristics of healthy‐fertile men (HFM) to obtain normative parameters."
    },
    {
      "paperId": "5ef2cd60fb4ed868f2cd4114a0080403b427ef2c",
      "url": "https://www.semanticscholar.org/paper/5ef2cd60fb4ed868f2cd4114a0080403b427ef2c",
      "title": "European Academy of Andrology (EAA) guidelines on investigation, treatment and monitoring of functional hypogonadism in males",
      "year": 2020,
      "openAccessPdf": {
        "url": "https://onlinelibrary.wiley.com/doi/pdfdirect/10.1111/andr.12770",
        "status": "BRONZE",
        "license": null,
        "disclaimer": "Notice: Paper or abstract available at https://api.unpaywall.org/v2/10.1111/andr.12770?email=<INSERT_YOUR_EMAIL> or https://doi.org/10.1111/andr.12770, which is subject to the license by the author or copyright owner provided with this content. Please go to the source to verify the license and copyright information for your use."
      },
      "authors": [
        {
          "authorId": "36772771",
          "name": "G. Corona"
        },
        {
          "authorId": "2298736",
          "name": "D. Goulis"
        },
        {
          "authorId": "90187459",
          "name": "I. Huhtaniemi"
        },
        {
          "authorId": "3250733",
          "name": "M. Zitzmann"
        },
        {
          "authorId": "3919960",
          "name": "J. Toppari"
        },
        {
          "authorId": "144140778",
          "name": "G. Forti"
        },
        {
          "authorId": "6518653",
          "name": "D. Vanderschueren"
        },
        {
          "authorId": "5106612",
          "name": "Frederick C W Wu"
        }
      ],
      "abstract": "Evidence regarding functional hypogonadism, previously referred to as ‘late‐onset’ hypogonadism, has increased substantially during the last 10 year."
    }
  ]
}