{
  "total": 169,
  "offset": 0,
  "next": 5,
  "data": [
    {
      "paperId": "c96c5ffd17a98ac684ac65eccb537be500183df1",
      "url": "https://www.semanticscholar.org/paper/c96c5ffd17a98ac684ac65eccb537be500183df1",
      "title": "Dose-Dependent Effects of a Soluble Dietary Fibre (Pectin) on Food Intake, Adiposity, Gut Hypertrophy and Gut Satiety Hormone Secretion in Rats",
      "year": 2015,
      "openAccessPdf": {
        "url": "https://journals.plos.org/plosone/article/file?id=10.1371/journal.pone.0115438&type=printable",
        "status": "GOLD",
        "license": "CCBY",
        "disclaimer": "Notice: Paper or abstract available at https://pmc.ncbi.nlm.nih.gov/articles/PMC4300082, which is subject to the license by the author or copyright owner provided with this content. Please go to the source to verify the license and copyright information for your use."
      },
      "authors": [
        {
          "authorId": "35123192",
          "name": "C. Adam"
        },
        {
          "authorId": "145859053",
          "name": "P. A. Williams"
        },
        {
          "authorId": "32588039",
          "name": "K. Garden"
        },
        {
          "authorId": "5053930",
          "name": "L. M. Thomson"
        },
        {
          "authorId": "2042499",
          "name": "A. Ross"
        }
      ],
      "abstract": "Soluble fermentable dietary fibre elicits gut adaptations, increases satiety and potentially offers a natural sustainable means of body weight regulation. Here we aimed to quantify physiological responses to graded intakes of a specific dietary fibre (pectin) in an animal model. Four isocaloric semi-purified diets containing 0, 3.3%, 6.7% or 10% w/w apple pectin were offered ad libitum for 8 or 28 days to young adult male rats (n = 8/group). Measurements were made of voluntary food intake, body weight, initial and final body composition by magnetic resonance imaging, final gut regional weights and histology, and final plasma satiety hormone concentrations. In both 8- and 28-day cohorts, dietary pectin inclusion rate was negatively correlated with food intake, body weight gain and the change in body fat mass, with no effect on lean mass gain. In both cohorts, pectin had no effect on stomach weight but pectin inclusion rate was positively correlated with weights and lengths of small intestine and caecum, jejunum villus height and crypt depth, ileum crypt depth, and plasma total glucagon-like peptide-1 (GLP-1) and peptide tyrosine tyrosine (PYY) concentrations, and at 8 days was correlated with weight and length of colon and with caecal mucosal depth. Therefore, the gut’s morphological and endocrine adaptations were dose-dependent, occurred within 8 days and were largely sustained for 28 days during continued dietary intervention. Increasing amounts of the soluble fermentable fibre pectin in the diet proportionately decreased food intake, body weight gain and body fat content, associated with proportionately increased satiety hormones GLP-1 and PYY and intestinal hypertrophy, supporting a role for soluble dietary fibre-induced satiety in healthy body weight regulation."
    },
    {
      "paperId": "5b2e815a8bbf53fbf55b2c31760aa3eabc27a353",
      "url": "https://www.semanticscholar.org/paper/5b2e815a8bbf53fbf55b2c31760aa3eabc27a353",
      "title": "Optimal Dietary α-Starch Requirement and Its Effects on Growth and Metabolic Regulation in Chinese Hook Snout Carp (Opsariichthys bidens)",
      "year": 2025,
      "openAccessPdf": {
        "url": "",
        "status": null,
        "license": null,
        "disclaimer": "Notice: Paper or abstract available at https://api.unpaywall.org/v2/10.3390/biology14121687?email=<INSERT_YOUR_EMAIL> or https://doi.org/10.3390/biology14121687, which is subject to the license by the author or copyright owner provided with this content. Please go to the source to verify the license and copyright information for your use."
      },
      "authors": [
        {
          "authorId": "2395852265",
          "name": "Wenjing Cai"
        },
        {
          "authorId": "2334325655",
          "name": "Xiaonian Luo"
        },
        {
          "authorId": "2334037473",
          "name": "Jiao Li"
        },
        {
          "authorId": "2334361174",
          "name": "Youjian Duan"
        },
        {
          "authorId": "2334212394",
          "name": "Yong Wei"
        },
        {
          "authorId": "2395600619",
          "name": "Yuxin Xing"
        },
        {
          "authorId": "2395307134",
          "name": "Zongyun Hu"
        },
        {
          "authorId": "2395356964",
          "name": "Chunyue Zhu"
        }
      ],
      "abstract": "This study investigated the effects of dietary carbohydrate levels on growth performance, body composition, and hepatic expression of metabolic genes in Chinese hook snout carp (Opsariichthys bidens). Fish were fed five isonitrogenous diets with graded α-starch levels (8%, 14%, 20%, 26%, and 32%) for 56 days. The diet containing 14% α-starch significantly increased the weight gain rate (WGR) and specific growth rate (SGR) of O. bidens (p < 0.05). Both broken-line and polynomial regression analyses on WGR and SGR consistently indicated an optimal dietary α-starch level of approximately 14–17%. High carbohydrate diets significantly elevated plasma glucose, triglyceride, and cholesterol levels, as well as hepatosomatic and intraperitoneal fat indices. Gene expression analysis revealed that moderate carbohydrate intake upregulated lipoprotein lipase (lpl), hormone-sensitive lipase (hsl), and carnitine palmitoyltransferase 1 (cpt1) gene expressions, enhancing lipolysis and β-oxidation, whereas excessive carbohydrate intake (>26% α-starch) suppressed these pathways but strongly induced acc1 gene expressions, promoting lipogenesis. Additionally, glycogen metabolism genes (glycogen synthase (gys) and glycogen phosphorylase (pyg) and glycolysis-related phosphofructokinase (pfk) were responsive to carbohydrate supply, while oxidative metabolism gene cs was downregulated under excessive carbohydrate, implying reduced mitochondrial oxidative metabolism. Overall, O. bidens exhibited limited carbohydrate utilization, with optimal intake supporting growth and metabolic balance, whereas excessive intake redirected glucose toward glycogen and lipid accumulation, leading to metabolic imbalance."
    },
    {
      "paperId": "08ffe69bafed9795f0870cbee84780d4d49ba626",
      "url": "https://www.semanticscholar.org/paper/08ffe69bafed9795f0870cbee84780d4d49ba626",
      "title": "Dietary supplementation with Korean pine nut oil decreases body fat accumulation and dysregulation of the appetite-suppressing pathway in the hypothalamus of high-fat diet-induced obese mice",
      "year": 2021,
      "openAccessPdf": {
        "url": "https://doi.org/10.4162/nrp.2022.16.3.285",
        "status": "GOLD",
        "license": "CCBYNC",
        "disclaimer": "Notice: Paper or abstract available at https://pmc.ncbi.nlm.nih.gov/articles/PMC9149321, which is subject to the license by the author or copyright owner provided with this content. Please go to the source to verify the license and copyright information for your use."
      },
      "authors": [
        {
          "authorId": "7838814",
          "name": "Sunhye Shin"
        },
        {
          "authorId": "2118348853",
          "name": "Soyoung Park"
        },
        {
          "authorId": "6158715",
          "name": "Yeseo Lim"
        },
        {
          "authorId": "5307734",
          "name": "S. Han"
        }
      ],
      "abstract": "BACKGROUND/OBJECTIVES Korean pine nut oil (PNO) has been reported to suppress appetite by increasing satiety hormone release. However, previous studies have rendered inconsistent results and there is lack of information on whether dietary Korean PNO affects the expression of satiety hormone receptors and hypothalamic neuropeptides. Therefore, our study sought to evaluate the chronic effects of Korean PNO on the long-term regulation of energy balance. MATERIALS/METHODS Five-week-old male C57BL/6 mice were fed with control diets containing 10% kcal fat from Korean PNO or soybean oil (SBO) (PC or SC) or high-fat diets (HFDs) containing 35% kcal fat from lard and 10% kcal fat from Korean PNO or SBO (PHFD or SHFD) for 12 weeks. The expression of gastrointestinal satiety hormone receptors, hypothalamic neuropeptides, and genes related to intestinal lipid absorption and adipose lipid metabolism was then measured. RESULTS There was no difference in the daily food intake between PNO- and SBO-fed mice; however, the PC and PHFD groups accumulated 30% and 18% less fat compared to SC and SHFD, respectively. Korean PNO-fed mice exhibited higher messenger RNA (mRNA) expression of Ghsr (ghrelin receptor) and Agrp (agouti-related peptide) (P < 0.05), which are expressed when energy consumption is low to induce appetite as well as the appetite-suppressing neuropeptides Pomc and Cartpt (P = 0.079 and 0.056, respectively). Korean PNO downregulated jejunal Cd36 and epididymal Lpl mRNA expressions, which could suppress intestinal fatty acid absorption and fat storage in white adipose tissue. Consistent with these findings, Korean PNO-fed mice had higher levels of fecal non-esterified fatty acid excretion. Korean PNO also tended to downregulate jejunal Apoa4 and upregulate epididymal Adrb3 mRNA levels, suggesting that PNO may decrease chylomicron synthesis and induce lipolysis. CONCLUSIONS In summary, Korean PNO attenuated body fat accumulation, and appeared to prevent HFD-induced dysregulation of the hypothalamic appetite-suppressing pathway."
    },
    {
      "paperId": "9ac0ec63023d54645ac3ec30c96ce63295ef573a",
      "url": "https://www.semanticscholar.org/paper/9ac0ec63023d54645ac3ec30c96ce63295ef573a",
      "title": "Modulation by high-fat diets of gastrointestinal function and hormones associated with the regulation of energy intake: implications for the pathophysiology of obesity.",
      "year": 2007,
      "openAccessPdf": {
        "url": "https://academic.oup.com/ajcn/article-pdf/86/3/531/23917816/znu00907000531.pdf",
        "status": "BRONZE",
        "license": "publisher-specific-oa",
        "disclaimer": "Notice: The following paper fields have been elided by the publisher: {'abstract'}. Paper or abstract available at https://api.unpaywall.org/v2/10.1093/AJCN/86.3.531?email=<INSERT_YOUR_EMAIL> or https://doi.org/10.1093/AJCN/86.3.531, which is subject to the license by the author or copyright owner provided with this content. Please go to the source to verify the license and copyright information for your use."
      },
      "authors": [
        {
          "authorId": "2484049",
          "name": "T. Little"
        },
        {
          "authorId": "145719225",
          "name": "M. Horowitz"
        },
        {
          "authorId": "1399004000",
          "name": "C. Feinle-Bisset"
        }
      ],
      "abstract": null
    },
    {
      "paperId": "ea8412ce704b1fc2f654afb9af5273da239d2d49",
      "url": "https://www.semanticscholar.org/paper/ea8412ce704b1fc2f654afb9af5273da239d2d49",
      "title": "Relationship between Serum Leptin, Ghrelin and Dietary Macronutrients in Women with Polycystic Ovary Syndrome",
      "year": 2015,
      "openAccessPdf": {
        "url": "",
        "status": null,
        "license": "CCBY",
        "disclaimer": "Notice: Paper or abstract available at https://pmc.ncbi.nlm.nih.gov/articles/PMC4671384, which is subject to the license by the author or copyright owner provided with this content. Please go to the source to verify the license and copyright information for your use."
      },
      "authors": [
        {
          "authorId": "66595969",
          "name": "Bahram Pourghassem Gargari"
        },
        {
          "authorId": "3504187",
          "name": "Shiva Houjeghani"
        },
        {
          "authorId": "5852496",
          "name": "L. Farzadi"
        },
        {
          "authorId": "117523287",
          "name": "Sheyda Houjeghani"
        },
        {
          "authorId": "5632792",
          "name": "Abdolrasoul Safaeiyan"
        }
      ],
      "abstract": "Background Polycystic ovary syndrome (PCOS) is the most common endocrinopathy in women. It may involve an impairment in physiologic regulation of leptin and ghrelin. There is limited, controversial data on the relation of dietary components with leptin and ghrelin in PCOS, so the current study has been conducted to explore the effects of different macronutrients on serum levels of leptin and ghrelin in PCOS and healthy subjects. Materials and Methods In this case-control study, we randomly choose 30 PCOS pa- tients and 30 healthy age and body mass index (BMI) matched controls. Intake of macronutrients [protein, total fat, saturated, monounsaturated and polyunsaturated fatty acids (PUFA), carbohydrate, dietary fiber] and energy were assessed using 3-day, 24-hour food recall and food frequency questionnaires (FFQ). Fasting hormonal status was measured for each participant. Results PCOS women had higher levels of serum leptin, insulin, testosterone, and luteinizing hormone (LH), whereas sex hormone-binding globulin (SHBG) was lower compared to healthy women. There was no significant difference in mean ghrelin concentrations between the groups. Among PCOS women, independent of BMI and total energy intake, we observed an inverse association between leptin concentration and total dietary fat (β=-0.16, P<0.05) and saturated fatty acid (SFA) intake (β=-0.58, P<0.05). This relationship was not seen in the healthy subjects. There was no significant association between ghrelin and macronutrients in PCOS and healthy participants. Conclusion Certain habitual dietary components such as fat and SFA may decrease serum leptin, whereas ghrelin is not influenced by these in PCOS women. More studies are needed to better clarify the effects of dietary macronutrients on serum leptin and ghrelin."
    }
  ]
}