{
  "total": 1832920,
  "offset": 0,
  "next": 5,
  "data": [
    {
      "paperId": "e2624359269d1e195de6f0479b96fd1038a7b395",
      "url": "https://www.semanticscholar.org/paper/e2624359269d1e195de6f0479b96fd1038a7b395",
      "title": "Variability in exercise tolerance and physiological responses to exercise prescribed relative to physiological thresholds and to maximum oxygen uptake",
      "year": 2023,
      "openAccessPdf": {
        "url": "https://onlinelibrary.wiley.com/doi/pdfdirect/10.1113/EP090878",
        "status": "GOLD",
        "license": "CCBY",
        "disclaimer": "Notice: Paper or abstract available at https://pmc.ncbi.nlm.nih.gov/articles/PMC10103872, which is subject to the license by the author or copyright owner provided with this content. Please go to the source to verify the license and copyright information for your use."
      },
      "authors": [
        {
          "authorId": "3867389",
          "name": "Samuel Viana Meyler"
        },
        {
          "authorId": "3621401",
          "name": "L. Bottoms"
        },
        {
          "authorId": "6511413",
          "name": "D. Wellsted"
        },
        {
          "authorId": "1393656423",
          "name": "D. Muniz-Pumares"
        }
      ],
      "abstract": "What is the central question of this study? Does prescribing exercise intensity using physiological thresholds create a more homogeneous exercise stimulus than using traditional intensity anchors? What is the main finding and its importance? Prescribing exercise using physiological thresholds, notably critical power, reduced the variability in exercise tolerance and acute metabolic responses. At higher intensities, approaching or exceeding the transition from heavy to severe intensity exercise, the imprecision of using fixed % V̇O2max${\\dot V_{{{\\rm{O}}_{\\rm{2}}}{\\rm{max}}}}$ as an intensity anchor becomes amplified."
    },
    {
      "paperId": "4b0f035cae6cb6766a9a341bfc998018b776724c",
      "url": "https://www.semanticscholar.org/paper/4b0f035cae6cb6766a9a341bfc998018b776724c",
      "title": "Nutritional State and COPD: Effects on Dyspnoea and Exercise Tolerance",
      "year": 2023,
      "openAccessPdf": {
        "url": "https://www.mdpi.com/2072-6643/15/7/1786/pdf?version=1680760844",
        "status": "GOLD",
        "license": "CCBY",
        "disclaimer": "Notice: Paper or abstract available at https://pmc.ncbi.nlm.nih.gov/articles/PMC10096658, which is subject to the license by the author or copyright owner provided with this content. Please go to the source to verify the license and copyright information for your use."
      },
      "authors": [
        {
          "authorId": "4398513",
          "name": "A. Tramontano"
        },
        {
          "authorId": "144681600",
          "name": "P. Palange"
        }
      ],
      "abstract": "Chronic Obstructive Pulmonary Disease (COPD) is a disease that is spreading worldwide and is responsible for a huge number of deaths annually. It is characterized by progressive and often irreversible airflow obstruction, with a heterogeneous clinical manifestation based on disease severity. Along with pulmonary impairment, COPD patients display different grades of malnutrition that can be linked to a worsening of respiratory function and to a negative prognosis. Nutritional impairment seems to be related to a reduced exercise tolerance and to dyspnoea becoming a major determinant in patient-perceived quality of life. Many strategies have been proposed to limit the effects of malnutrition on disease progression, but there are still limited data available to determine which of them is the best option to manage COPD patients. The purpose of this review is to highlight the main aspects of COPD-related malnutrition and to underline the importance of poor nutritional state on muscle energetics, exercise tolerance and dyspnoea."
    },
    {
      "paperId": "bd5c905b86d9c13ce0cdec0718795f7f39ae2c9c",
      "url": "https://www.semanticscholar.org/paper/bd5c905b86d9c13ce0cdec0718795f7f39ae2c9c",
      "title": "Effects of continuous aerobic training associated with resistance training on maximal and submaximal exercise tolerance, fatigue, and quality of life of patients post‐COVID‐19",
      "year": 2022,
      "openAccessPdf": {
        "url": "https://www.ncbi.nlm.nih.gov/pmc/articles/PMC9539049",
        "status": "GREEN",
        "license": null,
        "disclaimer": "Notice: Paper or abstract available at https://pmc.ncbi.nlm.nih.gov/articles/PMC9539049, which is subject to the license by the author or copyright owner provided with this content. Please go to the source to verify the license and copyright information for your use."
      },
      "authors": [
        {
          "authorId": "150040373",
          "name": "B. T. Araújo"
        },
        {
          "authorId": "2151136234",
          "name": "A. E. Barros"
        },
        {
          "authorId": "2150756506",
          "name": "D. Nunes"
        },
        {
          "authorId": "1694841148",
          "name": "M. I. Remígio de Aguiar"
        },
        {
          "authorId": "2164585330",
          "name": "V. Mastroianni"
        },
        {
          "authorId": "2184598062",
          "name": "J. A. F. de Souza"
        },
        {
          "authorId": "2184597856",
          "name": "Juliana Fernades"
        },
        {
          "authorId": "144018503",
          "name": "S. Campos"
        },
        {
          "authorId": "14191422",
          "name": "D. Brandão"
        },
        {
          "authorId": "12867349",
          "name": "A. D. D. Dornelas de Andrade"
        }
      ],
      "abstract": "Abstract Background and Purpose Dyspnea, fatigue, and reduced exercise tolerance are common in post‐COVID‐19 patients. In these patients, rehabilitation can improve functional capacity, reduce deconditioning after a prolonged stay in the intensive care unit, and facilitate the return to work. Thus, the present study verified the effects of cardiopulmonary rehabilitation consisting of continuous aerobic and resistance training of moderate‐intensity on pulmonary function, respiratory muscle strength, maximum and submaximal tolerance to exercise, fatigue, and quality of life in post‐COVID‐19 patients. Methods Quasi‐experimental study with a protocol of 12 sessions of an outpatient intervention. Adults over 18 years of age (N = 26) with a diagnosis of COVID‐19 and hospital discharge at least 15 days before the first evaluation were included. Participants performed moderate‐intensity continuous aerobic and resistance training twice a week. Maximal and submaximal exercise tolerance, lung function, respiratory muscle strength, fatigue and quality of life were evaluated before and after the intervention protocol. Results Cardiopulmonary rehabilitation improved maximal exercise tolerance, with 18.62% increase in peak oxygen consumption (VO2peak) and 29.05% in time to reach VO2peak. VE/VCO2slope reduced 5.21% after intervention. We also observed increased submaximal exercise tolerance (increase of 70.57 m in the 6‐min walk test, p = 0.001), improved quality of life, and reduced perceived fatigue after intervention. Discussion Patients recovered from COVID‐19 can develop persistent dysfunctions in almost all organ systems and present different signs and symptoms. The complexity and variability of the damage caused by this disease can make it difficult to target rehabilitation programs, making it necessary to establish specific protocols. In this work, cardiopulmonary rehabilitation improved lung function, respiratory muscle strength, maximal and submaximal exercise tolerance, fatigue and quality of life. Continuous aerobic and resistance training of moderate intensity proved to be effective in the recovery of post‐COVID‐19 patients."
    },
    {
      "paperId": "2e9ea93c8ef4e5cbb13609761fcfc68dc28d12d8",
      "url": "https://www.semanticscholar.org/paper/2e9ea93c8ef4e5cbb13609761fcfc68dc28d12d8",
      "title": "Visceral adiposity, muscle composition, and exercise tolerance in heart failure with preserved ejection fraction",
      "year": 2021,
      "openAccessPdf": {
        "url": "https://doi.org/10.1002/ehf2.13382",
        "status": "GOLD",
        "license": "CCBYNC",
        "disclaimer": "Notice: Paper or abstract available at https://pmc.ncbi.nlm.nih.gov/articles/PMC8318398, which is subject to the license by the author or copyright owner provided with this content. Please go to the source to verify the license and copyright information for your use."
      },
      "authors": [
        {
          "authorId": "39601521",
          "name": "Wendy Ying"
        },
        {
          "authorId": "117945737",
          "name": "K. Sharma"
        },
        {
          "authorId": "4585802",
          "name": "L. Yanek"
        },
        {
          "authorId": "37477346",
          "name": "Dhananjay Vaidya"
        },
        {
          "authorId": "48428585",
          "name": "M. Schär"
        },
        {
          "authorId": "2814843",
          "name": "M. Markl"
        },
        {
          "authorId": "6103276",
          "name": "V. Subramanya"
        },
        {
          "authorId": "1980898696",
          "name": "Sahar Soleimani"
        },
        {
          "authorId": "145773185",
          "name": "P. Ouyang"
        },
        {
          "authorId": "144482635",
          "name": "E. Michos"
        },
        {
          "authorId": "3273875",
          "name": "Sanjiv J. Shah"
        },
        {
          "authorId": "2226950",
          "name": "A. Hays"
        }
      ],
      "abstract": "Visceral adipose tissue (AT) promotes inflammation and may be associated with disease progression in heart failure with preserved ejection fraction (HFpEF). We characterized regional AT distribution in HFpEF patients and controls and analysed associations with co‐morbidities and exercise tolerance."
    },
    {
      "paperId": "33b8acd593505bebcf43c565d493c57054b5b731",
      "url": "https://www.semanticscholar.org/paper/33b8acd593505bebcf43c565d493c57054b5b731",
      "title": "Bioenergetic Mechanisms Linking V˙O2 Kinetics and Exercise Tolerance",
      "year": 2021,
      "openAccessPdf": {
        "url": "https://www.ncbi.nlm.nih.gov/pmc/articles/PMC8528340",
        "status": "GREEN",
        "license": null,
        "disclaimer": "Notice: Paper or abstract available at https://api.unpaywall.org/v2/10.1249/JES.0000000000000267?email=<INSERT_YOUR_EMAIL> or https://doi.org/10.1249/JES.0000000000000267, which is subject to the license by the author or copyright owner provided with this content. Please go to the source to verify the license and copyright information for your use."
      },
      "authors": [
        {
          "authorId": "17789736",
          "name": "Richie P. Goulding"
        },
        {
          "authorId": "5787310",
          "name": "H. Rossiter"
        },
        {
          "authorId": "3611637",
          "name": "S. Marwood"
        },
        {
          "authorId": "4118500",
          "name": "C. Ferguson"
        }
      ],
      "abstract": "V˙O2 kinetics determine exercise tolerance by mediating the power output at which muscle metabolite accumulation exceeds a “critical threshold.” We hypothesize that the V˙O2 time constant (τV˙O2) determines exercise tolerance by defining the power output associated with a “critical threshold” of intramuscular metabolite accumulation (e.g., inorganic phosphate), above which muscle fatigue and work inefficiency are apparent. Thereafter, the V˙O2 “slow component” and its consequences (increased pulmonary, circulatory, and neuromuscular demands) determine performance limits."
    }
  ]
}