{
  "total": 3734958,
  "offset": 0,
  "next": 3,
  "data": [
    {
      "paperId": "0d1738c4ef148cb47d18feee74a5195fce0f8f5a",
      "url": "https://www.semanticscholar.org/paper/0d1738c4ef148cb47d18feee74a5195fce0f8f5a",
      "title": "Beyond appetite regulation: Targeting energy expenditure, fat oxidation, and lean mass preservation for sustainable weight loss",
      "year": 2022,
      "openAccessPdf": {
        "url": "https://www.ncbi.nlm.nih.gov/pmc/articles/PMC9310705",
        "status": "GREEN",
        "license": "CCBYNCND",
        "disclaimer": "Notice: Paper or abstract available at https://pmc.ncbi.nlm.nih.gov/articles/PMC9310705, which is subject to the license by the author or copyright owner provided with this content. Please go to the source to verify the license and copyright information for your use."
      },
      "authors": [
        {
          "authorId": "9784008",
          "name": "B. Christoffersen"
        },
        {
          "authorId": "1398083624",
          "name": "G. Sanchez-Delgado"
        },
        {
          "authorId": "49168283",
          "name": "L. M. John"
        },
        {
          "authorId": "4905609",
          "name": "D. Ryan"
        },
        {
          "authorId": "5789594",
          "name": "K. Raun"
        },
        {
          "authorId": "3580532",
          "name": "E. Ravussin"
        }
      ],
      "abstract": "New appetite‐regulating antiobesity treatments such as semaglutide and agents under investigation such as tirzepatide show promise in achieving weight loss of 15% or more. Energy expenditure, fat oxidation, and lean mass preservation are important determinants of weight loss and weight‐loss maintenance beyond appetite regulation. This review discusses prior failures in clinical development of weight‐loss drugs targeting energy expenditure and explores novel strategies for targeting energy expenditure: mitochondrial proton leak, uncoupling, dynamics, and biogenesis; futile calcium and substrate cycling; leptin for weight maintenance; increased sympathetic nervous system activity; and browning of white fat. Relevant targets for preserving lean mass are also reviewed: growth hormone, activin type II receptor inhibition, and urocortin 2 and 3. We endorse moderate modulation of energy expenditure and preservation of lean mass in combination with efficient appetite reduction as a means of obtaining a significant, safe, and long‐lasting weight loss. Furthermore, we suggest that the regulatory guidelines should be revisited to focus more on the quality of weight loss and its maintenance rather than the absolute weight loss. Commitment to this research focus both from a scientific and from a regulatory point of view could signal the beginning of the next era in obesity therapies."
    },
    {
      "paperId": "90d4a69f43e804b5267eaf950186a462fb0ddcbd",
      "url": "https://www.semanticscholar.org/paper/90d4a69f43e804b5267eaf950186a462fb0ddcbd",
      "title": "CPT1A-mediated fat oxidation, mechanisms and therapeutic potential.",
      "year": 2020,
      "openAccessPdf": {
        "url": "https://academic.oup.com/endo/article-pdf/161/2/bqz046/41811356/endo_161_2_bqz046.pdf",
        "status": "BRONZE",
        "license": null,
        "disclaimer": "Notice: Paper or abstract available at https://api.unpaywall.org/v2/10.1210/endocr/bqz046?email=<INSERT_YOUR_EMAIL> or https://doi.org/10.1210/endocr/bqz046, which is subject to the license by the author or copyright owner provided with this content. Please go to the source to verify the license and copyright information for your use."
      },
      "authors": [
        {
          "authorId": "5402708",
          "name": "Isabel R Schlaepfer"
        },
        {
          "authorId": "152271696",
          "name": "Molishree Joshi"
        }
      ],
      "abstract": "Energy homeostasis during fasting or prolonged exercise depends on mitochondrial fatty acid oxidation (FAO). This pathway is crucial in many tissues with high energy demand and its disruption results in inborn FAO deficiencies. More than 15 FAO genetic defects have been currently described, and pathological variants described in circumpolar populations provide insights into its critical role in metabolism. The use of fatty acids as energy requires more than two dozen of enzymes and transport proteins, which are involved in the activation and transport of fatty acids into the mitochondria. As the key rate-limiting enzyme of FAO, carnitine palmitoyltransferase I (CPT1) regulates FAO and facilitates adaptation to the environment, both in health and disease, including cancer. The CPT1 family of proteins contains three isoforms: CPT1A, CPT1B and CPT1C. This review focusses on CPT1A, the liver isoform that catalyzes the rate limiting step of converting acyl-CoA's into acyl-carnitines, which can then cross membranes to get into the mitochondria. The regulation of CPT1A is complex and has several layers that involve genetic, epigenetic, physiological and nutritional modulators. It is ubiquitously expressed in the body and associated with dire consequences linked with genetic mutations, metabolic disorders and cancers. This makes CPT1A an attractive target for therapeutic interventions. This review discusses our current understanding of CPT1A expression, its role in heath and disease and the potential for therapeutic opportunities targeting this enzyme."
    },
    {
      "paperId": "f5c07a5e5ebe75a6a6fdd65678141b3dcadaef3e",
      "url": "https://www.semanticscholar.org/paper/f5c07a5e5ebe75a6a6fdd65678141b3dcadaef3e",
      "title": "Peak fat oxidation is positively associated with vastus lateralis CD36 content, fed-state exercise fat oxidation, and endurance performance in trained males",
      "year": 2021,
      "openAccessPdf": {
        "url": "https://link.springer.com/content/pdf/10.1007/s00421-021-04820-3.pdf",
        "status": "BRONZE",
        "license": null,
        "disclaimer": "Notice: Paper or abstract available at https://pmc.ncbi.nlm.nih.gov/articles/PMC8475903, which is subject to the license by the author or copyright owner provided with this content. Please go to the source to verify the license and copyright information for your use."
      },
      "authors": [
        {
          "authorId": "46185838",
          "name": "E. Maunder"
        },
        {
          "authorId": "6813332",
          "name": "D. Plews"
        },
        {
          "authorId": "40627594",
          "name": "G. Wallis"
        },
        {
          "authorId": "40621797",
          "name": "M. Brick"
        },
        {
          "authorId": "13426886",
          "name": "W. Leigh"
        },
        {
          "authorId": "40079250",
          "name": "W. Chang"
        },
        {
          "authorId": "47209686",
          "name": "T. Stewart"
        },
        {
          "authorId": "39699323",
          "name": "Casey M. Watkins"
        },
        {
          "authorId": "2117272657",
          "name": "A. Kilding"
        }
      ],
      "abstract": "Purpose Whole-body fat oxidation during exercise can be measured non-invasively during athlete profiling. Gaps in understanding exist in the relationships between fat oxidation during incremental fasted exercise and skeletal muscle parameters, endurance performance, and fat oxidation during prolonged fed-state exercise. Methods Seventeen endurance-trained males underwent a (i) fasted, incremental cycling test to assess peak whole-body fat oxidation (PFO), (ii) resting vastus lateralis microbiopsy, and (iii) 30-min maximal-effort cycling time-trial preceded by 2-h of fed-state moderate-intensity cycling to assess endurance performance and fed-state metabolism on separate occasions within one week. Results PFO (0.58 ± 0.28 g . min −1 ) was associated with vastus lateralis citrate synthase activity (69.2 ± 26.0 μmol . min −1. g −1 muscle protein, r  = 0.84, 95% CI 0.58, 0.95, P  < 0.001), CD36 abundance (16.8 ± 12.6 μg . g −1 muscle protein, r s  = 0.68, 95% CI 0.31, 1.10, P  = 0.01), pre-loaded 30-min time-trial performance (251 ± 51 W, r  = 0.76, 95% CI 0.40, 0.91, P  = 0.001; 3.2 ± 0.6 W . kg −1 , r  = 0.62, 95% CI 0.16, 0.86, P  = 0.01), and fat oxidation during prolonged fed-state cycling ( r  = 0.83, 95% CI 0.57, 0.94, P  < 0.001). Addition of PFO to a traditional model of endurance (peak oxygen uptake, power at 4 mmol . L −1 blood lactate concentration, and gross efficiency) explained an additional ~ 2.6% of variation in 30-min time-trial performance (adjusted R 2  = 0.903 vs. 0.877). Conclusion These associations suggest non-invasive measures of whole-body fat oxidation during exercise may be useful in the physiological profiling of endurance athletes."
    }
  ]
}