{
  "total": 1691004,
  "offset": 0,
  "next": 5,
  "data": [
    {
      "paperId": "b3f7359c6d5780972c5ea8db016a01f0c705aa01",
      "url": "https://www.semanticscholar.org/paper/b3f7359c6d5780972c5ea8db016a01f0c705aa01",
      "title": "glmmTMB Balances Speed and Flexibility Among Packages for Zero-inflated Generalized Linear Mixed Modeling",
      "year": 2017,
      "openAccessPdf": {
        "url": "https://journal.r-project.org/archive/2017/RJ-2017-066/RJ-2017-066.pdf",
        "status": "HYBRID",
        "license": "CCBY",
        "disclaimer": "Notice: Paper or abstract available at https://api.unpaywall.org/v2/10.32614/RJ-2017-066?email=<INSERT_YOUR_EMAIL> or https://doi.org/10.32614/RJ-2017-066, which is subject to the license by the author or copyright owner provided with this content. Please go to the source to verify the license and copyright information for your use."
      },
      "authors": [
        {
          "authorId": "32710347",
          "name": "Mollie E. Brooks"
        },
        {
          "authorId": "46980587",
          "name": "K. Kristensen"
        },
        {
          "authorId": "5210567",
          "name": "K. J. Benthem"
        },
        {
          "authorId": "35493487",
          "name": "A. Magnusson"
        },
        {
          "authorId": "10705679",
          "name": "Casper W. Berg"
        },
        {
          "authorId": "2079275650",
          "name": "Anders Nielsen"
        },
        {
          "authorId": "2128088",
          "name": "H. Skaug"
        },
        {
          "authorId": "144985567",
          "name": "M. Mächler"
        },
        {
          "authorId": "2254255",
          "name": "B. Bolker"
        }
      ],
      "abstract": "Count data can be analyzed using generalized linear mixed models when observations are correlated in ways that require random effects. However, count data are often zero-inflated, containing more zeros than would be expected from the typical error distributions. We present a new package, glmmTMB, and compare it to other R packages that fit zero-inflated mixed models. The glmmTMB package fits many types of GLMMs and extensions, including models with continuously distributed responses, but here we focus on count responses. glmmTMB is faster than glmmADMB, MCMCglmm, and brms, and more flexible than INLA and mgcv for zero-inflated modeling. One unique feature of glmmTMB (among packages that fit zero-inflated mixed models) is its ability to estimate the Conway-Maxwell-Poisson distribution parameterized by the mean. Overall, its most appealing features for new users may be the combination of speed, flexibility, and its interface’s similarity to lme4."
    },
    {
      "paperId": "d7f0d01711855d236a8683cae11307da1610efc7",
      "url": "https://www.semanticscholar.org/paper/d7f0d01711855d236a8683cae11307da1610efc7",
      "title": "AutoDock4 and AutoDockTools4: Automated docking with selective receptor flexibility",
      "year": 2009,
      "openAccessPdf": {
        "url": "https://europepmc.org/articles/pmc2760638?pdf=render",
        "status": "GREEN",
        "license": null,
        "disclaimer": "Notice: The following paper fields have been elided by the publisher: {'abstract'}. Paper or abstract available at https://api.unpaywall.org/v2/10.1002/jcc.21256?email=<INSERT_YOUR_EMAIL> or https://doi.org/10.1002/jcc.21256, which is subject to the license by the author or copyright owner provided with this content. Please go to the source to verify the license and copyright information for your use."
      },
      "authors": [
        {
          "authorId": "49331106",
          "name": "G. Morris"
        },
        {
          "authorId": "144849500",
          "name": "R. Huey"
        },
        {
          "authorId": "2986869",
          "name": "William Lindstrom"
        },
        {
          "authorId": "2730249",
          "name": "M. Sanner"
        },
        {
          "authorId": "1682655",
          "name": "R. Belew"
        },
        {
          "authorId": "2756973",
          "name": "D. Goodsell"
        },
        {
          "authorId": "40083899",
          "name": "A. Olson"
        }
      ],
      "abstract": null
    },
    {
      "paperId": "b88e84c7c913d79c642275196ad91c26b5a81d70",
      "url": "https://www.semanticscholar.org/paper/b88e84c7c913d79c642275196ad91c26b5a81d70",
      "title": "Enabling New Flexibility in the SUNDIALS Suite of Nonlinear and Differential/Algebraic Equation Solvers",
      "year": 2020,
      "openAccessPdf": {
        "url": "https://dl.acm.org/doi/pdf/10.1145/3539801",
        "status": "BRONZE",
        "license": null,
        "disclaimer": "Notice: Paper or abstract available at https://arxiv.org/abs/2011.10073, which is subject to the license by the author or copyright owner provided with this content. Please go to the source to verify the license and copyright information for your use."
      },
      "authors": [
        {
          "authorId": "2081908460",
          "name": "D. J. Gardner"
        },
        {
          "authorId": "2472023",
          "name": "D. Reynolds"
        },
        {
          "authorId": "37622776",
          "name": "C. Woodward"
        },
        {
          "authorId": "51305804",
          "name": "Cody J. Balos"
        }
      ],
      "abstract": "In recent years, the SUite of Nonlinear and DIfferential/ALgebraic equation Solvers (SUNDIALS) has been redesigned to better enable the use of application-specific and third-party algebraic solvers and data structures. Throughout this work, we have adhered to specific guiding principles that minimized the impact to current users while providing maximum flexibility for later evolution of solvers and data structures. The redesign was done through the addition of new linear and nonlinear solvers classes, enhancements to the vector class, and the creation of modern Fortran interfaces. The vast majority of this work has been performed “behind-the-scenes,” with minimal changes to the user interface and no reduction in solver capabilities or performance. These changes allow SUNDIALS users to more easily utilize external solver libraries and create highly customized solvers, enabling greater flexibility on extreme-scale, heterogeneous computational architectures."
    },
    {
      "paperId": "d5e65a384ca9810b1cf1fac932890421db43527a",
      "url": "https://www.semanticscholar.org/paper/d5e65a384ca9810b1cf1fac932890421db43527a",
      "title": "Reconceptualizing Organizational Routines as a Source of Flexibility and Change",
      "year": 2003,
      "openAccessPdf": {
        "url": "https://escholarship.org/content/qt6rb6f923/qt6rb6f923.pdf?t=nhwyl1",
        "status": "GREEN",
        "license": "other-oa",
        "disclaimer": "Notice: The following paper fields have been elided by the publisher: {'abstract'}. Paper or abstract available at https://api.unpaywall.org/v2/10.2307/3556620?email=<INSERT_YOUR_EMAIL> or https://doi.org/10.2307/3556620, which is subject to the license by the author or copyright owner provided with this content. Please go to the source to verify the license and copyright information for your use."
      },
      "authors": [
        {
          "authorId": "40329611",
          "name": "M. Feldman"
        },
        {
          "authorId": "1683716",
          "name": "B. Pentland"
        }
      ],
      "abstract": null
    },
    {
      "paperId": "cd5e646572ff769d520f07a45c751fcf06b19d95",
      "url": "https://www.semanticscholar.org/paper/cd5e646572ff769d520f07a45c751fcf06b19d95",
      "title": "Cognitive and behavioural flexibility: neural mechanisms and clinical considerations",
      "year": 2021,
      "openAccessPdf": {
        "url": "https://www.nature.com/articles/s41583-021-00428-w.pdf",
        "status": "HYBRID",
        "license": "CCBY",
        "disclaimer": "Notice: Paper or abstract available at https://pmc.ncbi.nlm.nih.gov/articles/PMC7856857, which is subject to the license by the author or copyright owner provided with this content. Please go to the source to verify the license and copyright information for your use."
      },
      "authors": [
        {
          "authorId": "9763151",
          "name": "L. Uddin"
        }
      ],
      "abstract": "Cognitive and behavioural flexibility permit the appropriate adjustment of thoughts and behaviours in response to changing environmental demands. Brain mechanisms enabling flexibility have been examined using non-invasive neuroimaging and behavioural approaches in humans alongside pharmacological and lesion studies in animals. This work has identified large-scale functional brain networks encompassing lateral and orbital frontoparietal, midcingulo-insular and frontostriatal regions that support flexibility across the lifespan. Flexibility can be compromised in early-life neurodevelopmental disorders, clinical conditions that emerge during adolescence and late-life dementias. We critically evaluate evidence for the enhancement of flexibility through cognitive training, physical activity and bilingual experience. Flexibility is critical for the optimal adaptation of thoughts and actions under changing circumstances. In this Review, Uddin summarizes research that has identified cognitive processes and neural systems supporting flexibility and discusses ways to improve flexibility across the lifespan."
    }
  ]
}