{
  "total": 435717,
  "offset": 0,
  "next": 5,
  "data": [
    {
      "paperId": "5401e6543bea0573b3313fbdc00257a7ad603713",
      "url": "https://www.semanticscholar.org/paper/5401e6543bea0573b3313fbdc00257a7ad603713",
      "title": "Foam rolling and stretching do not provide superior acute flexibility and stiffness improvements compared to any other warm-up intervention: A systematic review with meta-analysis",
      "year": 2024,
      "openAccessPdf": {
        "url": "https://doi.org/10.1016/j.jshs.2024.01.006",
        "status": "GOLD",
        "license": "CCBYNCND",
        "disclaimer": "Notice: Paper or abstract available at https://pmc.ncbi.nlm.nih.gov/articles/PMC11184403, which is subject to the license by the author or copyright owner provided with this content. Please go to the source to verify the license and copyright information for your use."
      },
      "authors": [
        {
          "authorId": "2166141154",
          "name": "K. Warneke"
        },
        {
          "authorId": "2280031198",
          "name": "Gerit Plöschberger"
        },
        {
          "authorId": "2156790313",
          "name": "L. Lohmann"
        },
        {
          "authorId": "2280030019",
          "name": "Eric Lichtenstein"
        },
        {
          "authorId": "2280029912",
          "name": "Daniel Jochum"
        },
        {
          "authorId": "2223157873",
          "name": "S. D. Siegel"
        },
        {
          "authorId": "2280029998",
          "name": "A. Zech"
        },
        {
          "authorId": "2252084051",
          "name": "D. Behm"
        }
      ],
      "abstract": null
    },
    {
      "paperId": "51bb8471c448ff08c6f3b3a2e34843eb4c13b695",
      "url": "https://www.semanticscholar.org/paper/51bb8471c448ff08c6f3b3a2e34843eb4c13b695",
      "title": "Static Stretch Training versus Foam Rolling Training Effects on Range of Motion: A Systematic Review and Meta-Analysis",
      "year": 2024,
      "openAccessPdf": {
        "url": "https://link.springer.com/content/pdf/10.1007/s40279-024-02041-0.pdf",
        "status": "HYBRID",
        "license": "CCBY",
        "disclaimer": "Notice: Paper or abstract available at https://pmc.ncbi.nlm.nih.gov/articles/PMC11393112, which is subject to the license by the author or copyright owner provided with this content. Please go to the source to verify the license and copyright information for your use."
      },
      "authors": [
        {
          "authorId": "47033531",
          "name": "A. Konrad"
        },
        {
          "authorId": "33715480",
          "name": "S. Alizadeh"
        },
        {
          "authorId": "2005364689",
          "name": "Saman Hadjizedah Anvar"
        },
        {
          "authorId": "2279557597",
          "name": "Josef Fischer"
        },
        {
          "authorId": "2279599425",
          "name": "Josefina Manieu"
        },
        {
          "authorId": "2252084051",
          "name": "D. Behm"
        }
      ],
      "abstract": "Long-term static stretching as well as foam rolling training can increase a joint’s range of motion (ROM). However, to date, it is not clear which method is the most effective for increasing ROM. The purpose of this systematic review and meta-analysis was to compare the effects of static stretching and foam rolling training on ROM. The literature search was performed in PubMed, Scopus, and Web of Science to find the eligible studies. Eighty-five studies (72 on static stretching; and 13 on foam rolling) were found to be eligible with 204 effect sizes (ESs). For the main analyses, a random-effect meta-analysis was applied. To assess the difference between static stretching and foam rolling, subgroup analyses with a mixed-effect model were applied. Moderating variables were sex, total intervention duration, and weeks of intervention. Static stretch (ES =  − 1.006; p < 0.001), as well as foam rolling training (ES =  − 0.729; p = 0.001), can increase joint ROM with a moderate magnitude compared with a control condition. However, we did not detect a significant difference between the two conditions in the subgroup analysis (p = 0.228). When the intervention duration was ≤ 4 weeks, however, a significant change in ROM was shown following static stretching (ES =  − 1.436; p < 0.001), but not following foam rolling (ES =  − 0.229; p = 0.248). Thus, a subgroup analysis indicated a significant favorable effect with static stretching for increasing ROM compared with foam rolling (p < 0.001) over a shorter term (≤ 4 weeks). Other moderator analyses showed no significant difference between static stretch and foam rolling training on ROM. According to the results, both static stretching and foam rolling training can be similarly recommended to increase joint ROM, unless the training is scheduled for ≤ 4 weeks, in which case static stretching demonstrates a significant advantage. More studies are needed with a high-volume foam rolling training approach as well as foam rolling training in exclusively female participants."
    },
    {
      "paperId": "13441c3a5b95a62f8c375f2efcac5a0b8d0efcad",
      "url": "https://www.semanticscholar.org/paper/13441c3a5b95a62f8c375f2efcac5a0b8d0efcad",
      "title": "The comparison of the effects of percussive massage therapy, foam rolling and hamstring stretching on flexibility, knee range of motion, and jumping performance in junior athlete: a randomized controlled trial",
      "year": 2024,
      "openAccessPdf": {
        "url": "https://doi.org/10.1186/s43161-024-00211-9",
        "status": "GOLD",
        "license": "CCBY",
        "disclaimer": "Notice: Paper or abstract available at https://api.unpaywall.org/v2/10.1186/s43161-024-00211-9?email=<INSERT_YOUR_EMAIL> or https://doi.org/10.1186/s43161-024-00211-9, which is subject to the license by the author or copyright owner provided with this content. Please go to the source to verify the license and copyright information for your use."
      },
      "authors": [
        {
          "authorId": "2249083344",
          "name": "Sohel Ahmed"
        },
        {
          "authorId": "2323989365",
          "name": "G. M. Jakaria"
        },
        {
          "authorId": "2324306767",
          "name": "Md Shafiqul Islam"
        },
        {
          "authorId": "2323987394",
          "name": "Md. Akhsaful Imam"
        },
        {
          "authorId": "2323986218",
          "name": "Sudipto Kumar Ratul"
        },
        {
          "authorId": "2314343079",
          "name": "Ruwaida Jahangir"
        },
        {
          "authorId": "2323989533",
          "name": "Joy Saha"
        },
        {
          "authorId": "2323990755",
          "name": "Jalal Uddin"
        },
        {
          "authorId": "2183573285",
          "name": "Mohammad Jahirul Islam"
        }
      ],
      "abstract": "Before every sporting event, almost all athletes engage in a routine practice of warming up to prepare the body for peak performance. There has been a surge in popularity within the athletic world around the use of percussive massage therapy (PMT). The objectives of this study were to see if using percussive massage therapy, foam rolling (FR), and hamstring stretching (HStr) as part of a warm-up routine had any acute effects on flexibility, jumping performance, and range of motion in junior athletes, and if so, whether there was a significant difference in the acute effects of these treatment methods. Thirty-nine junior athletes with at least 3 years of experience, male gender, age range above 17, seated flexion test < 40 cm, and a willingness to participate were all considered for admittance. Participants were randomly divided into three groups. Before and after the treatment, the seated flexion test, vertical jump test, active SLR, and active knee extension were measured. The study found significant improvement in all three groups when comparing them within the groups in the sit and reach test (PMT p < 0.001, FR p = 0.002, and HStr p = 0.001), active SLR (PMT p < 0.001, FR p < 0.001, and HStr p = 0.001), active knee extension (PMT p < 0.001, FR p = 0.002, and HStr p = 0.004), and vertical jump test (PMT p < 0.001, FR p = 0.011, and HStr (p < 0.001). Comparisons between groups showed significant differences among PMT vs. FR (p = 0.041) in vertical jump height and PMT vs. HStr (p = 0.034) in active SLR. We detected a notable disparity in hamstring flexibility between the PMT and FR groups, as well as in vertical jump height between the PMT and HStr groups. However, there was no apparent alteration in active knee extension in all three groups."
    },
    {
      "paperId": "1141851085f5eaa8241b1c3d7efea34bcb41a5c6",
      "url": "https://www.semanticscholar.org/paper/1141851085f5eaa8241b1c3d7efea34bcb41a5c6",
      "title": "Acute Effects of Combined and Distinctive Stretching, Foam Rolling, and Eccentric Exercise in Young Men with Hamstring Tightness",
      "year": 2024,
      "openAccessPdf": {
        "url": "https://jhk.termedia.pl/pdf-187026-112198?filename=Acute Effects of Combined.pdf",
        "status": "GOLD",
        "license": "CCBY",
        "disclaimer": "Notice: Paper or abstract available at https://pmc.ncbi.nlm.nih.gov/articles/PMC11571462, which is subject to the license by the author or copyright owner provided with this content. Please go to the source to verify the license and copyright information for your use."
      },
      "authors": [
        {
          "authorId": "3522699",
          "name": "S. Kamandulis"
        },
        {
          "authorId": "7023825",
          "name": "Phurichaya Werasirirat"
        },
        {
          "authorId": "74689086",
          "name": "Juntip Namsawang"
        },
        {
          "authorId": "2312147786",
          "name": "Nutsupa Singhasoot"
        },
        {
          "authorId": "2312148499",
          "name": "Audrius Snieckus Audrius Snieckus"
        },
        {
          "authorId": "9991566",
          "name": "Pornpimol Muanjai"
        }
      ],
      "abstract": "This study investigated the changes in fascicle length (FL), musculotendinous unit (MTU) stiffness, muscle oxygen saturation (SmO2), and muscular performance following a single bout of a combination of static stretching (SS) or dynamic stretching (DS) with foam rolling (FR), SS only, and eccentric exercise (ECC) only in young men with hamstring tightness. Twenty-five men (20.5 ± 1.5 years) participated in a crossover randomized study of the four conditions (DS+FR, SS+FR, SS, and ECC); each session was spaced seven days apart. FL, MTU stiffness during the straight leg raise (SLR), hamstring SmO2, and isometric and eccentric torque were measured before, immediately and 30 min after exercise. Immediately after exercise, the SLR increased significantly by means of 7.4% (d = 1.07), 6% (d = 1.27), 6% (d = 1.10), and 8% (d = 1.04, all p < 0.001) for DS+FR, SS+FR, ECC, and SS, respectively. FL was longer after exercise under all four conditions (p < 0.05). MTU stiffness decreased after ECC (p = 0.038, d = 0.40). SmO2 tended to decrease for ECC (p > 0.05), but it was increased immediately after those three exercises. Hamstring isometric torque was significantly reduced by an average of 6–9%, but eccentric torque changes varied among conditions. In conclusion, substantial and similar immediate increases in hamstring flexibility, coupled with reduced isometric torque following various exercises, were accompanied by condition-specific alterations in fascicle length, MTU stiffness, or SmO2. These findings provide practical insights for acutely enhancing range of motion in individuals with tight hamstrings."
    },
    {
      "paperId": "313a10b35ea7ef3936a21d6275a631dc950dc6ce",
      "url": "https://www.semanticscholar.org/paper/313a10b35ea7ef3936a21d6275a631dc950dc6ce",
      "title": "Impact of foam rolling with and without vibration on muscle oxidative metabolism and microvascular reactivity",
      "year": 2024,
      "openAccessPdf": {
        "url": "https://doi.org/10.7717/peerj.18180",
        "status": "GOLD",
        "license": "CCBY",
        "disclaimer": "Notice: Paper or abstract available at https://pmc.ncbi.nlm.nih.gov/articles/PMC11457870, which is subject to the license by the author or copyright owner provided with this content. Please go to the source to verify the license and copyright information for your use."
      },
      "authors": [
        {
          "authorId": "2323773814",
          "name": "Haizhen Huang"
        },
        {
          "authorId": "2323551509",
          "name": "Bin Leng"
        },
        {
          "authorId": "2243488050",
          "name": "Chuan Zhang"
        }
      ],
      "abstract": "Background and Purpose There is a growing interest in use vibration foam rolling as a warm up and recovery tool. However, whether vibration foam rolling offers additional benefits to traditional foam rolling is unclear. The current study aims to compare the effects of acute foam rolling, with and without vibration, on skeletal muscle metabolism and microvascular reactivity. Methods Fifteen physically active young males were tested on two different days, with gastrocnemius muscle microvascular function assessed using near-infrared spectroscopy coupled with the post-occlusive reactive hyperemia technique, before and after foam rolling, performed with or without vibration. The slope of tissue saturation index (TSI) decrease during occlusion between 120 s to 150 s (TSI occlusion slope) was assessed for muscle metabolic rate. Three commonly used microvascular function indexes, including the first10s TSI slope after occlusion (TSI10), time for TSI to reach half of peak magnitude (TSI1/2), and TSI peak reactive hyperemia, were also assessed. Results None of the measured indexes showed significance for interaction or method (all p > 0.05). However, there was a main effect for time for TSI occlusion slope, TSI1/2, and TSI peak reactive hyperemia (p = 0.005, 0.034 and 0.046, respectively). No main effect for time for TSI10 was detected (p = 0.963). Conclusions The application of foam rolling can decrease muscle metabolism, and may improve some aspects of muscle microvascular function. However, vibration foam rolling does not seem to offer any additional benefits compared to traditional foam rolling alone."
    }
  ]
}