{
  "total": 5083349,
  "offset": 0,
  "next": 3,
  "data": [
    {
      "paperId": "82e320e06b1c717b0d924d257aa7b6710f53a38e",
      "url": "https://www.semanticscholar.org/paper/82e320e06b1c717b0d924d257aa7b6710f53a38e",
      "title": "Free radicals in biology and medicine",
      "year": 1985,
      "openAccessPdf": {
        "url": "",
        "status": "CLOSED",
        "license": null,
        "disclaimer": "Notice: The following paper fields have been elided by the publisher: {'abstract'}. Paper or abstract available at https://api.unpaywall.org/v2/10.1093/acprof:oso/9780198717478.001.0001?email=<INSERT_YOUR_EMAIL> or https://doi.org/10.1093/acprof:oso/9780198717478.001.0001, which is subject to the license by the author or copyright owner provided with this content. Please go to the source to verify the license and copyright information for your use."
      },
      "authors": [
        {
          "authorId": "2107935",
          "name": "B. Halliwell"
        },
        {
          "authorId": "82830637",
          "name": "J. Gutteridge"
        }
      ],
      "abstract": null
    },
    {
      "paperId": "e5cae7c12e3e0c307e87eebd62271c36037b609d",
      "url": "https://www.semanticscholar.org/paper/e5cae7c12e3e0c307e87eebd62271c36037b609d",
      "title": "Free radicals in the physiological control of cell function.",
      "year": 2002,
      "openAccessPdf": {
        "url": "http://info-centre.jenage.de/assets/pdfs/library/droege_PHYSIOL_REV_2002.pdf",
        "status": "GREEN",
        "license": null,
        "disclaimer": "Notice: The following paper fields have been elided by the publisher: {'abstract'}. Paper or abstract available at https://api.unpaywall.org/v2/10.1152/PHYSREV.00018.2001?email=<INSERT_YOUR_EMAIL> or https://doi.org/10.1152/PHYSREV.00018.2001, which is subject to the license by the author or copyright owner provided with this content. Please go to the source to verify the license and copyright information for your use."
      },
      "authors": [
        {
          "authorId": "5459726",
          "name": "W. Dröge"
        }
      ],
      "abstract": null
    },
    {
      "paperId": "29ce36c50318cd7125df89ba405b519edc465aee",
      "url": "https://www.semanticscholar.org/paper/29ce36c50318cd7125df89ba405b519edc465aee",
      "title": "Free radicals and antioxidants in normal physiological functions and human disease.",
      "year": 2007,
      "openAccessPdf": {
        "url": "",
        "status": "CLOSED",
        "license": null,
        "disclaimer": "Notice: The following paper fields have been elided by the publisher: {'abstract'}. Paper or abstract available at https://api.unpaywall.org/v2/10.1016/J.BIOCEL.2006.07.001?email=<INSERT_YOUR_EMAIL> or https://doi.org/10.1016/J.BIOCEL.2006.07.001, which is subject to the license by the author or copyright owner provided with this content. Please go to the source to verify the license and copyright information for your use."
      },
      "authors": [
        {
          "authorId": "34784980",
          "name": "M. Valko"
        },
        {
          "authorId": "145082516",
          "name": "D. Leibfritz"
        },
        {
          "authorId": "5099353",
          "name": "J. Moncol’"
        },
        {
          "authorId": "47311734",
          "name": "M. Cronin"
        },
        {
          "authorId": "47971405",
          "name": "M. Mazúr"
        },
        {
          "authorId": "6342911",
          "name": "J. Telser"
        }
      ],
      "abstract": null
    }
  ]
}