{
  "total": 88505,
  "offset": 0,
  "next": 5,
  "data": [
    {
      "paperId": "4983684d6dce532f319e393f880da6f10a6635e2",
      "url": "https://www.semanticscholar.org/paper/4983684d6dce532f319e393f880da6f10a6635e2",
      "title": "Caffeine Ingestion Does Not Accelerate Muscle Glycogen Resynthesis Following 90-minutes Of Running In Active Adults",
      "year": 2024,
      "openAccessPdf": {
        "url": "",
        "status": "CLOSED",
        "license": null,
        "disclaimer": "Notice: Paper or abstract available at https://api.unpaywall.org/v2/10.1249/01.mss.0001060652.39731.0e?email=<INSERT_YOUR_EMAIL> or https://doi.org/10.1249/01.mss.0001060652.39731.0e, which is subject to the license by the author or copyright owner provided with this content. Please go to the source to verify the license and copyright information for your use."
      },
      "authors": [
        {
          "authorId": "2194451676",
          "name": "Max Davis"
        },
        {
          "authorId": "2321473398",
          "name": "Bradley Burton"
        },
        {
          "authorId": "2321503891",
          "name": "Harry A. Smith"
        },
        {
          "authorId": "2133891209",
          "name": "Guoda Karoblyte"
        },
        {
          "authorId": "2248616289",
          "name": "L. Bradshaw"
        },
        {
          "authorId": "5716167",
          "name": "J. Walhin"
        },
        {
          "authorId": "2321486037",
          "name": "Javier Gonzalez"
        },
        {
          "authorId": "5915556",
          "name": "K. Tsintzas"
        },
        {
          "authorId": "2321480195",
          "name": "James A. Betts"
        }
      ],
      "abstract": null
    },
    {
      "paperId": "cb3f6aac25126bb9a4ddc8207dc6667b1ec4c520",
      "url": "https://www.semanticscholar.org/paper/cb3f6aac25126bb9a4ddc8207dc6667b1ec4c520",
      "title": "Rates Of Muscle Glycogen Resynthesis 72 Hours After Eccentric Exercise",
      "year": 2024,
      "openAccessPdf": {
        "url": "",
        "status": "CLOSED",
        "license": null,
        "disclaimer": "Notice: Paper or abstract available at https://api.unpaywall.org/v2/10.1249/01.mss.0001055012.41367.20?email=<INSERT_YOUR_EMAIL> or https://doi.org/10.1249/01.mss.0001055012.41367.20, which is subject to the license by the author or copyright owner provided with this content. Please go to the source to verify the license and copyright information for your use."
      },
      "authors": [
        {
          "authorId": "2166166995",
          "name": "Scott C. Swanson"
        },
        {
          "authorId": "2248106801",
          "name": "W. Sherman"
        }
      ],
      "abstract": null
    },
    {
      "paperId": "c36af940fbc472bcd06b4487468265a3e8a78c7e",
      "url": "https://www.semanticscholar.org/paper/c36af940fbc472bcd06b4487468265a3e8a78c7e",
      "title": "588-P: Probing the Role of Muscle Glycogen Resynthesis on Postexercise AMPK Activation and Metabolic Protein Abundance Using a Novel Genetic Model",
      "year": 2023,
      "openAccessPdf": {
        "url": "",
        "status": null,
        "license": null,
        "disclaimer": "Notice: Paper or abstract available at https://api.unpaywall.org/v2/10.2337/db23-588-p?email=<INSERT_YOUR_EMAIL> or https://doi.org/10.2337/db23-588-p, which is subject to the license by the author or copyright owner provided with this content. Please go to the source to verify the license and copyright information for your use."
      },
      "authors": [
        {
          "authorId": "2221395379",
          "name": "S. Kwak"
        },
        {
          "authorId": "2047455477",
          "name": "Amy Zheng"
        },
        {
          "authorId": "145906994",
          "name": "E. Arias"
        },
        {
          "authorId": "2116381756",
          "name": "Haiyan Wang"
        },
        {
          "authorId": "5997720",
          "name": "Xiufang Pan"
        },
        {
          "authorId": "145143518",
          "name": "D. Duan"
        },
        {
          "authorId": "145253447",
          "name": "Y. Yue"
        },
        {
          "authorId": "3668520",
          "name": "G. Cartee"
        }
      ],
      "abstract": "Acute exercise can alter the abundance of key metabolic proteins in skeletal muscle. These effects are influenced by postexercise (PEX) refeeding. Muscle glycogen resynthesis is a putative mediator of these refeeding effects. However, it is challenging to test this idea, because glycogen resynthesis is only one of many outcomes with refeeding. Therefore, we devised a novel genetic model to modify muscle expression of glycogen synthase 1 (GS1) using injection of rat skeletal muscle with adeno-associated viral (AAV) vectors for short hairpin RNA targeting GS1 (shRNA-GS1). Contralateral muscles were injected with scrambled shRNA (shRNA-Scr). Rats were sedentary (SED) or exercised (120min swim-exercise). Muscles were collected immediately postexercise (IPEX) and 9-hours PEX (9hPEX), along with time-matched SED controls. The 9hPEX and their SED-control rats were either refed (RF) or not-refed (NRF). Muscles were analyzed for glycogen and phosphorylation and abundance of key metabolic proteins. Muscles injected with shRNA-GS1 vs shRNA-Scr had lower GS1 abundance in all groups. Regardless of genotype, in IPEX vs SED rats: glycogen fell to similarly low values and phosphorylation of AMPK Thr172 (pAMPK) and its substrate ACC Ser79 (pACC) were comparably increased. Muscle glycogen was increased in all groups of 9h-RF rats, but it was lower for shRNA-GS1 vs shRNA-Scr from RF-9hPEX rats. In the NRF-9hPEX rats, pAMPK and pACC were greater for shRNA-GS1 vs shRNA-Scr muscles. Muscle pyruvate dehydrogenase kinase-4 abundance from 9hPEX rats (both NRF and RF) was greater for shRNA-GS1 vs shRNA-Scr. Hexokinase II (HKII) abundance was greater for 9hPEX vs SED in NRF rats regardless of genotype. In RF-9hPEX rats, HKII abundance was greater for shRNA-GS1 vs shRNA-Scr. These results support the idea that some PEX effects on metabolic protein abundance are influenced by muscle GS1 abundance and the extent of glycogen resynthesis\n \n \n S.Kwak: None. A.Zheng: None. E.B.Arias: None. H.Wang: None. X.Pan: None. D.Duan: None. Y.Yue: None. G.D.Cartee: None.\n \n \n \n National Institutes of Health (R01DK071771); University of Michigan\n"
    },
    {
      "paperId": "ee2b2cdf718b7df870e5305033d369f1387347a7",
      "url": "https://www.semanticscholar.org/paper/ee2b2cdf718b7df870e5305033d369f1387347a7",
      "title": "Co-ingesting whey protein with dual-source carbohydrate enhances amino acid availability without compromising post-exercise liver glycogen resynthesis.",
      "year": 2025,
      "openAccessPdf": {
        "url": "",
        "status": null,
        "license": null,
        "disclaimer": "Notice: Paper or abstract available at https://api.unpaywall.org/v2/10.1113/JP288473?email=<INSERT_YOUR_EMAIL> or https://doi.org/10.1113/JP288473, which is subject to the license by the author or copyright owner provided with this content. Please go to the source to verify the license and copyright information for your use."
      },
      "authors": [
        {
          "authorId": "2141211270",
          "name": "Sophie C Hannon"
        },
        {
          "authorId": "2336725594",
          "name": "James McStravick"
        },
        {
          "authorId": "2309318402",
          "name": "Libby Henthorn"
        },
        {
          "authorId": "2370767593",
          "name": "Stephen J Bawden"
        },
        {
          "authorId": "2276746148",
          "name": "Jonathan C. Y. Tang"
        },
        {
          "authorId": "2370766977",
          "name": "Rachel Dunn"
        },
        {
          "authorId": "2359899841",
          "name": "Ryosuke Makino"
        },
        {
          "authorId": "2333533383",
          "name": "Kenneth Smith"
        },
        {
          "authorId": "2238543748",
          "name": "Javier T. Gonzalez"
        },
        {
          "authorId": "2298879777",
          "name": "Nathan Hodson"
        },
        {
          "authorId": "2276054288",
          "name": "James P. Morton"
        },
        {
          "authorId": "2305799758",
          "name": "Aneurin J Kennerley"
        },
        {
          "authorId": "2308264927",
          "name": "Mark Hearris"
        }
      ],
      "abstract": "We examined the effects of ingesting maltodextrin and/or fructose with protein co-ingestion on post-exercise liver and muscle glycogen resynthesis. Following glycogen-depleting exercise, 10 well-trained male cyclists ingested 60 g h-1 carbohydrate from either maltodextrin (MAL), fructose (FRU), 1:1 ratio of maltodextrin + fructose (MF) or 1:1 ratio of maltodextrin + fructose plus 30 g whey protein at 0 and 180 min (PRO) during a 5 h recovery period. 13C magnetic resonance spectroscopy and imaging were performed at 0, 120 and 300 min following exercise to determine liver and muscle glycogen concentrations and liver volume. Protein co-ingestion resulted in elevated serum insulin and plasma glucagon compared with FRU and MF (P < 0.001 for all). Similarly, serum insulin and plasma glucagon concentrations were markedly higher with MAL when compared with both FRU and MF (P < 0.05 for all), although plasma glucagon was also higher when compared with PRO (P < 0.001). Liver glycogen concentrations were significantly higher with FRU (275 ± 49 mmol L-1), MF (255 ± 50 mmol L-1) and PRO (283 ± 50 mmol L-1) compared with MAL (204 ± 51 mmol L-1) (P < 0.05 for all) following 5 h of recovery. However, muscle glycogen concentrations (mmol L-1: MAL, 168 ± 33; FRU, 145 ± 32; MF, 151 ± 33; PRO 153 ± 33) were not different between trials (P > 0.05). We conclude that, despite enhancing glucagonaemia, co-ingestion of whey protein (to a 1:1 combination of maltodextrin and fructose) does not compromise post-exercise liver glycogen resynthesis, allowing for increased aminoacidaemia alongside rapid glycogen resynthesis. KEY POINTS: Endurance athletes commonly co-ingest carbohydrate and protein within the post-exercise recovery period to facilitate rapid glycogen repletion and muscle remodelling. Here we report that the ingestion of dual-source carbohydrate (a 1:1 ratio of maltodextrin and fructose) enhances liver glycogen repletion when compared with maltodextrin alone. Co-ingesting whey protein alongside this dual-source carbohydrate enhanced amino acid availability without compromising liver glycogen resynthesis, despite enhanced glucagonaemia. These data demonstrate that the co-ingestion of whey protein with dual-source carbohydrate provides a practical strategy to enhance amino acid availability (which provides an important substrate for post-exercise muscle remodelling) and rapid glycogen resynthesis."
    },
    {
      "paperId": "47b2aa27473d9a657fc8dc1461e671117d778191",
      "url": "https://www.semanticscholar.org/paper/47b2aa27473d9a657fc8dc1461e671117d778191",
      "title": "Beta2-adrenoceptor agonist salbutamol increases leg glucose uptake and metabolic rate but not muscle glycogen resynthesis in recovery from resistance exercise of the quadriceps in lean young men",
      "year": 2021,
      "openAccessPdf": {
        "url": "https://www.biorxiv.org/content/biorxiv/early/2021/04/30/2021.04.30.442161.full.pdf",
        "status": "GREEN",
        "license": null,
        "disclaimer": "Notice: Paper or abstract available at https://api.unpaywall.org/v2/10.1101/2021.04.30.442161?email=<INSERT_YOUR_EMAIL> or https://doi.org/10.1101/2021.04.30.442161, which is subject to the license by the author or copyright owner provided with this content. Please go to the source to verify the license and copyright information for your use."
      },
      "authors": [
        {
          "authorId": "9928825",
          "name": "J. Onslev"
        },
        {
          "authorId": "2105490887",
          "name": "Martin Thomasson"
        },
        {
          "authorId": "3605400",
          "name": "J. Wojtaszewski"
        },
        {
          "authorId": "9628194",
          "name": "J. Bangsbo"
        },
        {
          "authorId": "4770267",
          "name": "M. Hostrup"
        }
      ],
      "abstract": "Content Beta2-agonists evoke potent acute increases in peripheral glucose uptake and energy expenditure at rest. Exercise has been shown to blunt these effects. Whether this attenuation is extended into recovery from exercise is unknown. Objective To examine the effect of beta2-agonists on leg glucose uptake and leg metabolic rate in recovery from exercise. Design In a randomized, placebo-controlled, cross-over study using arteriovenous balance technique and analysis of thigh muscle biopsies we investigated the effect of 24mg oral salbutamol (a selective beta2-agonist) on leg glucose, oxygen, and lactate at rest, during exercise, and in recovery, as well as on muscle glycogen resynthesis. Participants Healthy, lean, young men (n=12). Results Leg glucose uptake tended to be two-fold higher at rest (0.22±0.12mmol/min, P=0.06). Accumulated leg glucose uptake was higher in recovery (21.1±6mmol, P=0.018) with salbutamol, but not during exercise. Leg oxygen uptake was 80% greater at rest (11±2.1mmol/min, P<0.01). Accumulated leg oxygen uptake was higher in recovery (1755±348mL, P<0.01) with salbutamol, but not during exercise. Muscle glycogen was lower with salbutamol 0.5h (109±25mmol/mg dry-weight, P<0.01) and 5h (101±19mmol/mg dry-weight, P<0.01) into recovery, suggestive of augmented glycogen utilization during exercise. There was no difference in glycogen resynthesis or glycogen synthase activity in the 5-hour recovery period with salbutamol. Conclusions These findings suggest that while resistance exercise confounds the augmentation of leg glucose uptake and metabolic rate induced by beta2-agonist at rest, this suppression is not conserved into recovery from exercise."
    }
  ]
}