{
  "total": 676465,
  "offset": 0,
  "next": 3,
  "data": [
    {
      "paperId": "303d5c4bd2de7d02f53f43b33ec92f50c91e67bd",
      "url": "https://www.semanticscholar.org/paper/303d5c4bd2de7d02f53f43b33ec92f50c91e67bd",
      "title": "An Overview of Heart Rate Variability Metrics and Norms",
      "year": 2017,
      "openAccessPdf": {
        "url": "https://www.frontiersin.org/articles/10.3389/fpubh.2017.00258/pdf",
        "status": "GOLD",
        "license": "CCBY",
        "disclaimer": "Notice: Paper or abstract available at https://pmc.ncbi.nlm.nih.gov/articles/PMC5624990, which is subject to the license by the author or copyright owner provided with this content. Please go to the source to verify the license and copyright information for your use."
      },
      "authors": [
        {
          "authorId": "39186474",
          "name": "F. Shaffer"
        },
        {
          "authorId": "31733342",
          "name": "J. Ginsberg"
        }
      ],
      "abstract": "Healthy biological systems exhibit complex patterns of variability that can be described by mathematical chaos. Heart rate variability (HRV) consists of changes in the time intervals between consecutive heartbeats called interbeat intervals (IBIs). A healthy heart is not a metronome. The oscillations of a healthy heart are complex and constantly changing, which allow the cardiovascular system to rapidly adjust to sudden physical and psychological challenges to homeostasis. This article briefly reviews current perspectives on the mechanisms that generate 24 h, short-term (~5 min), and ultra-short-term (<5 min) HRV, the importance of HRV, and its implications for health and performance. The authors provide an overview of widely-used HRV time-domain, frequency-domain, and non-linear metrics. Time-domain indices quantify the amount of HRV observed during monitoring periods that may range from ~2 min to 24 h. Frequency-domain values calculate the absolute or relative amount of signal energy within component bands. Non-linear measurements quantify the unpredictability and complexity of a series of IBIs. The authors survey published normative values for clinical, healthy, and optimal performance populations. They stress the importance of measurement context, including recording period length, subject age, and sex, on baseline HRV values. They caution that 24 h, short-term, and ultra-short-term normative values are not interchangeable. They encourage professionals to supplement published norms with findings from their own specialized populations. Finally, the authors provide an overview of HRV assessment strategies for clinical and optimal performance interventions."
    },
    {
      "paperId": "a017c6636f3eda53bd112cdf9c8c4c2f37e5dfc2",
      "url": "https://www.semanticscholar.org/paper/a017c6636f3eda53bd112cdf9c8c4c2f37e5dfc2",
      "title": "Heart rate variability. Standards of measurement, physiological interpretation, and clinical use",
      "year": 1996,
      "openAccessPdf": {
        "url": "https://academic.oup.com/eurheartj/article-pdf/17/3/354/1312587/17-3-354.pdf",
        "status": "BRONZE",
        "license": null,
        "disclaimer": "Notice: The following paper fields have been elided by the publisher: {'abstract'}. Paper or abstract available at https://api.unpaywall.org/v2/10.1093/OXFORDJOURNALS.EURHEARTJ.A014868?email=<INSERT_YOUR_EMAIL> or https://doi.org/10.1093/OXFORDJOURNALS.EURHEARTJ.A014868, which is subject to the license by the author or copyright owner provided with this content. Please go to the source to verify the license and copyright information for your use."
      },
      "authors": [
        {
          "authorId": "2327533633",
          "name": "Marek Malik"
        },
        {
          "authorId": "2253520753",
          "name": "J. Bigger"
        },
        {
          "authorId": "2275246492",
          "name": "A. J. Camm"
        },
        {
          "authorId": "2237594928",
          "name": "Robert E. Kleiger"
        },
        {
          "authorId": "2248720577",
          "name": "Alberto Malliani"
        },
        {
          "authorId": "2257693499",
          "name": "Arthur J. Moss"
        },
        {
          "authorId": "2239360102",
          "name": "Peter J. Schwartz"
        }
      ],
      "abstract": null
    },
    {
      "paperId": "6d995bd4ee768dd4980a9b5144ddb3f73c8cff6c",
      "url": "https://www.semanticscholar.org/paper/6d995bd4ee768dd4980a9b5144ddb3f73c8cff6c",
      "title": "Heart rate variability. Standards of measurement, physiological interpretation, and clinical use. Task Force of the European Society of Cardiology and the North American Society of Pacing and Electrophysiology.",
      "year": 1996,
      "openAccessPdf": {
        "url": "",
        "status": null,
        "license": null
      },
      "authors": [],
      "abstract": null
    }
  ]
}