{
  "total": 11060,
  "offset": 0,
  "next": 5,
  "data": [
    {
      "paperId": "19fb4d52016d7515cb24e42b579f482ca22b1ea8",
      "url": "https://www.semanticscholar.org/paper/19fb4d52016d7515cb24e42b579f482ca22b1ea8",
      "title": "Vegan and Omnivorous High Protein Diets Support Comparable Daily Myofibrillar Protein Synthesis Rates and Skeletal Muscle Hypertrophy in Young Adults",
      "year": 2023,
      "openAccessPdf": {
        "url": "https://doi.org/10.1016/j.tjnut.2023.02.023",
        "status": "HYBRID",
        "license": "CCBY",
        "disclaimer": "Notice: Paper or abstract available at https://pmc.ncbi.nlm.nih.gov/articles/PMC10308267, which is subject to the license by the author or copyright owner provided with this content. Please go to the source to verify the license and copyright information for your use."
      },
      "authors": [
        {
          "authorId": "1470750438",
          "name": "A. J. Monteyne"
        },
        {
          "authorId": "1571826609",
          "name": "M. Coelho"
        },
        {
          "authorId": "5503349",
          "name": "A. Murton"
        },
        {
          "authorId": "15354838",
          "name": "Doaa R. Abdelrahman"
        },
        {
          "authorId": "3149505",
          "name": "Jamie R. Blackwell"
        },
        {
          "authorId": "2209496684",
          "name": "Christopher P Koscien"
        },
        {
          "authorId": "47969696",
          "name": "Karen M. Knapp"
        },
        {
          "authorId": "3826932",
          "name": "J. Fulford"
        },
        {
          "authorId": "121790610",
          "name": "T. Finnigan"
        },
        {
          "authorId": "2852369",
          "name": "M. Dirks"
        },
        {
          "authorId": "32339541",
          "name": "F. Stephens"
        },
        {
          "authorId": "4167588",
          "name": "B. Wall"
        }
      ],
      "abstract": null
    },
    {
      "paperId": "e87901ae86c9a158be7fdaeba8c96b5618f22690",
      "url": "https://www.semanticscholar.org/paper/e87901ae86c9a158be7fdaeba8c96b5618f22690",
      "title": "Timing matters? The effects of two different timing of high protein diets on body composition, muscular performance, and biochemical markers in resistance-trained males",
      "year": 2024,
      "openAccessPdf": {
        "url": "https://www.frontiersin.org/articles/10.3389/fnut.2024.1397090/pdf?isPublishedV2=False",
        "status": "GOLD",
        "license": "CCBY",
        "disclaimer": "Notice: Paper or abstract available at https://pmc.ncbi.nlm.nih.gov/articles/PMC11156191, which is subject to the license by the author or copyright owner provided with this content. Please go to the source to verify the license and copyright information for your use."
      },
      "authors": [
        {
          "authorId": "2303216651",
          "name": "Mohammadyasin Lak"
        },
        {
          "authorId": "95536917",
          "name": "R. Bagheri"
        },
        {
          "authorId": "2085047922",
          "name": "Hamid Ghobadi"
        },
        {
          "authorId": "2303220279",
          "name": "Bill Campbell"
        },
        {
          "authorId": "2261259295",
          "name": "A. Wong"
        },
        {
          "authorId": "2303215981",
          "name": "Amin Shahrbaf"
        },
        {
          "authorId": "2303215924",
          "name": "Mohammad Shariatzadeh"
        },
        {
          "authorId": "2169693071",
          "name": "F. Dutheil"
        }
      ],
      "abstract": "Background It is unclear whether resistance training in combination with different timing of protein intake might have differential effects on muscle hypertrophy, strength, and performance. Therefore, we compared the effects of 8 weeks of resistance training combined with two different high-protein diet strategies (immediately pre-and after, or 3 h pre and after exercise) in resistance-trained males. Methods Forty resistance-trained males (24 ± 4 years) performed 8 weeks of resistance training combined with 2 g kg−1 d−1 protein. Body composition, muscular performance, and biochemical markers were assessed pre and post-intervention. Results Nine participants (four from 3 h group and five from the immediate group) withdrew from the study. Therefore, 31 participants completed the study. All measures of skeletal muscle mass, Australian pull-up, and muscle strength, significantly increased post-intervention in both groups (p < 0.05). The biochemical marker urea also significantly increased from pre to post in both groups (p < 0.05). There were no significant between-group differences (p > 0.05). Conclusion High-protein diet enhances muscular performance and skeletal muscle mass in resistance-trained males, irrespective of intake time. Consequently, the total daily protein intake appears to be the primary factor in facilitating muscle growth induced by exercise."
    },
    {
      "paperId": "895be240417f6f3447d6b30f2d25b45d84d99cb3",
      "url": "https://www.semanticscholar.org/paper/895be240417f6f3447d6b30f2d25b45d84d99cb3",
      "title": "Effects of 16 weeks of two different high-protein diets with either resistance or concurrent training on body composition, muscular strength and performance, and markers of liver and kidney function in resistance-trained males",
      "year": 2023,
      "openAccessPdf": {
        "url": "https://www.tandfonline.com/doi/pdf/10.1080/15502783.2023.2236053?needAccess=true&role=button",
        "status": "GOLD",
        "license": "CCBY",
        "disclaimer": "Notice: Paper or abstract available at https://pmc.ncbi.nlm.nih.gov/articles/PMC10388821, which is subject to the license by the author or copyright owner provided with this content. Please go to the source to verify the license and copyright information for your use."
      },
      "authors": [
        {
          "authorId": "95536917",
          "name": "R. Bagheri"
        },
        {
          "authorId": "3506295",
          "name": "M. Kargarfard"
        },
        {
          "authorId": "3471026",
          "name": "R. Sadeghi"
        },
        {
          "authorId": "145817167",
          "name": "David Steven Scott"
        },
        {
          "authorId": "6803602",
          "name": "D. Camera"
        }
      ],
      "abstract": "ABSTRACT Purpose It is unclear whether resistance (RT) and concurrent training (CT; resistance plus endurance training) combined with different protein intakes have differential effects on muscle hypertrophy, strength, and performance. Therefore, we compared the effects of two high-protein diets (1.6 or 3.2 g.kg−1.d−1) during 16 weeks of either CT or RT alone in resistance-trained males. Methods Forty-eight resistance-trained males (age: 26 ± 6 yr, body mass index: 25.6 ± 2.9 kg.m−2) performed 16 weeks (four sessions·w−1) of CT or RT with either 1.6 g.kg−1.d−1 protein (CT1; n = 12; RT1; n = 12) or 3.2 g.kg−1.d−1 protein (CT2; n = 12; RT2; n = 12). Training adaptations were assessed pre-, mid-, and post-intervention. Results All measures of performance (endurance, vertical jump, and pull-up), lean mass, muscle strength, and power significantly increased post-intervention in all groups, but peak power gains were greater in RT2 compared with RT1 and CT1 (p < .05). VO2max significantly increased in both CT groups (p < .001). Select biochemical markers of kidney and liver function significantly increased within the RT2 and CT2 groups (p < .05), however, no between-group differences were apparent (p > .05). Conclusions With the exception of peak power, intake of 1.6 g.kg−1.d−1 of protein appears sufficient to maximize gains in lean mass, muscle strength, performance, and aerobic capacity during both RT and CT without influencing markers of kidney and liver function, indicating this daily protein amount is effective and safely tolerated in young, healthy adults."
    },
    {
      "paperId": "fecc5e43ead05598dec427b09ea745c2f93e78d7",
      "url": "https://www.semanticscholar.org/paper/fecc5e43ead05598dec427b09ea745c2f93e78d7",
      "title": "Effect of a High Fat and High Protein Diet on Exercise-Induced Skeletal Muscle Hypertrophy in Rats",
      "year": 2019,
      "openAccessPdf": {
        "url": "https://openaccesspub.org/article/1180/pdf",
        "status": "GOLD",
        "license": "CCBY",
        "disclaimer": "Notice: Paper or abstract available at https://api.unpaywall.org/v2/10.14302/issn.2379-7835.ijn-19-3011?email=<INSERT_YOUR_EMAIL> or https://doi.org/10.14302/issn.2379-7835.ijn-19-3011, which is subject to the license by the author or copyright owner provided with this content. Please go to the source to verify the license and copyright information for your use."
      },
      "authors": [
        {
          "authorId": "10231779",
          "name": "Takako Fujii"
        },
        {
          "authorId": "11669128",
          "name": "Tomohiro Sonou"
        },
        {
          "authorId": "4797317",
          "name": "N. Nakai"
        },
        {
          "authorId": "50330314",
          "name": "K. Okamura"
        }
      ],
      "abstract": "The skeletal muscle mass varies by race. Dietary habits over generations are a factor that influences the skeletal muscle mass, as well as genetic factors. Therefore, we investigated the effects of diets with different macronutrient contents on exercise-induced muscle hypertrophy in rats. Male 4-week-old Sprague–Dawley rats were randomly divided into three groups: a normal-diet (N), high-protein diet (HP) and high-fat diet (HF) group. The food intake was manipulated to gain comparable body weight across the three groups. All rats were performed a climbing training exercise for 8 weeks. The final body weight and weight of the liver, kidneys and adipose tissues did not significantly differ among the groups. The flexor hullucis lingus was significantly higher in the HF group than in the HP group. The total lipid content in the muscle was significantly higher in the HF group than in the N group, while it did not differ significant between the HF and HP groups. There were no marked differences in the water or protein content in the muscle among the groups. The plasma amino acid concentration was significantly or tended to be lower in the HP group than in the HF or N group, except for the branched-chain amino acid concentration, which tended to be higher after ingesting the HP diet than other diets. These findings suggest that consuming an HP diet is not likely to facilitate exercise-induced muscle hypertrophy, partly due to the plasma amino acid imbalance induced by habitual HP diet consumption."
    },
    {
      "paperId": "170ba4e04c4c034c787acebdc6ced5a6df7e5156",
      "url": "https://www.semanticscholar.org/paper/170ba4e04c4c034c787acebdc6ced5a6df7e5156",
      "title": "Induction of Plasma Insulin by Dietary Sucrose Promotes Rat Skeletal Muscle Hypertrophy Under High-Protein Diets",
      "year": 2004,
      "openAccessPdf": {
        "url": "https://journals.lww.com/acsm-msse/Fulltext/2004/05001/Induction_of_Plasma_Insulin_by_Dietary_Sucrose.1549.aspx",
        "status": "BRONZE",
        "license": null,
        "disclaimer": "Notice: The following paper fields have been elided by the publisher: {'abstract'}. Paper or abstract available at https://api.unpaywall.org/v2/10.1097/00005768-200405001-01549?email=<INSERT_YOUR_EMAIL> or https://doi.org/10.1097/00005768-200405001-01549, which is subject to the license by the author or copyright owner provided with this content. Please go to the source to verify the license and copyright information for your use."
      },
      "authors": [
        {
          "authorId": "8216993",
          "name": "Hongsun Song"
        },
        {
          "authorId": "4215316",
          "name": "K. Nakazato"
        },
        {
          "authorId": "49938455",
          "name": "H. Nakajima"
        }
      ],
      "abstract": null
    }
  ]
}