{
  "total": 10607,
  "offset": 0,
  "next": 5,
  "data": [
    {
      "paperId": "f2bf697f7c6d667bc9e96125400c5c141f1c9c3c",
      "url": "https://www.semanticscholar.org/paper/f2bf697f7c6d667bc9e96125400c5c141f1c9c3c",
      "title": "The Role of High-Intensity Interval Training (HIIT) in Neuromuscular Adaptations: Implications for Strength and Power Development—A Review",
      "year": 2025,
      "openAccessPdf": {
        "url": "",
        "status": null,
        "license": "CCBY",
        "disclaimer": "Notice: Paper or abstract available at https://pmc.ncbi.nlm.nih.gov/articles/PMC12028608, which is subject to the license by the author or copyright owner provided with this content. Please go to the source to verify the license and copyright information for your use."
      },
      "authors": [
        {
          "authorId": "2356576426",
          "name": "Chi-Hsiang Hung"
        },
        {
          "authorId": "51060196",
          "name": "Chun-Hsien Su"
        },
        {
          "authorId": "2356187335",
          "name": "Dong Wang"
        }
      ],
      "abstract": "High-intensity Interval Training (HIIT) is increasingly recognized for enhancing neuromuscular function, strength, power, and overall athletic performance. This review systematically examined peer-reviewed studies published between 2000 and 2025, focusing on HIIT’s impact on motor unit recruitment, muscle fiber composition, neuromuscular efficiency, maximal strength, rate of force development (RFD), muscle hypertrophy, and power output. Findings indicate that HIIT significantly improves neuromuscular activation by increasing motor unit recruitment and synchronization, particularly in fast-twitch fibers essential for explosive movements. HIIT also promotes shifts toward Type II and hybrid Type IIa fibers, enhancing strength and endurance. However, despite its effectiveness in boosting RFD and explosive power, HIIT is less efficient than traditional resistance training for maximizing absolute strength and hypertrophy due to insufficient progressive overload. Integrating resistance-based and plyometric-based HIIT protocols emerged as an effective strategy to enhance strength and power concurrently. Effective periodization and recovery strategies, including active recovery and targeted nutrition, help mitigate fatigue and optimize adaptations. Notable research gaps include the long-term impacts of HIIT on neuromuscular function and the efficacy of individualized HIIT protocols based on specific athlete characteristics. Future research should focus on refining HIIT protocols for different sports, exploring its synergy with traditional resistance training, and assessing long-term adaptations to sustain strength and power gains. HIIT presents a valuable, time-efficient complement to conventional training methods for improving strength, power, and neuromuscular efficiency."
    },
    {
      "paperId": "6952b97feafb270d0614e6b00d3f0d483b2c615f",
      "url": "https://www.semanticscholar.org/paper/6952b97feafb270d0614e6b00d3f0d483b2c615f",
      "title": "Extraordinary Claims in the Literature on High-Intensity Interval Training (HIIT): I. Bonafide Scientific Revolution or a Looming Crisis of Replication and Credibility?",
      "year": 2023,
      "openAccessPdf": {
        "url": "",
        "status": "CLOSED",
        "license": null,
        "disclaimer": "Notice: The following paper fields have been elided by the publisher: {'abstract'}. Paper or abstract available at https://api.unpaywall.org/v2/10.1007/s40279-023-01880-7?email=<INSERT_YOUR_EMAIL> or https://doi.org/10.1007/s40279-023-01880-7, which is subject to the license by the author or copyright owner provided with this content. Please go to the source to verify the license and copyright information for your use."
      },
      "authors": [
        {
          "authorId": "4242400",
          "name": "P. Ekkekakis"
        },
        {
          "authorId": "84666211",
          "name": "P. Swinton"
        },
        {
          "authorId": "8177146",
          "name": "N. Tiller"
        }
      ],
      "abstract": null
    },
    {
      "paperId": "f33648c7302f1cc2a6773aedbad961a52c5ffe76",
      "url": "https://www.semanticscholar.org/paper/f33648c7302f1cc2a6773aedbad961a52c5ffe76",
      "title": "Effects of High-Intensity Interval Training (HIIT) on Physical Performance in Female Team Sports: A Systematic Review",
      "year": 2023,
      "openAccessPdf": {
        "url": "https://sportsmedicine-open.springeropen.com/counter/pdf/10.1186/s40798-023-00623-2",
        "status": "GOLD",
        "license": "CCBY",
        "disclaimer": "Notice: Paper or abstract available at https://pmc.ncbi.nlm.nih.gov/articles/PMC10439062, which is subject to the license by the author or copyright owner provided with this content. Please go to the source to verify the license and copyright information for your use."
      },
      "authors": [
        {
          "authorId": "1576657362",
          "name": "Mima Stanković"
        },
        {
          "authorId": "2128432126",
          "name": "Dusan Djordjevic"
        },
        {
          "authorId": "5566358",
          "name": "Nebojša Trajković"
        },
        {
          "authorId": "145153495",
          "name": "Z. Milanović"
        }
      ],
      "abstract": "There is limited information regarding adaptation of HIIT in female athletes which is important since the adaptation to HIIT may be different compared to male athletes. Therefore, the aim of this systematic review was to summarize the effects of HIIT on physical performance in female team sports athletes. The following databases Google Scholar, PubMed, Web of Science, Cochrane Library, ProQuest and Science Direct were searched prior to September 2nd, 2022. The inclusion criteria were longitudinal studies written in English, elite, sub-elite or college female team sports participants, and HIIT intensity had to be at 80–100% maximal heart rate. There were no exclusion criteria regarding the age of the participants or their training experience. The primary outcome measures were maximal oxygen uptake (VO2max), repeated sprint ability (RSA), change of direction speed, speed, explosive strength and body composition. A total of 13 studies met the inclusion criteria, with a total of 230 participants. HIIT improved VO2max in five studies (ES from 0.19 to 1.08), while three studies showed improvement in their RSA (ES from 0.32 to 0.64). In addition, change of direction speed was improved in five studies (ES from 0.34 to 0.88), while speed improved in four studies (ES from 0.12 to 0.88). Explosive strength results varied (ES from 0.39 to 1.05), while in terms of body composition, the results were inconsistent through observed team sports. HIIT has significant effects on VO2max, RSA, change of direction speed, speed and explosive strength in female team sports, regardless of the competition level. High-intensity interval training (HIIT) is a time-effective approach for improving physical performance in female team sports. HIIT methods optimize both pre-season and in-season performance in different female team sports. In order to optimally develop sports performance, HIIT includes a variety of loads and training types, depending on the sport. High-intensity interval training (HIIT) is a time-effective approach for improving physical performance in female team sports. HIIT methods optimize both pre-season and in-season performance in different female team sports. In order to optimally develop sports performance, HIIT includes a variety of loads and training types, depending on the sport."
    },
    {
      "paperId": "91ce181275eb91b4edfa79a2e179b68bffde5901",
      "url": "https://www.semanticscholar.org/paper/91ce181275eb91b4edfa79a2e179b68bffde5901",
      "title": "Effects of high-intensity interval training (HIIT) and sprint interval training (SIT) on fat oxidation during exercise: a systematic review and meta-analysis",
      "year": 2022,
      "openAccessPdf": {
        "url": "https://vuir.vu.edu.au/46003/13/Atakan%20et%20al%20%282022%29%20-%20Effects%20of%20high-intensity%20interval%20training%20%28HIIT%29%20and%20sprint%20interval%20training%20%28SIT%29%20on%20fat%20oxidation%20during%20exercise.pdf",
        "status": "GREEN",
        "license": "CCBYNC",
        "disclaimer": "Notice: Paper or abstract available at https://api.unpaywall.org/v2/10.1136/bjsports-2021-105181?email=<INSERT_YOUR_EMAIL> or https://doi.org/10.1136/bjsports-2021-105181, which is subject to the license by the author or copyright owner provided with this content. Please go to the source to verify the license and copyright information for your use."
      },
      "authors": [
        {
          "authorId": "115384901",
          "name": "M. Atakan"
        },
        {
          "authorId": "36346310",
          "name": "Y. Guzel"
        },
        {
          "authorId": "6219738",
          "name": "Nipun Shrestha"
        },
        {
          "authorId": "35118897",
          "name": "Ş. Koşar"
        },
        {
          "authorId": "35168203",
          "name": "J. Grgic"
        },
        {
          "authorId": "4167735",
          "name": "T. Astorino"
        },
        {
          "authorId": "1393070753",
          "name": "H. H. Turnagol"
        },
        {
          "authorId": "52105775",
          "name": "Ž. Pedišić"
        }
      ],
      "abstract": "Objective To investigate the effects of high-intensity interval training (HIIT) and sprint interval training (SIT) on fat oxidation during exercise (FatOx) and how they compare with the effects of moderate-intensity continuous training (MICT). Design Systematic review and meta-analysis. Data sources Academic Search Ultimate, CINAHL, Networked Digital Library of Theses and Dissertations, Open Access Theses and Dissertations, OpenDissertations, PubMed/MEDLINE, Scopus, SPORTDiscus and Web of Science. Eligibility criteria for selecting studies Studies using a between-group design, involving adult participants who were not trained athletes, and evaluating effects of HIIT or SIT on FatOx (vs no exercise or MICT) were included. Results Eighteen studies of fair-to-good quality were included; nine comparing HIIT or SIT with no exercise and eleven comparing HIIT or SIT with MICT. A significant pooled effect of these types of interval training on FatOx was found (mean difference in g/min (MD)=0.08; 95% confidence interval (CI) 0.04 to 0.12; p<0.001). Significant effects were found for exercise regimens lasting ≥4 weeks, and they increased with every additional week of training (β=0.01; 95% CI 0.00 to 0.02; p=0.003). HIIT and/or SIT were slightly more effective than MICT (MD=0.03; 95% CI 0.01 to 0.05; p=0.005). The effects on FatOx were larger among individuals with overweight/obesity. Conclusion Engaging in HIIT or SIT can improve FatOx, with larger effects expected for longer training regimens and individuals with overweight/obesity. While some effects seem small, they may be important in holistic approaches to enhance metabolic health and manage obesity."
    },
    {
      "paperId": "00491427625867e7ebd902f8f1c21b98dd8514cd",
      "url": "https://www.semanticscholar.org/paper/00491427625867e7ebd902f8f1c21b98dd8514cd",
      "title": "Is interval training the magic bullet for fat loss? A systematic review and meta-analysis comparing moderate-intensity continuous training with high-intensity interval training (HIIT)",
      "year": 2019,
      "openAccessPdf": {
        "url": "https://bjsm.bmj.com/content/bjsports/53/10/655.full.pdf",
        "status": "BRONZE",
        "license": null,
        "disclaimer": "Notice: Paper or abstract available at https://api.unpaywall.org/v2/10.1136/bjsports-2018-099928?email=<INSERT_YOUR_EMAIL> or https://doi.org/10.1136/bjsports-2018-099928, which is subject to the license by the author or copyright owner provided with this content. Please go to the source to verify the license and copyright information for your use."
      },
      "authors": [
        {
          "authorId": "145912411",
          "name": "R. Viana"
        },
        {
          "authorId": "7499568",
          "name": "J. P. Naves"
        },
        {
          "authorId": "5690975",
          "name": "V. Coswig"
        },
        {
          "authorId": "152911150",
          "name": "C. D. de Lira"
        },
        {
          "authorId": "144021088",
          "name": "J. Steele"
        },
        {
          "authorId": "145133837",
          "name": "J. Fisher"
        },
        {
          "authorId": "145917892",
          "name": "P. Gentil"
        }
      ],
      "abstract": "Objectives To compare the effects of interval training and moderate-intensity continuous training (MOD) on body adiposity in humans, and to perform subgroup analyses that consider the type and duration of interval training in different groups. Design Systematic review and meta-analysis. Data sources English-language, Spanish-language and Portuguese-language searches of the electronic databases PubMed and Scopus were conducted from inception to 11 December 2017. Eligibility criteria for selecting studies Studies that met the following criteria were included: (1) original articles, (2) human trials, (3) minimum exercise training duration of 4 weeks, and (4) directly or indirectly compared interval training with MOD as the primary or secondary aim. Results Of the 786 studies found, 41 and 36 were included in the qualitative analysis and meta-analysis, respectively. Within-group analyses showed significant reductions in total body fat percentage (%) (interval training: −1.50 [95% CI −2.14 to −0.86, p<0.00001] and MOD: −1.44 [95% CI −2.00 to −0.89, p<0.00001]) and in total absolute fat mass (kg) (interval training: −1.58 [95% CI −2.74 to −0.43, p=0.007] and MOD: −1.13 [95% CI −2.18 to −0.08, p=0.04]), with no significant differences between interval training and MOD for total body fat percentage reduction (−0.23 [95% CI −1.43 to 0.97], p=0.705). However, there was a significant difference between the groups in total absolute fat mass (kg) reduction (−2.28 [95% CI −4.00 to −0.56], p=0.0094). Subgroup analyses comparing sprint interval training (SIT) with MOD protocols favour SIT for loss of total absolute fat mass (kg) (−3.22 [95% CI −5.71 to −0.73], p=0.01). Supervised training, walking/running/jogging, age (<30 years), study quality and intervention duration (<12 weeks) favourably influence the decreases in total absolute fat mass (kg) observed from interval training programmes; however, no significant effect was found on total body fat percentage (%). No effect of sex or body mass index was observed on total absolute fat mass (kg) or total body fat percentage (%). Conclusion Interval training and MOD both reduce body fat percentage (%). Interval training provided 28.5% greater reductions in total absolute fat mass (kg) than MOD. Trial registration number CRD42018089427."
    }
  ]
}