{
  "total": 977666,
  "offset": 0,
  "next": 3,
  "data": [
    {
      "paperId": "dee351f96a0a7b9da6ce156c06c6b8654d8a09ec",
      "url": "https://www.semanticscholar.org/paper/dee351f96a0a7b9da6ce156c06c6b8654d8a09ec",
      "title": "NF-κB signaling in inflammation",
      "year": 2017,
      "openAccessPdf": {
        "url": "https://www.nature.com/articles/sigtrans201723.pdf",
        "status": "GOLD",
        "license": "CCBY",
        "disclaimer": "Notice: Paper or abstract available at https://pmc.ncbi.nlm.nih.gov/articles/PMC5661633, which is subject to the license by the author or copyright owner provided with this content. Please go to the source to verify the license and copyright information for your use."
      },
      "authors": [
        {
          "authorId": "2115432088",
          "name": "Ting Liu"
        },
        {
          "authorId": "2145404036",
          "name": "Lingyun Zhang"
        },
        {
          "authorId": "46978491",
          "name": "Donghyun Joo"
        },
        {
          "authorId": "47392984",
          "name": "Shao-Cong Sun"
        }
      ],
      "abstract": "The transcription factor NF-κB regulates multiple aspects of innate and adaptive immune functions and serves as a pivotal mediator of inflammatory responses. NF-κB induces the expression of various pro-inflammatory genes, including those encoding cytokines and chemokines, and also participates in inflammasome regulation. In addition, NF-κB plays a critical role in regulating the survival, activation and differentiation of innate immune cells and inflammatory T cells. Consequently, deregulated NF-κB activation contributes to the pathogenic processes of various inflammatory diseases. In this review, we will discuss the activation and function of NF-κB in association with inflammatory diseases and highlight the development of therapeutic strategies based on NF-κB inhibition."
    },
    {
      "paperId": "830a6a3151e904df54d51fb28ce4ae4486fff3a7",
      "url": "https://www.semanticscholar.org/paper/830a6a3151e904df54d51fb28ce4ae4486fff3a7",
      "title": "Chronic inflammation in the etiology of disease across the life span",
      "year": 2019,
      "openAccessPdf": {
        "url": "https://www.nature.com/articles/s41591-019-0675-0.pdf",
        "status": "BRONZE",
        "license": null,
        "disclaimer": "Notice: The following paper fields have been elided by the publisher: {'abstract'}. Paper or abstract available at https://api.unpaywall.org/v2/10.1038/s41591-019-0675-0?email=<INSERT_YOUR_EMAIL> or https://doi.org/10.1038/s41591-019-0675-0, which is subject to the license by the author or copyright owner provided with this content. Please go to the source to verify the license and copyright information for your use."
      },
      "authors": [
        {
          "authorId": "31038343",
          "name": "David Furman"
        },
        {
          "authorId": "3050721",
          "name": "J. Campisi"
        },
        {
          "authorId": "144984118",
          "name": "E. Verdin"
        },
        {
          "authorId": "1400926964",
          "name": "Pedro Carrera-Bastos"
        },
        {
          "authorId": "49374782",
          "name": "S. Targ"
        },
        {
          "authorId": "144314191",
          "name": "C. Franceschi"
        },
        {
          "authorId": "1737506",
          "name": "L. Ferrucci"
        },
        {
          "authorId": "4126107",
          "name": "D. Gilroy"
        },
        {
          "authorId": "49550017",
          "name": "A. Fasano"
        },
        {
          "authorId": "153362099",
          "name": "G. Miller"
        },
        {
          "authorId": "79701367",
          "name": "Andrew H. Miller"
        },
        {
          "authorId": "2272200023",
          "name": "A. Mantovani"
        },
        {
          "authorId": "2220688",
          "name": "C. Weyand"
        },
        {
          "authorId": "2483722",
          "name": "N. Barzilai"
        },
        {
          "authorId": "5162579",
          "name": "J. Goronzy"
        },
        {
          "authorId": "1699522",
          "name": "T. Rando"
        },
        {
          "authorId": "4546452",
          "name": "R. Effros"
        },
        {
          "authorId": "143987633",
          "name": "A. Lucia"
        },
        {
          "authorId": "3122332",
          "name": "N. Kleinstreuer"
        },
        {
          "authorId": "5953612",
          "name": "George M. Slavich"
        }
      ],
      "abstract": null
    },
    {
      "paperId": "0288ad9ae5b644af3c0ba2c9ca15cb44e7eb2dfe",
      "url": "https://www.semanticscholar.org/paper/0288ad9ae5b644af3c0ba2c9ca15cb44e7eb2dfe",
      "title": "Inflammatory responses and inflammation-associated diseases in organs",
      "year": 2015,
      "openAccessPdf": {
        "url": "http://www.oncotarget.com/index.php?journal=oncotarget&page=article&op=download&path%5B%5D=23208&path%5B%5D=73165",
        "status": "GOLD",
        "license": "CCBY",
        "disclaimer": "Notice: Paper or abstract available at https://pmc.ncbi.nlm.nih.gov/articles/PMC5805548, which is subject to the license by the author or copyright owner provided with this content. Please go to the source to verify the license and copyright information for your use."
      },
      "authors": [
        {
          "authorId": "2355438317",
          "name": "Linlin Chen"
        },
        {
          "authorId": "39945717",
          "name": "H. Deng"
        },
        {
          "authorId": "3502782",
          "name": "H. Cui"
        },
        {
          "authorId": "145947140",
          "name": "J. Fang"
        },
        {
          "authorId": "46737835",
          "name": "Z. Zuo"
        },
        {
          "authorId": "47038441",
          "name": "J. Deng"
        },
        {
          "authorId": "121704625",
          "name": "Yinglun Li"
        },
        {
          "authorId": "2115535452",
          "name": "Xun Wang"
        },
        {
          "authorId": "2953193",
          "name": "Ling Zhao"
        }
      ],
      "abstract": "Inflammation is a biological response of the immune system that can be triggered by a variety of factors, including pathogens, damaged cells and toxic compounds. These factors may induce acute and/or chronic inflammatory responses in the heart, pancreas, liver, kidney, lung, brain, intestinal tract and reproductive system, potentially leading to tissue damage or disease. Both infectious and non-infectious agents and cell damage activate inflammatory cells and trigger inflammatory signaling pathways, most commonly the NF-κB, MAPK, and JAK-STAT pathways. Here, we review inflammatory responses within organs, focusing on the etiology of inflammation, inflammatory response mechanisms, resolution of inflammation, and organ-specific inflammatory responses."
    }
  ]
}