{
  "total": 1449122,
  "offset": 0,
  "next": 5,
  "data": [
    {
      "paperId": "17092798a80b4fd92c51c194daa9c7d116e28672",
      "url": "https://www.semanticscholar.org/paper/17092798a80b4fd92c51c194daa9c7d116e28672",
      "title": "Implications of the Onset of Sweating on the Sweat Lactate Threshold",
      "year": 2023,
      "openAccessPdf": {
        "url": "https://www.mdpi.com/1424-8220/23/7/3378/pdf?version=1679562341",
        "status": "GOLD",
        "license": "CCBY",
        "disclaimer": "Notice: Paper or abstract available at https://pmc.ncbi.nlm.nih.gov/articles/PMC10098635, which is subject to the license by the author or copyright owner provided with this content. Please go to the source to verify the license and copyright information for your use."
      },
      "authors": [
        {
          "authorId": "2105657137",
          "name": "Yuta Maeda"
        },
        {
          "authorId": "2039153025",
          "name": "Hiroki Okawara"
        },
        {
          "authorId": "4777928",
          "name": "Tomonori Sawada"
        },
        {
          "authorId": "2028965260",
          "name": "Daisuke Nakashima"
        },
        {
          "authorId": "2194878266",
          "name": "Joji Nagahara"
        },
        {
          "authorId": "2194879308",
          "name": "Haruki Fujitsuka"
        },
        {
          "authorId": "2194194765",
          "name": "Kaito Ikeda"
        },
        {
          "authorId": "2628062",
          "name": "Sosuke Hoshino"
        },
        {
          "authorId": "39970426",
          "name": "Yusuke Kobari"
        },
        {
          "authorId": "6776747",
          "name": "Yoshinori Katsumata"
        },
        {
          "authorId": "2152893257",
          "name": "Masaya Nakamura"
        },
        {
          "authorId": "144095217",
          "name": "T. Nagura"
        }
      ],
      "abstract": "The relationship between the onset of sweating (OS) and sweat lactate threshold (sLT) assessed using a novel sweat lactate sensor remains unclear. We aimed to investigate the implications of the OS on the sLT. Forty healthy men performed an incremental cycling test. We monitored the sweat lactate, blood lactate, and local sweating rates to determine the sLT, blood LT (bLT), and OS. We defined participants with the OS during the warm-up just before the incremental test as the early perspiration (EP) group and the others as the regular perspiration (RP) group. Pearson’s correlation coefficient analysis revealed that the OS was poorly correlated with the sLT, particularly in the EP group (EP group, r = 0.12; RP group, r = 0.56). Conversely, even in the EP group, the sLT was strongly correlated with the bLT (r = 0.74); this was also the case in the RP group (r = 0.61). Bland-Altman plots showed no bias between the mean sLT and bLT (mean difference: 19.3 s). Finally, in five cases with a later OS than bLT, the sLT tended to deviate from the bLT (mean difference, 106.8 s). The sLT is a noninvasive and continuous alternative to the bLT, independent of an early OS, although a late OS may negatively affect the sLT."
    },
    {
      "paperId": "c89922db78961917e415ecf4aa7fe9cbcb2726f9",
      "url": "https://www.semanticscholar.org/paper/c89922db78961917e415ecf4aa7fe9cbcb2726f9",
      "title": "Does Lactate-Guided Threshold Interval Training within a High-Volume Low-Intensity Approach Represent the “Next Step” in the Evolution of Distance Running Training?",
      "year": 2023,
      "openAccessPdf": {
        "url": "https://www.mdpi.com/1660-4601/20/5/3782/pdf?version=1677037200",
        "status": "GOLD",
        "license": "CCBY",
        "disclaimer": "Notice: Paper or abstract available at https://pmc.ncbi.nlm.nih.gov/articles/PMC10000870, which is subject to the license by the author or copyright owner provided with this content. Please go to the source to verify the license and copyright information for your use."
      },
      "authors": [
        {
          "authorId": "48603764",
          "name": "A. Casado"
        },
        {
          "authorId": "2172713746",
          "name": "C. Foster"
        },
        {
          "authorId": "2209614740",
          "name": "Marius Bakken"
        },
        {
          "authorId": "5992349",
          "name": "Leif I Tjelta"
        }
      ],
      "abstract": "The aim of the present study was to describe a novel training model based on lactate-guided threshold interval training (LGTIT) within a high-volume, low-intensity approach, which characterizes the training pattern in some world-class middle- and long-distance runners and to review the potential physiological mechanisms explaining its effectiveness. This training model consists of performing three to four LGTIT sessions and one VO2max intensity session weekly. In addition, low intensity running is performed up to an overall volume of 150–180 km/week. During LGTIT sessions, the training pace is dictated by a blood lactate concentration target (i.e., internal rather than external training load), typically ranging from 2 to 4.5 mmol·L−1, measured every one to three repetitions. That intensity may allow for a more rapid recovery through a lower central and peripheral fatigue between high-intensity sessions compared with that of greater intensities and, therefore, a greater weekly volume of these specific workouts. The interval character of LGTIT allows for the achievement of high absolute training speeds and, thus, maximizing the number of motor units recruited, despite a relatively low metabolic intensity (i.e., threshold zone). This model may increase the mitochondrial proliferation through the optimization of both calcium and adenosine monophosphate activated protein kinase (AMPK) signaling pathways."
    },
    {
      "paperId": "1fb3fca2560c8a9754cd7df97528560cdb92f4f0",
      "url": "https://www.semanticscholar.org/paper/1fb3fca2560c8a9754cd7df97528560cdb92f4f0",
      "title": "Determination of second lactate threshold using near-infrared spectroscopy in elite cyclists",
      "year": 2022,
      "openAccessPdf": {
        "url": "",
        "status": null,
        "license": null,
        "disclaimer": "Notice: Paper or abstract available at https://api.unpaywall.org/v2/10.1055/a-1738-0252?email=<INSERT_YOUR_EMAIL> or https://doi.org/10.1055/a-1738-0252, which is subject to the license by the author or copyright owner provided with this content. Please go to the source to verify the license and copyright information for your use."
      },
      "authors": [
        {
          "authorId": "2149829066",
          "name": "José-Antonio Salas-Montoro"
        },
        {
          "authorId": "1931844677",
          "name": "Manuel Mateo March"
        },
        {
          "authorId": "1399153512",
          "name": "C. Sánchez-Muñoz"
        },
        {
          "authorId": "2193600",
          "name": "M. Zabala"
        }
      ],
      "abstract": "The use of near-infrared spectroscopy could be an interesting alternative to other invasive or expensive methods to estimate the second lactate threshold. Our objective was to compare the intensities of the muscle oxygen saturation breakpoint obtained with the Humon Hex and the second lactate threshold in elite cyclists. Ninety cyclists performed a maximal graded exercise test. Blood capillary lactate was obtained at the end of steps and muscle oxygenation was continuously monitored. There were no differences (p>0.05) between muscle oxygen oxygenation breakpoint and second lactate threshold neither in power nor in heart rate, nor when these values were relativized as a percentage of maximal aerobic power or maximum heart rate. There were also no differences when men and women were studied separately. Both methods showed a highly correlation in power (r=0.914), percentage of maximal aerobic power (r=0.752), heart rate (r=0.955), and percentage of maximum heart rate (r=0.903). Bland-Altman resulted in a mean difference of 0.05±0.27 W·kg–1, 0.91±4.93%, 0.63±3.25 bpm, and 0.32±1.69% for power, percentage of maximal aerobic power, heart rate and percentage of maximum heart rate respectively. These findings suggest that Humon may be a non-invasive and low-cost alternative to estimate the second lactate threshold intensity in elite cyclists."
    },
    {
      "paperId": "a120bf8f8d64266ec664ea7d03e727e092be6fef",
      "url": "https://www.semanticscholar.org/paper/a120bf8f8d64266ec664ea7d03e727e092be6fef",
      "title": "Lactate Threshold Training Program on Patients with Multiple Sclerosis: A Multidisciplinary Approach",
      "year": 2021,
      "openAccessPdf": {
        "url": "https://www.mdpi.com/2072-6643/13/12/4284/pdf?version=1638275186",
        "status": "GOLD",
        "license": "CCBY",
        "disclaimer": "Notice: Paper or abstract available at https://pmc.ncbi.nlm.nih.gov/articles/PMC8704660, which is subject to the license by the author or copyright owner provided with this content. Please go to the source to verify the license and copyright information for your use."
      },
      "authors": [
        {
          "authorId": "40659441",
          "name": "A. Amato"
        },
        {
          "authorId": "47979038",
          "name": "P. Ragonese"
        },
        {
          "authorId": "47346204",
          "name": "S. Ingoglia"
        },
        {
          "authorId": "3717645",
          "name": "G. Schiera"
        },
        {
          "authorId": "39584794",
          "name": "G. Schirò"
        },
        {
          "authorId": "5383137",
          "name": "C. D. Di Liegro"
        },
        {
          "authorId": "2438037",
          "name": "G. Salemi"
        },
        {
          "authorId": "4209775",
          "name": "I. Di Liegro"
        },
        {
          "authorId": "83491600",
          "name": "P. Proia"
        }
      ],
      "abstract": "Physical activity could play a key role in improving the quality of life, particularly in patients with nervous system diseases such as multiple sclerosis (MS). Through lactacid anaerobic training, this study aims to investigate the effects at a bio-psycho-physical level to counteract the chronic fatigue associated with the pathology, and to improve mental health at a psychological and neurotrophic level. Eight subjects (age: 34.88 ± 4.45 years) affected by multiple sclerosis were involved. A lactate threshold training program was administered biweekly for 12 weeks at the beginning of the study (T0), at the end of the study (T1) and at 9 months after the end of the study (T2), with physical, psychological and hematochemicals parameters, and dietary habits being tested. The results obtained confirmed that lactacid exercise can influence brain-derived neurotrophic factor (BDNF) levels as well as dehydroepiandrosterone sulfate (DHEAS) levels. In addition, levels of baseline lactate, which could be best used as an energy substrate, showed a decrease after the protocol training. Self-efficacy regarding worries and concerns management significantly increased from T0 to T1. The eating attitudes test (EAT-26) did not highlight any eating disease in the patients with a normal diet enrolled in our study. Physical exercise also greatly influenced the patients psychologically and emotionally, increasing their self-esteem. Lactate threshold training, together with dietary habits, appears to exert synergic positive effects on inflammation, neural plasticity and neuroprotection, producing preventive effects on MS symptoms and progression."
    },
    {
      "paperId": "4f5d93d8a0533f00252a12efda9e38a68ed549f0",
      "url": "https://www.semanticscholar.org/paper/4f5d93d8a0533f00252a12efda9e38a68ed549f0",
      "title": "Factors Influencing Running Velocity at Lactate Threshold in Male and Female Runners at Different Levels of Performance",
      "year": 2020,
      "openAccessPdf": {
        "url": "https://www.frontiersin.org/articles/10.3389/fphys.2020.585267/pdf",
        "status": "GOLD",
        "license": "CCBY",
        "disclaimer": "Notice: Paper or abstract available at https://pmc.ncbi.nlm.nih.gov/articles/PMC7672120, which is subject to the license by the author or copyright owner provided with this content. Please go to the source to verify the license and copyright information for your use."
      },
      "authors": [
        {
          "authorId": "1403550881",
          "name": "E. M. Støa"
        },
        {
          "authorId": "3044858",
          "name": "J. Helgerud"
        },
        {
          "authorId": "4335041",
          "name": "B. Rønnestad"
        },
        {
          "authorId": "40349127",
          "name": "Joar Hansen"
        },
        {
          "authorId": "4237546",
          "name": "S. Ellefsen"
        },
        {
          "authorId": "1398804920",
          "name": "Ø. Støren"
        }
      ],
      "abstract": "Background The primary aim was to examine the relationship between lactate threshold (LT) expressed as percentage of maximal oxygen uptake (VO2max) and running velocity at LT (LTV). A secondary aim was to investigate to what extent VO2max, oxygen cost of running (CR), and maximal aerobic speed (MAS) determined LTV. A third aim was to investigate potential differences in LT and LTV between elite, national and recreational runners, as well as possible gender differences regarding VO2max, CR, LT, and LTV. Methods Seventy-five competitive runners (37 males and 38 females) with an average VO2max of 63.0 ± 9.3 mL⋅kg–1⋅min–1, and an average LTV of 13.6 ± 2.3 km⋅h–1 were tested for VO2max, LT, LTV, MAS, and CR. Results Lactate threshold did not correlate with LTV. With an r – value of 0.95 (p < 0.001) and a standard error of estimate of 4.0%, the product of MAS and individual LT determined 90% of LTV, outside a range of ±0.27 km⋅h–1. LTV increased with higher performance level. However, LT did not differ between elite, national and recreational runners. Female runners had 2.5% higher LT, 8% lower LTV, and 21% lower VO2max, but 9% better CR than male runners. Conclusion Lactate threshold did not correlate with LTV. The product of MAS and LT correlated strongly with LTV. There were no differences between elite, national and recreational runners regarding LT, but female runners had higher LT than the male runners. Female runners at the same relative performance level had lower LTV and VO2max, but better CR than male runners."
    }
  ]
}