{
  "total": 603415,
  "offset": 0,
  "next": 5,
  "data": [
    {
      "paperId": "c34e18ee8fc0b0723da628b693dc844bf4f342d7",
      "url": "https://www.semanticscholar.org/paper/c34e18ee8fc0b0723da628b693dc844bf4f342d7",
      "title": "Lactate and Lactate Clearance as Predictors of One-Year Survival in Extracorporeal Cardiopulmonary Resuscitation - An International, Multicentre Cohort Study.",
      "year": 2024,
      "openAccessPdf": {
        "url": "https://doi.org/10.1016/j.resuscitation.2024.110149",
        "status": "HYBRID",
        "license": "CCBY",
        "disclaimer": "Notice: Paper or abstract available at https://api.unpaywall.org/v2/10.1016/j.resuscitation.2024.110149?email=<INSERT_YOUR_EMAIL> or https://doi.org/10.1016/j.resuscitation.2024.110149, which is subject to the license by the author or copyright owner provided with this content. Please go to the source to verify the license and copyright information for your use."
      },
      "authors": [
        {
          "authorId": "2264901037",
          "name": "T. Thevathasan"
        },
        {
          "authorId": "1633221591",
          "name": "E. Gregers"
        },
        {
          "authorId": "2214391823",
          "name": "S. Rasalingam Mørk"
        },
        {
          "authorId": "2222577431",
          "name": "S. Degbeon"
        },
        {
          "authorId": "2264898587",
          "name": "L. Linde"
        },
        {
          "authorId": "2286774201",
          "name": "Jo Bønding Andreasen"
        },
        {
          "authorId": "2245087618",
          "name": "M. Smerup"
        },
        {
          "authorId": "1422028432",
          "name": "Jacob Eifer Møller"
        },
        {
          "authorId": "2180230564",
          "name": "C. Hassager"
        },
        {
          "authorId": "7611355",
          "name": "H. Laugesen"
        },
        {
          "authorId": "2257812940",
          "name": "H. Dreger"
        },
        {
          "authorId": "47259791",
          "name": "A. Brand"
        },
        {
          "authorId": "2286751935",
          "name": "Felix Balzer"
        },
        {
          "authorId": "2251127819",
          "name": "U. Landmesser"
        },
        {
          "authorId": "1415318874",
          "name": "C. Juhl Terkelsen"
        },
        {
          "authorId": "2286213359",
          "name": "Jens Flensted Lassen"
        },
        {
          "authorId": "4011623",
          "name": "C. Skurk"
        },
        {
          "authorId": "1398051771",
          "name": "H. Søholm"
        }
      ],
      "abstract": null
    },
    {
      "paperId": "2ad76a784741a545687401d3b855cf55f26e2575",
      "url": "https://www.semanticscholar.org/paper/2ad76a784741a545687401d3b855cf55f26e2575",
      "title": "Effect of high-intensity interval training and moderate-intensity continuous training on blood lactate clearance after high-intensity test in adult men",
      "year": 2024,
      "openAccessPdf": {
        "url": "https://doi.org/10.3389/fphys.2024.1451464",
        "status": "GOLD",
        "license": "CCBY",
        "disclaimer": "Notice: Paper or abstract available at https://pmc.ncbi.nlm.nih.gov/articles/PMC11413624, which is subject to the license by the author or copyright owner provided with this content. Please go to the source to verify the license and copyright information for your use."
      },
      "authors": [
        {
          "authorId": "2320130466",
          "name": "Han Xie"
        },
        {
          "authorId": "2150465992",
          "name": "Xiao-Jie Mao"
        },
        {
          "authorId": "2394129700",
          "name": "Zhaohong Wang"
        }
      ],
      "abstract": "This study compared the effects of High-intensity interval training (HIIT) and moderate-intensity continuous training (MICT) on blood lactate clearance. 21 adult males were equally and randomly assigned to the HIIT and MICT groups, and completed 8 weeks of training. Before the training intervention, after 4 weeks and 8 weeks of training, all subjects were tested for blood lactate levels between 0 and 55 min after the same high-intensity test. The results show that after 8 weeks, blood lactate levels were significantly lower than pre-tests in both the HIIT and MICT groups at “0–55 min” after high-intensity test (p < 0.05), and the blood lactate clearance percentage at15-min and 30-min in both groups were significantly higher than the pre-tests (P < 0.01). The blood lactate levels in the HIIT group were significantly lower than those in the MICT group at 15 min and 30 min after test (P < 0.05), and the blood lactate clearance percentage at 30 min in the HIIT group was significantly higher than those in the MICT group (P < 0.05). In conclusion, both HIIT and MICT enhance blood lactate clearance in adult males post high-intensity test, with HIIT demonstrating superior effectiveness, making it a viable alternative to MICT."
    },
    {
      "paperId": "bc2ac5c3fa3b3cfe88dfd3a652fc240d0aee4852",
      "url": "https://www.semanticscholar.org/paper/bc2ac5c3fa3b3cfe88dfd3a652fc240d0aee4852",
      "title": "Associations of serum lactate and lactate clearance with delirium in the early stage of ICU: a retrospective cohort study of the MIMIC-IV database",
      "year": 2024,
      "openAccessPdf": {
        "url": "https://doi.org/10.3389/fneur.2024.1371827",
        "status": "GOLD",
        "license": "CCBY",
        "disclaimer": "Notice: Paper or abstract available at https://pmc.ncbi.nlm.nih.gov/articles/PMC11246852, which is subject to the license by the author or copyright owner provided with this content. Please go to the source to verify the license and copyright information for your use."
      },
      "authors": [
        {
          "authorId": "2305295294",
          "name": "Xiangfeng Qian"
        },
        {
          "authorId": "2305054464",
          "name": "Yi Sheng"
        },
        {
          "authorId": "2305258837",
          "name": "Yinsheng Jiang"
        },
        {
          "authorId": "2305155882",
          "name": "Yong’an Xu"
        }
      ],
      "abstract": "Aim This study aimed to investigate the associations of serum lactate level [within and after 24 h of the intensive care unit (ICU) admission] and lactate clearance rate with delirium and assess associations of lactate and lactate clearance rate with 30-day mortality in delirium patients. Methods Data in this retrospective cohort study were extracted from the Medical Information Mart for Intensive Care IV (MIMIC-IV) database in 2012–2019. The associations of lactate and lactate clearance rate with delirium were explored through univariable and multivariable logistic regression analyses, whereas the associations of lactate and lactate clearance rate with 30-day mortality in delirium patients were investigated using univariable and multivariable Cox regression analyses. Subgroup analysis was performed for age, gender, sepsis, hypertension, sedative drug, ventilation, antibiotic drug, vasopressors, and the Sequential Organ Failure Assessment (SOFA) score. The evaluation indexes were odds ratios (ORs), hazard ratios (HRs), and 95% confidence intervals (CIs). Results Among 7,812 (14.58%) eligible participants, 4,338 (8.19%) had delirium and 1,903 (24.36%) died within 30 days. After adjusting for covariates, patients with lactic acidosis (lactate level > 5 mmol/L and PH < 7.35) at T0 (within 24 h of the ICU admission) had higher odds of delirium (OR = 1.235, 95%CI: 1.105–1.382). Hyperlactatemia (lactate level 2–5 mmol/L and PH > 7.35) at T1 (after 24 h of the ICU admission) was also associated with higher odds of delirium (OR = 1.277, 95%CI: 1.126–1.447). Lactate clearance rate > 50% was linked to lower odds of delirium (OR = 0.705, 95%CI: 0.613–0.811), and this relationship was also observed in ≥65 years old, female, male, non-sepsis, sepsis, non-hypertension, non-sedative drug use, sedative drug use, ventilation, antibiotic drug use, use of vasopressors, and different SOFA score subgroups (all p < 0.05). Additionally, hyperlactatemia and lactic acidosis (whether at T0 or T1) may be potential risk factors for 30-day mortality in delirium patients, whereas lactate clearance rate ≥ 0 had a potential protective effect on 30-day mortality (all p < 0.05). Conclusion Higher serum lactate levels in the early stage of the ICU were associated with a higher risk of delirium and subsequent mortality. Measures taken to increase the lactate clearance rate are necessary to reduce potential delirium or mortality risk in clinical settings. However, more evidence from prospective studies is needed to verify these findings."
    },
    {
      "paperId": "fcc222418bcc89024ed349b3315bd6011f782243",
      "url": "https://www.semanticscholar.org/paper/fcc222418bcc89024ed349b3315bd6011f782243",
      "title": "Early Lactate Clearance as a Determinant of Survival in Patients with Sepsis: Findings from a Low-resource Country",
      "year": 2023,
      "openAccessPdf": {
        "url": "https://sciendo.com/pdf/10.2478/jccm-2023-0005",
        "status": "HYBRID",
        "license": "CCBY",
        "disclaimer": "Notice: Paper or abstract available at https://pmc.ncbi.nlm.nih.gov/articles/PMC9987270, which is subject to the license by the author or copyright owner provided with this content. Please go to the source to verify the license and copyright information for your use."
      },
      "authors": [
        {
          "authorId": "2382049187",
          "name": "F. Rehman"
        },
        {
          "authorId": "2117264126",
          "name": "S. Zafar"
        },
        {
          "authorId": "144312903",
          "name": "Adil Aziz"
        },
        {
          "authorId": "2167802371",
          "name": "Abdul Aziz"
        },
        {
          "authorId": "2173063039",
          "name": "Pirbhat Shams Memon"
        },
        {
          "authorId": "1394588213",
          "name": "Taymmia Ejaz"
        },
        {
          "authorId": "2204676150",
          "name": "Summaira Aziz"
        }
      ],
      "abstract": "Abstract Background Single lactate measurements have been reported to have prognostic significance, however, there is a lack of data in local literature from Pakistan. This study was done to determine prognostic role of lactate clearance in sepsis patients being managed in our lower-middle income country. Methods This prospective cohort study was conducted from September 2019-February 2020 at the Aga Khan University Hospital, Karachi. Patients were enrolled using consecutive sampling and categorized based on their lactate clearance status. Lactate clearance was defined as decrease by 10% or greater in repeat lactate from the initial measurement (or both initial and repeat levels <=2.0 mmol/L). Results A total 198 patients were included in the study, 51% (101) were male. Multi-organ dysfunction was reported in 18.6% (37), 47.7% (94) had single organ dysfunction, and 33.8% (67) had no organ dysfunction. Around 83% (165) were discharged and 17% (33) died. There were missing data for 25.8% (51) of the patients for the lactate clearance, whereas 55% (108) patients had early lactate clearance and 19.7% (39) had delayed lactate clearance.On univariate analysis, mortality rate was higher in patients with delayed lactate clearance (38.4% vs 16.6%) and patients were 3.12 times (OR = 3.12; [95% CI: 1.37-7.09]) more likely to die as compared with early lactate clearance. Patients with delayed lactate clearance had higher organ dysfunction (79.4% vs 60.1%) and were 2.56 (OR = 2.56; [95% CI: 1.07-6.13]) times likely to have organ dysfunction. On multivariate analysis, after adjusting for age and co-morbids, patients with delayed lactate clearance were 8 times more likely to die than patients with early lactate clearance [aOR = 7.67; 95% CI:1.11-53.26], however, there was no statistically significant association between delayed lactate clearance [aOR = 2.18; 95% CI: 0.87-5.49)] and organ dysfunction. Conclusion Lactate clearance is a better determinant of sepsis and septic shock effective management. Early lactate clearance is related to better outcomes in septic patients."
    },
    {
      "paperId": "90fbe36fd584803bdb49f6d0b25fa7f728ecda70",
      "url": "https://www.semanticscholar.org/paper/90fbe36fd584803bdb49f6d0b25fa7f728ecda70",
      "title": "Lactate Clearance as a Surrogate for Mortality in Cardiogenic Shock: Insights From the DOREMI Trial",
      "year": 2022,
      "openAccessPdf": {
        "url": "https://www.ahajournals.org/doi/pdf/10.1161/JAHA.121.023322",
        "status": "GOLD",
        "license": "CCBYNCND",
        "disclaimer": "Notice: Paper or abstract available at https://pmc.ncbi.nlm.nih.gov/articles/PMC9075306, which is subject to the license by the author or copyright owner provided with this content. Please go to the source to verify the license and copyright information for your use."
      },
      "authors": [
        {
          "authorId": "12951386",
          "name": "J. Marbach"
        },
        {
          "authorId": "81108605",
          "name": "P. Di Santo"
        },
        {
          "authorId": "34264147",
          "name": "N. Kapur"
        },
        {
          "authorId": "1630821350",
          "name": "K. Thayer"
        },
        {
          "authorId": "4069931",
          "name": "T. Simard"
        },
        {
          "authorId": "143621120",
          "name": "Richard G. Jung"
        },
        {
          "authorId": "35277731",
          "name": "S. Parlow"
        },
        {
          "authorId": "1429622477",
          "name": "Omar Abdel-Razek"
        },
        {
          "authorId": "38160968",
          "name": "S. Fernando"
        },
        {
          "authorId": "2166286",
          "name": "M. Labinaz"
        },
        {
          "authorId": "4274100",
          "name": "M. Froeschl"
        },
        {
          "authorId": "46761209",
          "name": "Rebecca Mathew"
        },
        {
          "authorId": "3327760",
          "name": "B. Hibbert"
        }
      ],
      "abstract": "Background Recent studies have shown improved outcomes in cardiogenic shock through protocols directed toward early identification and initiation of mechanical circulatory support. However, objective therapeutic targets—based on clinical and/or laboratory data—to guide real‐time clinical decision making are lacking. Lactate clearance has been suggested as a potential treatment target because of its independent association with mortality. Methods and Results In a post hoc analysis of the DOREMI (Dobutamine Compared to Milrinone in the Treatment of Cardiogenic Shock) trial—a randomized, double‐blind, controlled trial comparing milrinone to dobutamine in the treatment of cardiogenic shock—we used prospectively collected lactate data to evaluate lactate clearance as a surrogate marker for in‐hospital mortality. In total, 82 (57.7%) patients survived to hospital discharge (survivors). In multivariate logistic regression analysis, complete lactate clearance, percentage lactate clearance, and percentage lactate clearance per hour were independently associated with survival beginning as early as 8 hours after enrollment. Complete lactate clearance was the strongest predictor of survival at all time points, with odds ratios ranging between 2.46 (95% CI, 1.09–5.55; P=0.03) at 8 hours to 5.44 (95% CI, 2.14–13.8; P<0.01) at 24 hours. Conclusions Complete lactate clearance is a strong and independent predictor of in‐hospital survival in patients with cardiogenic shock. Together with previously published data, these results further support the validity of lactate clearance as an appropriate surrogate for mortality and as a potential therapeutic target in future cardiogenic shock trials. Registration URL: https://www.clinicaltrials.gov; Unique identifier: NCT03207165."
    }
  ]
}