{
  "total": 330,
  "offset": 0,
  "next": 5,
  "data": [
    {
      "paperId": "642ee5399b3d6ff6f8440d98fc8e88858e8e52ed",
      "url": "https://www.semanticscholar.org/paper/642ee5399b3d6ff6f8440d98fc8e88858e8e52ed",
      "title": "Effect of pre-exercise carbohydrate diets with high vs low glycemic index on exercise performance: a meta-analysis",
      "year": 2017,
      "openAccessPdf": {
        "url": "",
        "status": "CLOSED",
        "license": null,
        "disclaimer": "Notice: The following paper fields have been elided by the publisher: {'abstract'}. Paper or abstract available at https://api.unpaywall.org/v2/10.1093/nutrit/nux003?email=<INSERT_YOUR_EMAIL> or https://doi.org/10.1093/nutrit/nux003, which is subject to the license by the author or copyright owner provided with this content. Please go to the source to verify the license and copyright information for your use."
      },
      "authors": [
        {
          "authorId": "1432418366",
          "name": "S. Heung-Sang Wong"
        },
        {
          "authorId": "3005044",
          "name": "F. Sun"
        },
        {
          "authorId": "123332025",
          "name": "Yajun Chen"
        },
        {
          "authorId": "2155043185",
          "name": "Chunxiao Li"
        },
        {
          "authorId": "2145055550",
          "name": "Yanjie Zhang"
        },
        {
          "authorId": "1432418033",
          "name": "W. Ya-Jun Huang"
        }
      ],
      "abstract": null
    },
    {
      "paperId": "c3adf16efe343e7a6ea4d5e00deee0410a55f8d2",
      "url": "https://www.semanticscholar.org/paper/c3adf16efe343e7a6ea4d5e00deee0410a55f8d2",
      "title": "Effects of Low Versus Moderate Glycemic Index Diets on Aerobic Capacity in Endurance Runners: Three-Week Randomized Controlled Crossover Trial",
      "year": 2018,
      "openAccessPdf": {
        "url": "https://doi.org/10.3390/nu10030370",
        "status": "GOLD",
        "license": "CCBY",
        "disclaimer": "Notice: Paper or abstract available at https://pmc.ncbi.nlm.nih.gov/articles/PMC5872788, which is subject to the license by the author or copyright owner provided with this content. Please go to the source to verify the license and copyright information for your use."
      },
      "authors": [
        {
          "authorId": "1405456636",
          "name": "K. Durkalec-Michalski"
        },
        {
          "authorId": "31692709",
          "name": "Emilia E. Zawieja"
        },
        {
          "authorId": "48829546",
          "name": "B. Zawieja"
        },
        {
          "authorId": "31625891",
          "name": "Dominika Jurkowska"
        },
        {
          "authorId": "3434006",
          "name": "M. Buchowski"
        },
        {
          "authorId": "144625964",
          "name": "J. Jeszka"
        }
      ],
      "abstract": "The glycemic index (GI) of ingested carbohydrates may influence substrate oxidation during exercise and athletic performance. Therefore, the aim of this study was to assess the effect of low- and moderate-GI three-week diets on aerobic capacity and endurance performance in runners. We conducted a randomized crossover feeding study of matched diets differing only in GI (low vs. moderate) in 21 endurance-trained runners. Each participant consumed both, low- (LGI) and moderate-GI (MGI) high-carbohydrate (~60%) and nutrient-balanced diets for three weeks each. At the beginning and end of each diet, participants had their aerobic capacity and body composition measured and performed a 12-min running test. After LGI, time to exhaustion during incremental cycling test (ICT) and distance covered in the 12-min run were significantly increased. The MGI diet led to an increase in maximal oxygen uptake (V˙O2max), but no performance benefits were found after the MGI diet. The LGI and MGI diets improved time and workload at gas exchange threshold (GET) during ICT. The results indicate that a three-week high-carbohydrate LGI diet resulted in a small but significant improvement in athletic performance in endurance runners. Observed increase in V˙O2max on MGI diet did not affect performance."
    },
    {
      "paperId": "fdb8d185c0e8e7c10cd192129567b8c4d4029c97",
      "url": "https://www.semanticscholar.org/paper/fdb8d185c0e8e7c10cd192129567b8c4d4029c97",
      "title": "Dietary periodisation for health and performance in world-class endurance athletes",
      "year": 2020,
      "openAccessPdf": {
        "url": "",
        "status": null,
        "license": null,
        "disclaimer": "Notice: The following paper fields have been elided by the publisher: {'abstract'}. Paper or abstract available at https://api.unpaywall.org/v2/10.26199/E8TQ-DH06?email=<INSERT_YOUR_EMAIL> or https://doi.org/10.26199/E8TQ-DH06, which is subject to the license by the author or copyright owner provided with this content. Please go to the source to verify the license and copyright information for your use."
      },
      "authors": [
        {
          "authorId": "10794457",
          "name": "I. Heikura"
        }
      ],
      "abstract": null
    },
    {
      "paperId": "a891bba4455c5b08b6f10e22a230b085be216c82",
      "url": "https://www.semanticscholar.org/paper/a891bba4455c5b08b6f10e22a230b085be216c82",
      "title": "Interaction of Diet and Training on Endurance Performance in Rats",
      "year": 2001,
      "openAccessPdf": {
        "url": "",
        "status": "CLOSED",
        "license": null,
        "disclaimer": "Notice: The following paper fields have been elided by the publisher: {'abstract'}. Paper or abstract available at https://api.unpaywall.org/v2/10.1113/eph8602158?email=<INSERT_YOUR_EMAIL> or https://doi.org/10.1113/eph8602158, which is subject to the license by the author or copyright owner provided with this content. Please go to the source to verify the license and copyright information for your use."
      },
      "authors": [
        {
          "authorId": "2108614085",
          "name": "J. Lee"
        },
        {
          "authorId": "31533887",
          "name": "C. Bruce"
        },
        {
          "authorId": "6881763",
          "name": "L. Spriet"
        },
        {
          "authorId": "117671631",
          "name": "J. Hawley"
        }
      ],
      "abstract": null
    },
    {
      "paperId": "67e322e6045910857dea59941c6bdeaf98380845",
      "url": "https://www.semanticscholar.org/paper/67e322e6045910857dea59941c6bdeaf98380845",
      "title": "Effects of dietary fat on muscle substrates, metabolism, and performance in athletes.",
      "year": 2003,
      "openAccessPdf": {
        "url": "https://journals.lww.com/acsm-msse/Fulltext/2003/06000/Effects_of_Dietary_Fat_on_Muscle_Substrates,.11.aspx",
        "status": "BRONZE",
        "license": null,
        "disclaimer": "Notice: The following paper fields have been elided by the publisher: {'abstract'}. Paper or abstract available at https://api.unpaywall.org/v2/10.1249/01.MSS.0000069336.30649.BD?email=<INSERT_YOUR_EMAIL> or https://doi.org/10.1249/01.MSS.0000069336.30649.BD, which is subject to the license by the author or copyright owner provided with this content. Please go to the source to verify the license and copyright information for your use."
      },
      "authors": [
        {
          "authorId": "47812260",
          "name": "M. Vogt"
        },
        {
          "authorId": "5479399",
          "name": "A. Puntschart"
        },
        {
          "authorId": "7320980",
          "name": "H. Howald"
        },
        {
          "authorId": "2067886498",
          "name": "Bruno Mueller"
        },
        {
          "authorId": "29005026",
          "name": "C. Mannhart"
        },
        {
          "authorId": "1422107270",
          "name": "Liliane Gfeller-Tuescher"
        },
        {
          "authorId": "4978304",
          "name": "P. Mullis"
        },
        {
          "authorId": "143601808",
          "name": "H. Hoppeler"
        }
      ],
      "abstract": null
    }
  ]
}