{
  "total": 3608,
  "offset": 0,
  "next": 5,
  "data": [
    {
      "paperId": "f6021dfed7b6ad8e8d0dfe42115195c00e98d745",
      "url": "https://www.semanticscholar.org/paper/f6021dfed7b6ad8e8d0dfe42115195c00e98d745",
      "title": "Comparison of the Effects of LISS (Low-Intensity Steady State) and HIIT (High-Intensity Interval Training) on Cardiovascular Adaptation",
      "year": 2025,
      "openAccessPdf": {
        "url": "",
        "status": null,
        "license": null,
        "disclaimer": "Notice: Paper or abstract available at https://api.unpaywall.org/v2/10.32539/bji.v11i2.260?email=<INSERT_YOUR_EMAIL> or https://doi.org/10.32539/bji.v11i2.260, which is subject to the license by the author or copyright owner provided with this content. Please go to the source to verify the license and copyright information for your use."
      },
      "authors": [
        {
          "authorId": "113131362",
          "name": "Fatoni Fatoni"
        }
      ],
      "abstract": "Introduction. Aerobic exercise plays an important role in improving cardiovascular fitness, but each training method has different effectiveness. This study aims to compare the effects of Low-Intensity Steady State (LISS) and High-Intensity Interval Training (HIIT) on cardiovascular adaptation in students from the Department of Physical Education, Health, and Recreation, Universitas Negeri Makassar (UNM). Methods. This study used an experimental method with a pre-test and post-test control group design. A total of 54 students were divided into two groups. The first group underwent LISS training with an intensity of 50-60% of maximum heart rate (HRmax) for 40 minutes per session, while the second group underwent HIIT with an intensity interval of 85-95% HRmax for 20 minutes per session, each performed 4 times per week for 6 weeks. The cardiovascular parameters measured included VO₂ max, resting heart rate, and systolic and diastolic blood pressure. Results. The results showed that both training methods provided a significant increase in VO₂ max and a decrease in resting heart rate (p < 0.05). However, the HIIT group experienced a greater increase in VO₂ max compared to the LISS group (p < 0.05), while the LISS and HIIT pressure reduction variables were significantly able to reduce systolic and diastolic blood pressure, indicating similar benefits in terms of blood pressure control. Conclusion. The conclusion of this study is that HIIT is more effective in increasing cardiovascular adaptation, more effective in heart performance or decreasing heart rate and both are effective in reducing systolic and diastolic blood pressure."
    },
    {
      "paperId": "a93a83d18868aed5be407e7acd87dde3c6775cbe",
      "url": "https://www.semanticscholar.org/paper/a93a83d18868aed5be407e7acd87dde3c6775cbe",
      "title": "Low-impact specialized pilates is better than low intensity steady state for increasing fitness level",
      "year": 2025,
      "openAccessPdf": {
        "url": "",
        "status": null,
        "license": null,
        "disclaimer": "Notice: Paper or abstract available at https://api.unpaywall.org/v2/10.56003/pessr.v4i2.575?email=<INSERT_YOUR_EMAIL> or https://doi.org/10.56003/pessr.v4i2.575, which is subject to the license by the author or copyright owner provided with this content. Please go to the source to verify the license and copyright information for your use."
      },
      "authors": [
        {
          "authorId": "151085102",
          "name": "Laily Mita Andriana"
        },
        {
          "authorId": "84100973",
          "name": "K. Ashadi"
        },
        {
          "authorId": "2324201235",
          "name": "Fransisca Januarumi Marhaendra Wijaya"
        },
        {
          "authorId": "2161077131",
          "name": "Muhamad Fauzi Antoni"
        }
      ],
      "abstract": "Background: Elderly individuals with disabilities often face challenges in maintaining physical fitness, highlighting the need for effective and appropriate exercise methods tailored to their limitations.\nObjectives: This study compares the effectiveness of low-impact specialized Pilates and Low-Intensity Steady-State (LISS) exercise in improving fitness levels among older adults with mild to moderate disabilities. The unique advantage of Pilates in enhancing balance and core strength is presented as a novel contribution.\nMethods: A quasi-experimental design with pre-test and post-test assessments was employed, involving 40 elderly participants with disabilities divided into two intervention groups over 8 weeks. Participants were selected through purposive sampling based on the inclusion criteria of 60–75 years with mild to moderate disabilities. Fitness levels were assessed using the Senior Fitness Test, which evaluates muscular strength, balance, flexibility, and aerobic capacity.\nResults: Data analysis was conducted using the Shapiro–Wilk test, paired sample t-test, and independent sample t-test. The results demonstrated that the low-impact specialized Pilates group showed significant improvements in core strength, balance, and flexibility, whereas the LISS group exhibited greater improvements in aerobic capacity.\nConclusions: In conclusion, low-impact specialized Pilates is more effective in enhancing overall fitness among elderly individuals with disabilities. Therefore, it is recommended as a suitable exercise modality for rehabilitation and health maintenance programs to improve this population's quality of life and functional independence."
    },
    {
      "paperId": "561ec386f3d803a95708cafe58c77d2b51a73cbc",
      "url": "https://www.semanticscholar.org/paper/561ec386f3d803a95708cafe58c77d2b51a73cbc",
      "title": "Total-body aerobic gymnastic exercises more effective than low intensity steady state to improving body composition in adult women with sedentary",
      "year": 2025,
      "openAccessPdf": {
        "url": "",
        "status": null,
        "license": null,
        "disclaimer": "Notice: Paper or abstract available at https://api.unpaywall.org/v2/10.47197/retos.v69.113196?email=<INSERT_YOUR_EMAIL> or https://doi.org/10.47197/retos.v69.113196, which is subject to the license by the author or copyright owner provided with this content. Please go to the source to verify the license and copyright information for your use."
      },
      "authors": [
        {
          "authorId": "2367391839",
          "name": "Shery Iris Zalillah"
        },
        {
          "authorId": "2364272210",
          "name": "Ika Jayadi"
        },
        {
          "authorId": "151085102",
          "name": "Laily Mita Andriana"
        },
        {
          "authorId": "84100973",
          "name": "K. Ashadi"
        },
        {
          "authorId": "2082393005",
          "name": "Oce Wiriawan"
        },
        {
          "authorId": "2367393525",
          "name": "Agus Hariyanto"
        }
      ],
      "abstract": "Introduction: Total-body aerobic gymnastics involving the whole body offers an innovative aspect regarding afterburn effects.\nObjectives: This study aimed to prove that 45 minutes of total-body aerobic gymnastic exercise with 88 beats per minute was significantly more effective than 45 minutes of walking exercise with a low-intensity steady state.\nMethodology: Materials and methods, this inferential study used a two-group experimental design involving as many as 50 sedentary adult women to prove that total-body aerobic gymnastic exercises were more effective than LISS exercises in improving body composition. The instrument used is body composition analysis (InBody). The data analysis techniques are the sapphire will test and independent samples t-test.\nDiscussion: In the total-body aerobic gymnastics group, the body mass index decreased from 29.4 0.22 Kg/m2  to 24.1  0.29 Kg/m2 (p<0.05), decreased from 36.2% to 31.3  0.33% (p<0.05), and there was an increase in body muscle percentage from 29.8  0.52% to 33.9  0.67% (p<0.05). No significant changes were observed in the walking with LISS group (p>0.05).\nConclusions:  total body aerobic gymnastics is significantly more effective than walking with LISS in improving body composition."
    },
    {
      "paperId": "c01bd0a0c270e8eb038459cf38441312ac53c288",
      "url": "https://www.semanticscholar.org/paper/c01bd0a0c270e8eb038459cf38441312ac53c288",
      "title": "HIGH INTENSITY INTERVAL TRAINING LEBIH MENINGKATKAN KAPASITAS AEROBIK DARIPADA LOW INTENSITY STEADY STATE PADA ATLET KARATE DOJO CAMPUHAN ASRI DI DENPASAR",
      "year": 2019,
      "openAccessPdf": {
        "url": "https://doi.org/10.24843/spj.2019.v07.i03.p02",
        "status": "GOLD",
        "license": "CCBY",
        "disclaimer": "Notice: Paper or abstract available at https://api.unpaywall.org/v2/10.24843/spj.2019.v07.i03.p02?email=<INSERT_YOUR_EMAIL> or https://doi.org/10.24843/spj.2019.v07.i03.p02, which is subject to the license by the author or copyright owner provided with this content. Please go to the source to verify the license and copyright information for your use."
      },
      "authors": [
        {
          "authorId": "2193068273",
          "name": "I. K. W. A. Prana"
        },
        {
          "authorId": "14060906",
          "name": "I. Adiatmika"
        },
        {
          "authorId": "84611249",
          "name": "Tjokorda Gde Bagus Mahadewa"
        },
        {
          "authorId": "48762295",
          "name": "D. P. Sutjana"
        },
        {
          "authorId": "66392954",
          "name": "K. Tirtayasa"
        },
        {
          "authorId": "52081028",
          "name": "I. P. A. Griadhi"
        }
      ],
      "abstract": "Decreased physical endurance impacts for human fitness. The occurrence of decline in activities that can make physical decline of heart and lung function and decreased metabolic system. This physical endurance is divided into two parts, namely general durability and muscular endurance. This research aims to know HIIT training further increase aerobic capacity than in training of LISS in Dojo Campuhan Asri Denpasar. Type of experimental research with the randomized pre-posttest control group design. Aerobic capacity is measuring by MFT (multistage fitnest test). The research subjects were male karate athletes between 7-12 years, totaling 16 people and divided into two different treatment groups. Group I was given training in High Intensity Interval Training with training based on maximum repetition and Group II was given Low Intensity Steady State training with training based on a maximum time of 60 minutes with frequency of exercise 3 times a week for 6 weeks in both group. The result of increased aerobic capacity between the two Groups before and after the training was tested with t-independent, with the significant value ? = 0.05. Average aerobic capacity in both Groups before training with the value P = 0.339 and after training with the value P = 0.001. It shows that the group I and group II both gave an improved effect (P < 0.05). But in group I better than the group II (p < 0.05). It was concluded that aerobic capacity in Group I and Group II had both increased. However, the High Intensity Interval Training Group training is better than the Low Intensity Steady State Training Group. High Intensity Interval Training suggested training is recommended for athletes training. Keywords: High Intensity Interval Training , HIIT , Low Intensity Steady State, LISS, Capacity Aerobic, Karate."
    },
    {
      "paperId": "a5da45af0021b0e981e817fdfa70b07355f32c89",
      "url": "https://www.semanticscholar.org/paper/a5da45af0021b0e981e817fdfa70b07355f32c89",
      "title": "Impact of Alternating Exercise Intensity Interventions on the Physical and Mental Health of Middle-Aged and Young Men",
      "year": 2024,
      "openAccessPdf": {
        "url": "",
        "status": null,
        "license": null,
        "disclaimer": "Notice: Paper or abstract available at https://api.unpaywall.org/v2/10.3390/app142210140?email=<INSERT_YOUR_EMAIL> or https://doi.org/10.3390/app142210140, which is subject to the license by the author or copyright owner provided with this content. Please go to the source to verify the license and copyright information for your use."
      },
      "authors": [
        {
          "authorId": "2328942535",
          "name": "Fanghuan Yang"
        },
        {
          "authorId": "2325047119",
          "name": "Y. Kwak"
        }
      ],
      "abstract": "Exercise interventions have been shown to improve health levels; however, the effects of different exercise intervention methods remain to be studied. This study designed seven types of exercise interventions, including high-intensity interval training (HIIT), moderate-intensity continuous training (MICT), low-intensity steady-state training (LISS) and various alternating combinations. A 16-week follow-up investigation analyzed the impact of these different exercise interventions on participants’ physical and psychological health. The results indicate that exercise interventions are an effective health promotion method, significantly reducing BMI and body fat percentage, improving metabolic health, cardiovascular health, and cardiorespiratory function and enhancing quality of life and psychological state. Specifically, the HIIT-LISS combination performed best in reducing BMI, regulating blood lipids, and increasing VO2max. Furthermore, HIIT demonstrated the most significant improvement in body fat percentage and blood pressure, with body fat reduced by up to 5.65% and blood pressure decreasing by nearly 9 mmHg, whereas the MICT-LISS showed better effects on heart rate. Although the improvement in psychological health from different exercise interventions was not significant, it increased by over 10% compared to the control group. Overall, the combined effect of HIIT and MICT was found to be the most effective, with mixed exercise interventions showing more pronounced effects on physical health indicators."
    }
  ]
}