{
  "total": 2877918,
  "offset": 0,
  "next": 5,
  "data": [
    {
      "paperId": "b8454ca2475b3f28c7c2579bb3d1d03fa66c9acb",
      "url": "https://www.semanticscholar.org/paper/b8454ca2475b3f28c7c2579bb3d1d03fa66c9acb",
      "title": "Diet and physical exercise as key players to tackle MASLD through improvement of insulin resistance and metabolic flexibility",
      "year": 2024,
      "openAccessPdf": {
        "url": "https://doi.org/10.3389/fnut.2024.1426551",
        "status": "GOLD",
        "license": "CCBY",
        "disclaimer": "Notice: Paper or abstract available at https://pmc.ncbi.nlm.nih.gov/articles/PMC11370663, which is subject to the license by the author or copyright owner provided with this content. Please go to the source to verify the license and copyright information for your use."
      },
      "authors": [
        {
          "authorId": "2056878076",
          "name": "S. Mambrini"
        },
        {
          "authorId": "2317187158",
          "name": "Antonio Grillo"
        },
        {
          "authorId": "2248914139",
          "name": "Santo Colosimo"
        },
        {
          "authorId": "2317399066",
          "name": "Francesco Zarpellon"
        },
        {
          "authorId": "2317391083",
          "name": "Giorgia Pozzi"
        },
        {
          "authorId": "2317389746",
          "name": "Davide Furlan"
        },
        {
          "authorId": "2317399057",
          "name": "Gabriele Amodeo"
        },
        {
          "authorId": "2222485066",
          "name": "Simona Bertoli"
        }
      ],
      "abstract": "Metabolic Dysfunction-Associated Steatotic Liver Disease (MASLD) has emerged as a prevalent health concern, encompassing a wide spectrum of liver-related disorders. Insulin resistance, a key pathophysiological feature of MASLD, can be effectively ameliorated through dietary interventions. The Mediterranean diet, rich in whole grains, fruits, vegetables, legumes, and healthy fats, has shown promising results in improving insulin sensitivity. Several components of the Mediterranean diet, such as monounsaturated fats and polyphenols, exert anti-inflammatory and antioxidant effects, thereby reducing hepatic steatosis and inflammation. Furthermore, this dietary pattern has been associated with a higher likelihood of achieving MASLD remission. In addition to dietary modifications, physical exercise, particularly resistance exercise, plays a crucial role in enhancing metabolic flexibility. Resistance exercise training promotes the utilization of fatty acids as an energy source. It enhances muscle glucose uptake and glycogen storage, thus reducing the burden on the liver to uptake excess blood glucose. Furthermore, resistance exercise stimulates muscle protein synthesis, contributing to an improved muscle-to-fat ratio and overall metabolic health. When implemented synergistically, the Mediterranean diet and resistance exercise can elicit complementary effects in combating MASLD. Combined interventions have demonstrated additive benefits, including greater improvements in insulin resistance, increased metabolic flexibility, and enhanced potential for MASLD remission. This underscores the importance of adopting a multifaceted approach encompassing dietary modifications and regular physical exercise to effectively manage MASLD. This narrative review explores the biological mechanisms of diet and physical exercise in addressing MASLD by targeting insulin resistance and decreased metabolic flexibility."
    },
    {
      "paperId": "ef40837de5e71d55403d42e69a1a5904f2648d7b",
      "url": "https://www.semanticscholar.org/paper/ef40837de5e71d55403d42e69a1a5904f2648d7b",
      "title": "Metabolic Flexibility of the Heart: The Role of Fatty Acid Metabolism in Health, Heart Failure, and Cardiometabolic Diseases",
      "year": 2024,
      "openAccessPdf": {
        "url": "https://www.mdpi.com/1422-0067/25/2/1211/pdf?version=1705652125",
        "status": "GOLD",
        "license": "CCBY",
        "disclaimer": "Notice: Paper or abstract available at https://pmc.ncbi.nlm.nih.gov/articles/PMC10816475, which is subject to the license by the author or copyright owner provided with this content. Please go to the source to verify the license and copyright information for your use."
      },
      "authors": [
        {
          "authorId": "2280731102",
          "name": "Virginia Actis Dato"
        },
        {
          "authorId": "2052367498",
          "name": "Stephan Lange"
        },
        {
          "authorId": "2275191313",
          "name": "Yoshitake Cho"
        }
      ],
      "abstract": "This comprehensive review explores the critical role of fatty acid (FA) metabolism in cardiac diseases, particularly heart failure (HF), and the implications for therapeutic strategies. The heart’s reliance on ATP, primarily sourced from mitochondrial oxidative metabolism, underscores the significance of metabolic flexibility, with fatty acid oxidation (FAO) being a dominant source. In HF, metabolic shifts occur with an altered FA uptake and FAO, impacting mitochondrial function and contributing to disease progression. Conditions like obesity and diabetes also lead to metabolic disturbances, resulting in cardiomyopathy marked by an over-reliance on FAO, mitochondrial dysfunction, and lipotoxicity. Therapeutic approaches targeting FA metabolism in cardiac diseases have evolved, focusing on inhibiting or stimulating FAO to optimize cardiac energetics. Strategies include using CPT1A inhibitors, using PPARα agonists, and enhancing mitochondrial biogenesis and function. However, the effectiveness varies, reflecting the complexity of metabolic remodeling in HF. Hence, treatment strategies should be individualized, considering that cardiac energy metabolism is intricate and tightly regulated. The therapeutic aim is to optimize overall metabolic function, recognizing the pivotal role of FAs and the need for further research to develop effective therapies, with promising new approaches targeting mitochondrial oxidative metabolism and FAO that improve cardiac function."
    },
    {
      "paperId": "882185b36e587ec961d86aed0ff23949081c654f",
      "url": "https://www.semanticscholar.org/paper/882185b36e587ec961d86aed0ff23949081c654f",
      "title": "Lipid droplets provide metabolic flexibility for cancer progression",
      "year": 2024,
      "openAccessPdf": {
        "url": "https://onlinelibrary.wiley.com/doi/pdfdirect/10.1002/1873-3468.14820",
        "status": "HYBRID",
        "license": "CCBYNCND",
        "disclaimer": "Notice: Paper or abstract available at https://api.unpaywall.org/v2/10.1002/1873-3468.14820?email=<INSERT_YOUR_EMAIL> or https://doi.org/10.1002/1873-3468.14820, which is subject to the license by the author or copyright owner provided with this content. Please go to the source to verify the license and copyright information for your use."
      },
      "authors": [
        {
          "authorId": "2283284201",
          "name": "Rémi Safi"
        },
        {
          "authorId": "2283283738",
          "name": "Pablo Menéndez"
        },
        {
          "authorId": "2283289631",
          "name": "Albert Pol"
        }
      ],
      "abstract": "A hallmark of cancer cells is their remarkable ability to efficiently adapt to favorable and hostile environments. Due to a unique metabolic flexibility, tumor cells can grow even in the absence of extracellular nutrients or in stressful scenarios. To achieve this, cancer cells need large amounts of lipids to build membranes, synthesize lipid‐derived molecules, and generate metabolic energy in the absence of other nutrients. Tumor cells potentiate strategies to obtain lipids from other cells, metabolic pathways to synthesize new lipids, and mechanisms for efficient storage, mobilization, and utilization of these lipids. Lipid droplets (LDs) are the organelles that collect and supply lipids in eukaryotes and it is increasingly recognized that the accumulation of LDs is a new hallmark of cancer cells. Furthermore, an active role of LD proteins in processes underlying tumorigenesis has been proposed. Here, by focusing on three major classes of LD‐resident proteins (perilipins, lipases, and acyl‐CoA synthetases), we provide an overview of the contribution of LDs to cancer progression and discuss the role of LD proteins during the proliferation, invasion, metastasis, apoptosis, and stemness of cancer cells."
    },
    {
      "paperId": "8f9d4854cb4604de0688f1e121358770b05bf19a",
      "url": "https://www.semanticscholar.org/paper/8f9d4854cb4604de0688f1e121358770b05bf19a",
      "title": "Time-restricted feeding restores metabolic flexibility in adult mice with excess adiposity",
      "year": 2024,
      "openAccessPdf": {
        "url": "https://www.frontiersin.org/articles/10.3389/fnut.2024.1340735/pdf?isPublishedV2=False",
        "status": "GOLD",
        "license": "CCBY",
        "disclaimer": "Notice: Paper or abstract available at https://pmc.ncbi.nlm.nih.gov/articles/PMC10902009, which is subject to the license by the author or copyright owner provided with this content. Please go to the source to verify the license and copyright information for your use."
      },
      "authors": [
        {
          "authorId": "2284579527",
          "name": "Lin Yan"
        },
        {
          "authorId": "48401151",
          "name": "Bret M. Rust"
        },
        {
          "authorId": "2284368143",
          "name": "Daniel G. Palmer"
        }
      ],
      "abstract": "Introduction Obesity is prevalent with the adult population in the United States. Energy-dense diets and erratic eating behavior contribute to obesity. Time-restricted eating is a dietary strategy in humans that has been advanced to reduce the propensity for obesity. We hypothesized that time-restricted feeding (TRF) would improve metabolic flexibility and normalize metabolic function in adult mice with established excess adiposity. Methods Male C57BL/6NHsd mice were initially fed a high-fat diet (HFD) for 12 weeks to establish excess body adiposity, while control mice were fed a normal diet. Then, the HFD-fed mice were assigned to two groups, either ad libitum HFD or TRF of the HFD in the dark phase (12 h) for another 12 weeks. Results and discussion Energy intake and body fat mass were similar in TRF and HFD-fed mice. TRF restored rhythmic oscillations of respiratory exchange ratio (RER), which had been flattened by the HFD, with greater RER amplitude in the dark phase. Insulin sensitivity was improved and plasma cholesterol and hepatic triacylglycerol were decreased by TRF. When compared to HFD, TRF decreased transcription of circadian genes Per1 and Per2 and genes encoding lipid metabolism (Acaca, Fads1, Fads2, Fasn, Scd1, and Srebf1) in liver. Metabolomic analysis showed that TRF created a profile that was distinct from those of mice fed the control diet or HFD, particularly in altered amino acid profiles. These included aminoacyl-tRNA-biosynthesis, glutathione metabolism, and phenylalanine, tyrosine, and tryptophan biosynthesis pathways. In conclusion, TRF improved metabolic function in adult mice with excess adiposity. This improvement was not through a reduction in body fat mass but through the restoration of metabolic flexibility."
    },
    {
      "paperId": "fb3fe692f81aa1a747d79b305adf37ed2d22a56d",
      "url": "https://www.semanticscholar.org/paper/fb3fe692f81aa1a747d79b305adf37ed2d22a56d",
      "title": "Metabolic flexibility ensures proper neuronal network function in moderate neuroinflammation",
      "year": 2024,
      "openAccessPdf": {
        "url": "https://www.nature.com/articles/s41598-024-64872-1.pdf",
        "status": "GOLD",
        "license": "CCBY",
        "disclaimer": "Notice: Paper or abstract available at https://pmc.ncbi.nlm.nih.gov/articles/PMC11193723, which is subject to the license by the author or copyright owner provided with this content. Please go to the source to verify the license and copyright information for your use."
      },
      "authors": [
        {
          "authorId": "6614626",
          "name": "B. Chausse"
        },
        {
          "authorId": "2163637964",
          "name": "Nikolai Malorny"
        },
        {
          "authorId": "50477165",
          "name": "A. Lewen"
        },
        {
          "authorId": "3928543",
          "name": "Gernot Poschet"
        },
        {
          "authorId": "2734792",
          "name": "Nikolaus Berndt"
        },
        {
          "authorId": "144518352",
          "name": "O. Kann"
        }
      ],
      "abstract": "Microglia, brain-resident macrophages, can acquire distinct functional phenotypes, which are supported by differential reprogramming of cell metabolism. These adaptations include remodeling in glycolytic and mitochondrial metabolic fluxes, potentially altering energy substrate availability at the tissue level. This phenomenon may be highly relevant in the brain, where metabolism must be precisely regulated to maintain appropriate neuronal excitability and synaptic transmission. Direct evidence that microglia can impact on neuronal energy metabolism has been widely lacking, however. Combining molecular profiling, electrophysiology, oxygen microsensor recordings and mathematical modeling, we investigated microglia-mediated disturbances in brain energetics during neuroinflammation. Our results suggest that proinflammatory microglia showing enhanced nitric oxide release and decreased CX3CR1 expression transiently increase the tissue lactate/glucose ratio that depends on transcriptional reprogramming in microglia, not in neurons. In this condition, neuronal network activity such as gamma oscillations (30–70 Hz) can be fueled by increased ATP production in mitochondria, which is reflected by elevated oxygen consumption. During dysregulated inflammation, high energy demand and low glucose availability can be boundary conditions for neuronal metabolic fitness as revealed by kinetic modeling of single neuron energetics. Collectively, these findings indicate that metabolic flexibility protects neuronal network function against alterations in local substrate availability during moderate neuroinflammation."
    }
  ]
}