{
  "total": 2416655,
  "offset": 0,
  "next": 3,
  "data": [
    {
      "paperId": "c273e2a718e4d33076f15184a2823ae405874ea2",
      "url": "https://www.semanticscholar.org/paper/c273e2a718e4d33076f15184a2823ae405874ea2",
      "title": "Muscle coordination and recruitment during squat assistance using a robotic ankle–foot exoskeleton",
      "year": 2023,
      "openAccessPdf": {
        "url": "https://www.nature.com/articles/s41598-023-28229-4.pdf",
        "status": "GOLD",
        "license": "CCBY",
        "disclaimer": "Notice: Paper or abstract available at https://pmc.ncbi.nlm.nih.gov/articles/PMC9873637, which is subject to the license by the author or copyright owner provided with this content. Please go to the source to verify the license and copyright information for your use."
      },
      "authors": [
        {
          "authorId": "2105664559",
          "name": "Hyeon-Seong Jeong"
        },
        {
          "authorId": "2140323638",
          "name": "Parian Haghighat"
        },
        {
          "authorId": "2148881827",
          "name": "Prakyath Kantharaju"
        },
        {
          "authorId": "2058949271",
          "name": "Michael Jacobson"
        },
        {
          "authorId": "2136403793",
          "name": "Hee-seon Jeong"
        },
        {
          "authorId": "49108750",
          "name": "Myunghee Kim"
        }
      ],
      "abstract": "Squatting is an intensive activity routinely performed in the workplace to lift and lower loads. The effort to perform a squat can decrease using an exoskeleton that considers individual worker’s differences and assists them with a customized solution, namely, personalized assistance. Designing such an exoskeleton could be improved by understanding how the user’s muscle activity changes when assistance is provided. This study investigated the change in the muscle recruitment and activation pattern when personalized assistance was provided. The personalized assistance was provided by an ankle–foot exoskeleton during squatting and we compared its effect with that of the no-device and unpowered exoskeleton conditions using previously collected data. We identified four main muscle recruitment strategies across ten participants. One of the strategies mainly used quadriceps muscles, and the activation level corresponding to the strategy was reduced under exoskeleton assistance compared to the no-device and unpowered conditions. These quadriceps dominant synergy and rectus femoris activations showed reasonable correlations (r = 0.65, 0.59) to the metabolic cost of squatting. These results indicate that the assistance helped reduce quadriceps activation, and thus, the metabolic cost of squatting. These outcomes suggest that the muscle recruitment and activation patterns could be used to design an exoskeleton and training methods."
    },
    {
      "paperId": "9ae18e8866cf78c904230bf407073fe3d18c5ca1",
      "url": "https://www.semanticscholar.org/paper/9ae18e8866cf78c904230bf407073fe3d18c5ca1",
      "title": "Superficial lumbar muscle recruitment strategies to control the trunk with delayed-onset muscle soreness",
      "year": 2021,
      "openAccessPdf": {
        "url": "https://depot-e.uqtr.ca/id/eprint/9624/1/DESCARREAUX_M_284_POST.pdf",
        "status": "GREEN",
        "license": null,
        "disclaimer": "Notice: The following paper fields have been elided by the publisher: {'abstract'}. Paper or abstract available at https://api.unpaywall.org/v2/10.1007/s00421-021-04732-2?email=<INSERT_YOUR_EMAIL> or https://doi.org/10.1007/s00421-021-04732-2, which is subject to the license by the author or copyright owner provided with this content. Please go to the source to verify the license and copyright information for your use."
      },
      "authors": [
        {
          "authorId": "3350654",
          "name": "Jacques Abboud"
        },
        {
          "authorId": "80042832",
          "name": "Arianne Lessard"
        },
        {
          "authorId": "2450022",
          "name": "M. Descarreaux"
        }
      ],
      "abstract": null
    },
    {
      "paperId": "0d99b392e6bffb694d8199df2de12602744a7ac4",
      "url": "https://www.semanticscholar.org/paper/0d99b392e6bffb694d8199df2de12602744a7ac4",
      "title": "Role of the kinetic chain in shoulder rehabilitation: does incorporating the trunk and lower limb into shoulder exercise regimes influence shoulder muscle recruitment patterns? Systematic review of electromyography studies",
      "year": 2020,
      "openAccessPdf": {
        "url": "https://bmjopensem.bmj.com/content/bmjosem/6/1/e000683.full.pdf",
        "status": "GOLD",
        "license": "CCBYNC",
        "disclaimer": "Notice: Paper or abstract available at https://pmc.ncbi.nlm.nih.gov/articles/PMC7202723, which is subject to the license by the author or copyright owner provided with this content. Please go to the source to verify the license and copyright information for your use."
      },
      "authors": [
        {
          "authorId": "1694060264",
          "name": "Eleanor Richardson"
        },
        {
          "authorId": "1989223672",
          "name": "Jeremy S. Lewis"
        },
        {
          "authorId": "74330346",
          "name": "J. Gibson"
        },
        {
          "authorId": "1665031918",
          "name": "C. Morgan"
        },
        {
          "authorId": "3296185",
          "name": "M. Halaki"
        },
        {
          "authorId": "6119625",
          "name": "K. Ginn"
        },
        {
          "authorId": "29891988",
          "name": "G. Yeowell"
        }
      ],
      "abstract": "Objective To investigate the influence of trunk and lower limb motion on electromyography (EMG) muscle activity and recruitment patterns around the shoulder. Design Systematic review. Data sources MEDLINE, CINAHL, PEDro, AMED, PubMed, Cochrane Central Register of Controlled trials, Cochrane Database of Systematic reviews, SportsDiscuss and PROSPERO. Eligibility criteria Studies investigating both multiregional kinetic chain (KC) shoulder exercises and localised non-kinetic chain (nKC) shoulder exercises in healthy subjects under the same experimental conditions were included in this review. Results KC exercises produced greater EMG activation levels in 5 of 11 studies for the lower trapezius. Of the remaining studies, five found no difference between the exercise types and one favoured nKC exercises. KC exercises produced greater EMG activation levels in 5 of 11 studies for the serratus anterior. Of the remaining studies, three reported the opposite and three found no significant difference between the exercise types. nKC exercises produced greater EMG activation in infraspinatus in three of four studies. KC exercises produced the lowest trapezius muscle ratios in all studies. Studies investigating the upper trapezius, middle trapezius, supraspinatus, subscapularis, biceps brachii, latifissimus dorsi, pectoralis major, deltoid, and trapezius and serratus anterior ratios showed inconsistency. Conclusion This review found evidence that integrating the KC during shoulder rehabilitation may increase axioscapular muscle recruitment, produce lower trapezius muscle ratios and reduce the demands on the rotator cuff. Stepping appears preferable to squatting. PROSPERO registration number CRD42015032557, 2015."
    }
  ]
}