{
  "total": 3657749,
  "offset": 0,
  "next": 5,
  "data": [
    {
      "paperId": "3da412420c8f8b52828e7b6fee0904262e3bb338",
      "url": "https://www.semanticscholar.org/paper/3da412420c8f8b52828e7b6fee0904262e3bb338",
      "title": "Inflammation balance in skeletal muscle damage and repair",
      "year": 2023,
      "openAccessPdf": {
        "url": "https://www.frontiersin.org/articles/10.3389/fimmu.2023.1133355/pdf",
        "status": "GOLD",
        "license": "CCBY",
        "disclaimer": "Notice: Paper or abstract available at https://pmc.ncbi.nlm.nih.gov/articles/PMC9909416, which is subject to the license by the author or copyright owner provided with this content. Please go to the source to verify the license and copyright information for your use."
      },
      "authors": [
        {
          "authorId": "5835032",
          "name": "H. Tu"
        },
        {
          "authorId": "2144444523",
          "name": "Yu-long Li"
        }
      ],
      "abstract": "Responding to tissue injury, skeletal muscles undergo the tissue destruction and reconstruction accompanied with inflammation. The immune system recognizes the molecules released from or exposed on the damaged tissue. In the local minor tissue damage, tissue-resident macrophages sequester pro-inflammatory debris to prevent initiation of inflammation. In most cases of the skeletal muscle injury, however, a cascade of inflammation will be initiated through activation of local macrophages and mast cells and recruitment of immune cells from blood circulation to the injured site by recongnization of damage-associated molecular patterns (DAMPs) and activated complement system. During the inflammation, macrophages and neutrophils scavenge the tissue debris to release inflammatory cytokines and the latter stimulates myoblast fusion and vascularization to promote injured muscle repair. On the other hand, an abundance of released inflammatory cytokines and chemokines causes the profound hyper-inflammation and mobilization of immune cells to trigger a vicious cycle and lead to the cytokine storm. The cytokine storm results in the elevation of cytolytic and cytotoxic molecules and reactive oxygen species (ROS) in the damaged muscle to aggravates the tissue injury, including the healthy bystander tissue. Severe inflammation in the skeletal muscle can lead to rhabdomyolysis and cause sepsis-like systemic inflammation response syndrome (SIRS) and remote organ damage. Therefore, understanding more details on the involvement of inflammatory factors and immune cells in the skeletal muscle damage and repair can provide the new precise therapeutic strategies, including attenuation of the muscle damage and promotion of the muscle repair."
    },
    {
      "paperId": "253f9d23151276e07d7cd22fa7b21b2286b6a7ad",
      "url": "https://www.semanticscholar.org/paper/253f9d23151276e07d7cd22fa7b21b2286b6a7ad",
      "title": "Effect of Antioxidant Supplementation on Markers of Oxidative Stress and Muscle Damage after Strength Exercise: A Systematic Review",
      "year": 2022,
      "openAccessPdf": {
        "url": "https://www.mdpi.com/1660-4601/19/3/1803/pdf?version=1644377624",
        "status": "GOLD",
        "license": "CCBY",
        "disclaimer": "Notice: Paper or abstract available at https://pmc.ncbi.nlm.nih.gov/articles/PMC8835002, which is subject to the license by the author or copyright owner provided with this content. Please go to the source to verify the license and copyright information for your use."
      },
      "authors": [
        {
          "authorId": "2153786975",
          "name": "Cristina Canals-Garzón"
        },
        {
          "authorId": "101303882",
          "name": "Rafael Guisado-Barrilao"
        },
        {
          "authorId": "1404217928",
          "name": "D. Martínez-García"
        },
        {
          "authorId": "1780649545",
          "name": "I. Chirosa-Ríos"
        },
        {
          "authorId": "1398247102",
          "name": "D. Jérez-Mayorga"
        },
        {
          "authorId": "2030972890",
          "name": "I. Guisado-Requena"
        }
      ],
      "abstract": "Background: The purpose of this systematic review was to determine the effect of antioxidant consumption on markers of oxidative stress and muscle damage after performing a muscle strength exercise. Methods: The Preferred Reporting Items for Systematic Review and Meta-Analyses (PRISMA) statements were followed. Four databases were used: Scopus, PubMed, WOS and SportDiscus. Methodological quality was assessed using the PEDro scale. Results: A total of 1709 articles were retrieved and following duplicate removal and application of exclusion criteria seven articles were reviewed. Supplementation with pomegranate juice alleviates oxidative stress, taurine reduces muscle damage, melatonin protects the skeletal muscles, blueberries decrease oxidation and oats mitigate muscle damage. Conclusions: Acute administration of antioxidants immediately before or during an exercise session can have beneficial effects, such as delay of fatigue and a reduction in the recovery period. Administration of antioxidant susbtances may reduce muscle damage and oxidative stress markers."
    },
    {
      "paperId": "b747a7a41cfc3e4fdd7537063639f81cb9b6148d",
      "url": "https://www.semanticscholar.org/paper/b747a7a41cfc3e4fdd7537063639f81cb9b6148d",
      "title": "Exercise-induced muscle damage: mechanism, assessment and nutritional factors to accelerate recovery",
      "year": 2021,
      "openAccessPdf": {
        "url": "",
        "status": null,
        "license": null,
        "disclaimer": "Notice: The following paper fields have been elided by the publisher: {'abstract'}. Paper or abstract available at https://api.unpaywall.org/v2/10.1007/s00421-020-04566-4?email=<INSERT_YOUR_EMAIL> or https://doi.org/10.1007/s00421-020-04566-4, which is subject to the license by the author or copyright owner provided with this content. Please go to the source to verify the license and copyright information for your use."
      },
      "authors": [
        {
          "authorId": "119527954",
          "name": "I. Markus"
        },
        {
          "authorId": "5398737",
          "name": "K. Constantini"
        },
        {
          "authorId": "2521940",
          "name": "J. Hoffman"
        },
        {
          "authorId": "6361802",
          "name": "S. Bartolomei"
        },
        {
          "authorId": "4432272",
          "name": "Y. Gepner"
        }
      ],
      "abstract": null
    },
    {
      "paperId": "e7a2b713507848513fbec208ed87a5f0ee82a1cc",
      "url": "https://www.semanticscholar.org/paper/e7a2b713507848513fbec208ed87a5f0ee82a1cc",
      "title": "Skeletal Muscle Damage in COVID-19: A Call for Action",
      "year": 2021,
      "openAccessPdf": {
        "url": "https://doi.org/10.3390/medicina57040372",
        "status": "GOLD",
        "license": "CCBY",
        "disclaimer": "Notice: Paper or abstract available at https://pmc.ncbi.nlm.nih.gov/articles/PMC8069858, which is subject to the license by the author or copyright owner provided with this content. Please go to the source to verify the license and copyright information for your use."
      },
      "authors": [
        {
          "authorId": "152676164",
          "name": "A. Ali"
        },
        {
          "authorId": "2425707",
          "name": "H. Kunugi"
        }
      ],
      "abstract": "Both laboratory investigations and body composition quantification measures (e.g., computed tomography, CT) portray muscle loss in symptomatic Coronavirus disease 2019 (COVID-19) patients. Muscle loss is associated with a poor prognosis of the disease. The exact mechanism of muscle damage in COVID-19 patients, as well as the long-term consequences of muscle injury in disease survivors, are unclear. The current review briefly summarizes the literature for mechanisms, assessment measures, and interventions relevant to skeletal muscle insult in COVID-19 patients. Muscle injury is likely to be attributed to the cytokine storm, disease severity, malnutrition, prolonged physical inactivity during intensive care unit (ICU) stays, mechanical ventilation, and myotoxic drugs (e.g., dexamethasone). It has been assessed by imaging and non-imaging techniques (e.g., CT and electromyography), physical performance tests (e.g., six-minute walk test), anthropometric measures (e.g., calf circumference), and biomarkers of muscle dystrophy (e.g., creatine kinase). Interventions directed toward minimizing muscle loss among COVID-19 patients are lacking. However, limited evidence shows that respiratory rehabilitation improves respiratory function, muscle strength, quality of life, and anxiety symptoms in recovering older COVID-19 patients. Neuromuscular electrical stimulation may restore muscle condition in ICU-admitted patients, albeit empirical evidence is needed. Given the contribution of malnutrition to disease severity and muscle damage, providing proper nutritional management for emaciated patients may be one of the key issues to achieve a better prognosis and prevent the after-effects of the disease. Considerable attention to longer-term consequences of muscle injury in recovering COVID-19 patients is necessary."
    },
    {
      "paperId": "68d182a9ba92e027bca91eeb76ed4c0e06033f0a",
      "url": "https://www.semanticscholar.org/paper/68d182a9ba92e027bca91eeb76ed4c0e06033f0a",
      "title": "Modulation of Exercise-Induced Muscle Damage, Inflammation, and Oxidative Markers by Curcumin Supplementation in a Physically Active Population: A Systematic Review",
      "year": 2020,
      "openAccessPdf": {
        "url": "https://www.mdpi.com/2072-6643/12/2/501/pdf?version=1581760627",
        "status": "GOLD",
        "license": "CCBY",
        "disclaimer": "Notice: Paper or abstract available at https://pmc.ncbi.nlm.nih.gov/articles/PMC7071279, which is subject to the license by the author or copyright owner provided with this content. Please go to the source to verify the license and copyright information for your use."
      },
      "authors": [
        {
          "authorId": "1404176086",
          "name": "Diego Fernández-Lázaro"
        },
        {
          "authorId": "1398474077",
          "name": "J. Mielgo-Ayuso"
        },
        {
          "authorId": "14871518",
          "name": "J. Seco Calvo"
        },
        {
          "authorId": "7210006",
          "name": "A. Córdova Martínez"
        },
        {
          "authorId": "23196559",
          "name": "Alberto Caballero García"
        },
        {
          "authorId": "1429803141",
          "name": "C. Fernandez-Lázaro"
        }
      ],
      "abstract": "Physical activity, particularly high-intensity eccentric muscle contractions, produces exercise-induced muscle damage (EIMD). The breakdown of muscle fibers and the consequent inflammatory responses derived from EIMD affect exercise performance. Curcumin, a natural polyphenol extracted from turmeric, has been shown to have mainly antioxidant and also anti-inflammatory properties. This effect of curcumin could improve EIMD and exercise performance. The main objective of this systematic review was to critically evaluate the effectiveness of curcumin supplementation on EIMD and inflammatory and oxidative markers in a physically active population. A structured search was carried out following Preferred Reporting Items for Systematic Review and Meta-Analyses (PRISMA) guidelines in the databases SCOPUS, Web of Science (WOS), and Medline (PubMed) from inception to October 2019. The search included original articles with randomized controlled crossover or parallel design in which the intake of curcumin administered before and/or after exercise was compared with an identical placebo situation. No filters were applied to the type of physical exercise performed, the sex or the age of the participants. Of the 301 articles identified in the search, 11 met the established criteria and were included in this systematic review. The methodological quality of the studies was assessed using the McMaster Critical Review Form. The use of curcumin reduces the subjective perception of the intensity of muscle pain; reduces muscle damage through the decrease of creatine kinase (CK); increases muscle performance; has an anti-inflammatory effect by modulating the pro-inflammatory cytokines, such as TNF-α, IL-6, and IL-8; and may have a slight antioxidant effect. In summary, the administration of curcumin at a dose between 150–1500 mg/day before and during exercise, and up until 72 h’ post-exercise, improved performance by reducing EIMD and modulating the inflammation caused by physical activity. In addition, humans appear to be able to tolerate high doses of curcumin without significant side-effects."
    }
  ]
}