{
  "total": 2092744,
  "offset": 0,
  "next": 5,
  "data": [
    {
      "paperId": "0aee5cd5ccd0bca64caad6dd8e59ed46cd6864d0",
      "url": "https://www.semanticscholar.org/paper/0aee5cd5ccd0bca64caad6dd8e59ed46cd6864d0",
      "title": "The Myofascial Release Manual",
      "year": 2024,
      "openAccessPdf": {
        "url": "",
        "status": "CLOSED",
        "license": null,
        "disclaimer": "Notice: Paper or abstract available at https://api.unpaywall.org/v2/10.4324/9781003525158?email=<INSERT_YOUR_EMAIL> or https://doi.org/10.4324/9781003525158, which is subject to the license by the author or copyright owner provided with this content. Please go to the source to verify the license and copyright information for your use."
      },
      "authors": [
        {
          "authorId": "81847871",
          "name": "Carol J. Manheim"
        }
      ],
      "abstract": "This text shows the reader how to develop their skills in myofascial release. Carol J. Manheim shares her expertise and understanding of the individual patient experience. Her techniques should enable the reader to interpret the appropriate feedback from the patient and respond to it with specific releases. \"The Myofascial Release Manual, Third Edition\" is a comprehensive resource that teaches skills of myofascial stretching. The book has a user-friendly format to clearly detail specific procedures, as well as to introduce the reader to the theory and experience of the method of myofascial release. More than 150 photographs clearly illustrate the key steps of each release and the serial layout of photographs facilitates the comprehension of the proper mechanical application of techniques. A detailed assessment is supplied for the therapist to initially evaluate the patient as well as monitor progress throughout therapy."
    },
    {
      "paperId": "48ae66b76285880acfbc959657362e3545e7e62b",
      "url": "https://www.semanticscholar.org/paper/48ae66b76285880acfbc959657362e3545e7e62b",
      "title": "Effects of Self-Myofascial Release on Athletes’ Physical Performance: A Systematic Review",
      "year": 2024,
      "openAccessPdf": {
        "url": "https://www.mdpi.com/2411-5142/9/1/20/pdf?version=1704971701",
        "status": "GOLD",
        "license": "CCBY",
        "disclaimer": "Notice: Paper or abstract available at https://pmc.ncbi.nlm.nih.gov/articles/PMC10801590, which is subject to the license by the author or copyright owner provided with this content. Please go to the source to verify the license and copyright information for your use."
      },
      "authors": [
        {
          "authorId": "2203795867",
          "name": "L. M. Martínez-Aranda"
        },
        {
          "authorId": "2129047535",
          "name": "Manuel Sanz-Matesanz"
        },
        {
          "authorId": "2279640449",
          "name": "Ezequiel David García-Mantilla"
        },
        {
          "authorId": "1403544561",
          "name": "F. González-Férnandez"
        }
      ],
      "abstract": "Therapists and strength and conditioning specialists use self-myofascial release (SMR) as an intervention tool through foam rollers or massage rollers for soft tissue massage, with the purpose of improving mobility in the muscular fascia. Moreover, the use of SMR by professional and amateur athletes during warm-ups, cool downs, and workouts can have significant effects on their physical performance attributes, such as range of motion (ROM) and strength. The purpose of this study was to analyse the literature pertaining to these types of interventions and their effects found in different physical performance attributes for athletes. A systematic search was carried out using the following databases: PUBMED, ISI Web of Science, ScienceDirect, and Cochrane, including articles up to September 2023. A total of 25 articles with 517 athletes were studied in depth. SMR seems to have acute positive effects on flexibility and range of motion, without affecting muscle performance during maximal strength and power actions, but favouring recovery perception and decreasing delayed-onset muscle soreness. Some positive effects on agility and very short-range high-speed actions were identified, as well. In conclusion, although there is little evidence of its method of application due to the heterogeneity in that regard, according to our findings, SMR could be used as an intervention to improve athletes’ perceptual recovery parameters, in addition to flexibility and range of motion, without negatively affecting muscle performance."
    },
    {
      "paperId": "0b7e3a7b55700193c0194de0c8af3a500ea55e95",
      "url": "https://www.semanticscholar.org/paper/0b7e3a7b55700193c0194de0c8af3a500ea55e95",
      "title": "Recovery effect of self‐myofascial release treatment using different type of a foam rollers",
      "year": 2024,
      "openAccessPdf": {
        "url": "https://doi.org/10.1038/s41598-024-66577-x",
        "status": "GOLD",
        "license": "CCBY",
        "disclaimer": "Notice: Paper or abstract available at https://pmc.ncbi.nlm.nih.gov/articles/PMC11233653, which is subject to the license by the author or copyright owner provided with this content. Please go to the source to verify the license and copyright information for your use."
      },
      "authors": [
        {
          "authorId": "2310594756",
          "name": "Bartłomiej Michalak"
        },
        {
          "authorId": "7723498",
          "name": "A. Kopiczko"
        },
        {
          "authorId": "2310595599",
          "name": "Robert Gajda"
        },
        {
          "authorId": "50711253",
          "name": "J. Adamczyk"
        }
      ],
      "abstract": "Among athletes, foam rolling is popular technique of myofascial release aimed to support recovery processes and counteract delayed onset muscle soreness. However, there is no consensus on the optimal parameters of the roller texture used in the procedure. The study aimed to determine whether using rollers with different textures and hardness (smooth/soft, grooved/mid, serrated/hard) in myofascial release affects post-exertional restitution rate and the level of perceived DOMS (Delayed Onset Muscle Soreness) after intense anaerobic exercise. The study involved 60 healthy and physically active men randomly divided into three experimental groups and one control group (passive rest)—each consisting of 15 individuals: STH—rolling with a smooth roller; G—rolling with a grooved roller; TP—rolling with a serrated roller; Pass—passive rest group. After performing a exercise test (one-minute high-intensity squat), blood lactate (LA), creatine kinase (CK) and pain perception (VAS Scale) were monitored. The analysis of the average LA concentration in the blood 30 min post-exercise showed a statistical difference for all rolling groups compared to the passive rest group: STH (p < 0.001), G (p < 0.001), TP (p = 0.035). No statistically significant differences were found between the CK measurement results in individual assessments. Statistically significant differences in VAS values were observed between G (p = 0.013) and TP (p = 0.006) groups and the Pass group at 48 h, as well as between STH (p = 0.003); G (p = 0.001); TP (p < 0.001) groups and the Pass group at 72 h. Based on statistical data, a strong influence (η2 = 0.578) of time on the quadriceps VAS variable was noted. The research results confirm the effectiveness of rolling in supporting immediate and prolonged recovery. The conducted studies indicate a significantly better pace of post-exertional recovery after a rolling procedure lasting at least 120 s. The texture and hardness of the tool used did not matter with such a duration of the treatment."
    },
    {
      "paperId": "70abe4a4382a755352e223cd96ac0c5739b5d991",
      "url": "https://www.semanticscholar.org/paper/70abe4a4382a755352e223cd96ac0c5739b5d991",
      "title": "The Effects of Different Myofascial Release Techniques on Pain, Range of Motion, and Muscle Strength in Athletes With Iliotibial Band Tightness: A Randomized Controlled Study.",
      "year": 2024,
      "openAccessPdf": {
        "url": "",
        "status": "CLOSED",
        "license": null,
        "disclaimer": "Notice: Paper or abstract available at https://api.unpaywall.org/v2/10.1123/jsr.2023-0375?email=<INSERT_YOUR_EMAIL> or https://doi.org/10.1123/jsr.2023-0375, which is subject to the license by the author or copyright owner provided with this content. Please go to the source to verify the license and copyright information for your use."
      },
      "authors": [
        {
          "authorId": "2185319906",
          "name": "B. S. Unuvar"
        },
        {
          "authorId": "87500511",
          "name": "Ertuğrul Demirdel"
        },
        {
          "authorId": "66948999",
          "name": "H. Gerçek"
        }
      ],
      "abstract": "CONTEXT\nWe designed this study to investigate the effects of 2 myofascial release techniques, Instrument-Assisted Soft Tissue Mobilization (IASTM) and Foam Roller (FR), on pain, joint range of motion, and muscle strength in athletes suffering from iliotibial band (ITB) tightness.\n\n\nDESIGN\nA total of 39 male soccer players were enrolled in this randomized controlled trial, aged between 18 and 23 years who were divided into 3 groups: Only Exercise, IASTM, and FR.\n\n\nMETHODS\nAll participants performed daily strengthening and stretching exercises, while 1 group added IASTM, and the other added FR to the exercise program. We evaluated ITB tightness with the Ober test and an inclinometer, pressure pain threshold, using an algometer, and we evaluated muscle strength with the Cybex Norm Isokinetic device.\n\n\nRESULTS\nWe found that all 3 groups exhibited an increase in the Ober inclination angle after the interventions (P = .001), but the increase was greater for participants in the IASTM and FR groups, compared with exercise alone. Additionally, both the IASTM and FR groups displayed an increased pressure pain threshold (P = .001), whereas there was no change in the control group. Moreover, while all 3 groups experienced an increase in hip muscle strength (P = .001), the IASTM and FR groups exhibited a greater increase compared with exercise alone (P = .001).\n\n\nCONCLUSIONS\nBased on these findings, exercise improves pain, range of motion, and muscle strength in athletes with ITB tightness, and IASTM, and FR techniques enhanced exercise effects but did not differ from one another. While our study demonstrated that both IASTM and FR techniques significantly enhance the benefits of exercise for athletes with ITB tightness, further research could delve into the long-term effects of these interventions."
    },
    {
      "paperId": "9d8fa82049aad262c378b752165061f7816eed37",
      "url": "https://www.semanticscholar.org/paper/9d8fa82049aad262c378b752165061f7816eed37",
      "title": "Effects of Myofascial Release Technique along with Cognitive Behavior Therapy in University Students with Chronic Neck Pain and Forward Head Posture: A Randomized Clinical Trial",
      "year": 2024,
      "openAccessPdf": {
        "url": "https://www.mdpi.com/2076-328X/14/3/205/pdf?version=1709553852",
        "status": "GOLD",
        "license": "CCBY",
        "disclaimer": "Notice: Paper or abstract available at https://pmc.ncbi.nlm.nih.gov/articles/PMC10968522, which is subject to the license by the author or copyright owner provided with this content. Please go to the source to verify the license and copyright information for your use."
      },
      "authors": [
        {
          "authorId": "81340723",
          "name": "Sahreen Anwar"
        },
        {
          "authorId": "2293673011",
          "name": "Junaid Zahid"
        },
        {
          "authorId": "133734017",
          "name": "C. Alexe"
        },
        {
          "authorId": "2293671858",
          "name": "Abdullah Ghazi"
        },
        {
          "authorId": "2266959841",
          "name": "Gabriel Mareș"
        },
        {
          "authorId": "2293671748",
          "name": "Zainab Sheraz"
        },
        {
          "authorId": "1405231722",
          "name": "Rubén Sánchez-Gómez"
        },
        {
          "authorId": "81740832",
          "name": "Wajida Perveen"
        },
        {
          "authorId": "83466192",
          "name": "D. Alexe"
        },
        {
          "authorId": "66880876",
          "name": "Qais Gsibat Gasibat"
        }
      ],
      "abstract": "The purpose of this randomized controlled trial was to evaluate the effectiveness of the Myofascial Release Technique (MRT) along with Cognitive Behavioral Therapy (CBT) on pain, craniovertebral angle (CVA), and neck disability in university students with chronic neck pain and forward head posture. A total of sixty-six eligible participants with chronic neck pain and forward head posture were randomized into the Myofascial Release Therapy (MRT) group (n = 33) and MRT and Cognitive Behavior Therapy (CBT) group (n = 33). Clinical outcomes included neck pain measured using the numerical pain rating scale, neck disability measured through the neck disability index, and forward head posture measured through the cranial vertebral angle. The outcomes were assessed at baseline and the four and eight weeks after the intervention. Both groups showed significant improvement in pain intensity, CVA, and neck disability after the intervention. However, the CBT group demonstrated greater improvements than the MRT group. The difference in outcomes between the groups was statistically significant. Myofascial Release Therapy combined with CBT is an effective treatment method for patients with chronic neck pain and forward head posture."
    }
  ]
}