{
  "total": 2779258,
  "offset": 0,
  "next": 3,
  "data": [
    {
      "paperId": "464daaa02a11ee608b393f07e951ce2c5e18e49d",
      "url": "https://www.semanticscholar.org/paper/464daaa02a11ee608b393f07e951ce2c5e18e49d",
      "title": "Temporal dynamics of short-term neural adaptation across human visual cortex",
      "year": 2023,
      "openAccessPdf": {
        "url": "https://www.ncbi.nlm.nih.gov/pmc/articles/PMC10515883",
        "status": "GREEN",
        "license": "CCBY",
        "disclaimer": "Notice: Paper or abstract available at https://pmc.ncbi.nlm.nih.gov/articles/PMC11166327, which is subject to the license by the author or copyright owner provided with this content. Please go to the source to verify the license and copyright information for your use."
      },
      "authors": [
        {
          "authorId": "2197273104",
          "name": "A. Brands"
        },
        {
          "authorId": "7006458",
          "name": "S. Devore"
        },
        {
          "authorId": "145966661",
          "name": "O. Devinsky"
        },
        {
          "authorId": "1930801299",
          "name": "W. Doyle"
        },
        {
          "authorId": "145898353",
          "name": "A. Flinker"
        },
        {
          "authorId": "2242379946",
          "name": "Daniel Friedman"
        },
        {
          "authorId": "38679576",
          "name": "Patricia Dugan"
        },
        {
          "authorId": "2238335380",
          "name": "J. Winawer"
        },
        {
          "authorId": "145937014",
          "name": "I. Groen"
        }
      ],
      "abstract": "Neural responses in visual cortex adapt to prolonged and repeated stimuli. While adaptation occurs across the visual cortex, it is unclear how adaptation patterns and computational mechanisms differ across the visual hierarchy. Here we characterize two signatures of short-term neural adaptation in time-varying intracranial electroencephalography (iEEG) data collected while participants viewed naturalistic image categories varying in duration and repetition interval. Ventraland lateral-occipitotemporal cortex exhibit slower and prolonged adaptation to single stimuli and slower recovery from adaptation to repeated stimuli compared to V1-V3. For category-selective electrodes, recovery from adaptation is slower for preferred than non-preferred stimuli. To model neural adaptation we augment our delayed divisive normalization (DN) model by scaling the input strength as a function of stimulus category, enabling the model to accurately predict neural responses across multiple image categories. The model fits suggest that differences in adaptation patterns arise from slower normalization dynamics in higher visual areas interacting with differences in input strength resulting from category selectivity. Our results reveal systematic differences in temporal adaptation of neural population responses across the human visual hierarchy and show that a single computational model of history-dependent normalization dynamics, fit with area-specific parameters, accounts for these differences. Author summary Neural responses in visual cortex adapt over time, with reduced responses to prolonged and repeated stimuli. Here, we examine how adaptation patterns differ across the visual hierarchy in neural responses recorded from human visual cortex with high temporal and spatial precision. To identify possible neural computations underlying short-term adaptation, we fit the response time courses using a temporal divisive normalization model. The model accurately predicts prolonged and repeated responses in lower and higher visual areas, and reveals differences in temporal adaptation across the visual hierarchy and stimulus categories. Our model suggests that differences in adaptation patterns result from differences in divisive normalization dynamics. Our findings shed light on how information is integrated in the brain on a millisecond-time scale and offer an intuitive framework to study the emergence of neural dynamics across brain areas and stimuli."
    },
    {
      "paperId": "0060745e006c5f14ec326904119dca19c6545e51",
      "url": "https://www.semanticscholar.org/paper/0060745e006c5f14ec326904119dca19c6545e51",
      "title": "Improving neural networks by preventing co-adaptation of feature detectors",
      "year": 2012,
      "openAccessPdf": {
        "url": "",
        "status": null,
        "license": null,
        "disclaimer": "Notice: Paper or abstract available at https://arxiv.org/abs/1207.0580, which is subject to the license by the author or copyright owner provided with this content. Please go to the source to verify the license and copyright information for your use."
      },
      "authors": [
        {
          "authorId": "1695689",
          "name": "Geoffrey E. Hinton"
        },
        {
          "authorId": "2897313",
          "name": "Nitish Srivastava"
        },
        {
          "authorId": "2064160",
          "name": "A. Krizhevsky"
        },
        {
          "authorId": "1701686",
          "name": "I. Sutskever"
        },
        {
          "authorId": "145124475",
          "name": "R. Salakhutdinov"
        }
      ],
      "abstract": "When a large feedforward neural network is trained on a small training set, it typically performs poorly on held-out test data. This \"overfitting\" is greatly reduced by randomly omitting half of the feature detectors on each training case. This prevents complex co-adaptations in which a feature detector is only helpful in the context of several other specific feature detectors. Instead, each neuron learns to detect a feature that is generally helpful for producing the correct answer given the combinatorially large variety of internal contexts in which it must operate. Random \"dropout\" gives big improvements on many benchmark tasks and sets new records for speech and object recognition."
    },
    {
      "paperId": "f238be162329eef73de0f532703076d3f6077023",
      "url": "https://www.semanticscholar.org/paper/f238be162329eef73de0f532703076d3f6077023",
      "title": "Domain Neural Adaptation",
      "year": 2022,
      "openAccessPdf": {
        "url": "",
        "status": "CLOSED",
        "license": null,
        "disclaimer": "Notice: Paper or abstract available at https://api.unpaywall.org/v2/10.1109/TNNLS.2022.3151683?email=<INSERT_YOUR_EMAIL> or https://doi.org/10.1109/TNNLS.2022.3151683, which is subject to the license by the author or copyright owner provided with this content. Please go to the source to verify the license and copyright information for your use."
      },
      "authors": [
        {
          "authorId": "66860739",
          "name": "Sentao Chen"
        },
        {
          "authorId": "1557395510",
          "name": "Zijie Hong"
        },
        {
          "authorId": "23911916",
          "name": "Mehrtash Harandi"
        },
        {
          "authorId": "2145263935",
          "name": "Xiaowei Yang"
        }
      ],
      "abstract": "Domain adaptation is concerned with the problem of generalizing a classification model to a target domain with little or no labeled data, by leveraging the abundant labeled data from a related source domain. The source and target domains possess different joint probability distributions, making it challenging for model generalization. In this article, we introduce domain neural adaptation (DNA): an approach that exploits nonlinear deep neural network to 1) match the source and target joint distributions in the network activation space and 2) learn the classifier in an end-to-end manner. Specifically, we employ the relative chi-square divergence to compare the two joint distributions, and show that the divergence can be estimated via seeking the maximal value of a quadratic functional over the reproducing kernel hilbert space. The analytic solution to this maximization problem enables us to explicitly express the divergence estimate as a function of the neural network mapping. We optimize the network parameters to minimize the estimated joint distribution divergence and the classification loss, yielding a classification model that generalizes well to the target domain. Empirical results on several visual datasets demonstrate that our solution is statistically better than its competitors."
    }
  ]
}