{
  "total": 6230569,
  "offset": 0,
  "next": 3,
  "data": [
    {
      "paperId": "abeb0a3504bb7142853f5105a1dc6177e6db8c2e",
      "url": "https://www.semanticscholar.org/paper/abeb0a3504bb7142853f5105a1dc6177e6db8c2e",
      "title": "Targeting oxidative stress in disease: promise and limitations of antioxidant therapy",
      "year": 2021,
      "openAccessPdf": {
        "url": "https://www.nature.com/articles/s41573-021-00233-1.pdf",
        "status": "BRONZE",
        "license": null,
        "disclaimer": "Notice: Paper or abstract available at https://pmc.ncbi.nlm.nih.gov/articles/PMC8243062, which is subject to the license by the author or copyright owner provided with this content. Please go to the source to verify the license and copyright information for your use."
      },
      "authors": [
        {
          "authorId": "144869800",
          "name": "H. Forman"
        },
        {
          "authorId": "49724350",
          "name": "Hongqiao Zhang"
        }
      ],
      "abstract": "Oxidative stress is a component of many diseases, including atherosclerosis, chronic obstructive pulmonary disease, Alzheimer disease and cancer. Although numerous small molecules evaluated as antioxidants have exhibited therapeutic potential in preclinical studies, clinical trial results have been disappointing. A greater understanding of the mechanisms through which antioxidants act and where and when they are effective may provide a rational approach that leads to greater pharmacological success. Here, we review the relationships between oxidative stress, redox signalling and disease, the mechanisms through which oxidative stress can contribute to pathology, how antioxidant defences work, what limits their effectiveness and how antioxidant defences can be increased through physiological signalling, dietary components and potential pharmaceutical intervention. Although oxidative stress is associated with a broad range of diseases, therapeutic antioxidant approaches have so far been disappointing. Here, Forman and Zhang review the roles of oxidative stress and redox signalling in disease, assess antioxidant therapeutic strategies and highlight key limitations that have challenged their clinical application."
    },
    {
      "paperId": "abdd2f05f5822aeb73759a0339f5fc5d803f1f57",
      "url": "https://www.semanticscholar.org/paper/abdd2f05f5822aeb73759a0339f5fc5d803f1f57",
      "title": "Reactive oxygen species, toxicity, oxidative stress, and antioxidants: chronic diseases and aging",
      "year": 2023,
      "openAccessPdf": {
        "url": "https://link.springer.com/content/pdf/10.1007/s00204-023-03562-9.pdf",
        "status": "HYBRID",
        "license": "CCBY",
        "disclaimer": "Notice: Paper or abstract available at https://pmc.ncbi.nlm.nih.gov/articles/PMC10475008, which is subject to the license by the author or copyright owner provided with this content. Please go to the source to verify the license and copyright information for your use."
      },
      "authors": [
        {
          "authorId": "6724069",
          "name": "K. Jomová"
        },
        {
          "authorId": "2232592459",
          "name": "Renáta Raptová"
        },
        {
          "authorId": "2392523",
          "name": "S. Alomar"
        },
        {
          "authorId": "49983033",
          "name": "S. Alwasel"
        },
        {
          "authorId": "6435043",
          "name": "E. Nepovimova"
        },
        {
          "authorId": "144733650",
          "name": "K. Kuča"
        },
        {
          "authorId": "34784980",
          "name": "M. Valko"
        }
      ],
      "abstract": "A physiological level of oxygen/nitrogen free radicals and non-radical reactive species (collectively known as ROS/RNS) is termed oxidative eustress or “good stress” and is characterized by low to mild levels of oxidants involved in the regulation of various biochemical transformations such as carboxylation, hydroxylation, peroxidation, or modulation of signal transduction pathways such as Nuclear factor-κB (NF-κB), Mitogen-activated protein kinase (MAPK) cascade, phosphoinositide-3-kinase, nuclear factor erythroid 2–related factor 2 (Nrf2) and other processes. Increased levels of ROS/RNS, generated from both endogenous (mitochondria, NADPH oxidases) and/or exogenous sources (radiation, certain drugs, foods, cigarette smoking, pollution) result in a harmful condition termed oxidative stress (“bad stress”). Although it is widely accepted, that many chronic diseases are multifactorial in origin, they share oxidative stress as a common denominator. Here we review the importance of oxidative stress and the mechanisms through which oxidative stress contributes to the pathological states of an organism. Attention is focused on the chemistry of ROS and RNS (e.g. superoxide radical, hydrogen peroxide, hydroxyl radicals, peroxyl radicals, nitric oxide, peroxynitrite), and their role in oxidative damage of DNA, proteins, and membrane lipids. Quantitative and qualitative assessment of oxidative stress biomarkers is also discussed. Oxidative stress contributes to the pathology of cancer, cardiovascular diseases, diabetes, neurological disorders (Alzheimer’s and Parkinson’s diseases, Down syndrome), psychiatric diseases (depression, schizophrenia, bipolar disorder), renal disease, lung disease (chronic pulmonary obstruction, lung cancer), and aging. The concerted action of antioxidants to ameliorate the harmful effect of oxidative stress is achieved by antioxidant enzymes (Superoxide dismutases-SODs, catalase, glutathione peroxidase-GPx), and small molecular weight antioxidants (vitamins C and E, flavonoids, carotenoids, melatonin, ergothioneine, and others). Perhaps one of the most effective low molecular weight antioxidants is vitamin E, the first line of defense against the peroxidation of lipids. A promising approach appears to be the use of certain antioxidants (e.g. flavonoids), showing weak prooxidant properties that may boost cellular antioxidant systems and thus act as preventive anticancer agents. Redox metal-based enzyme mimetic compounds as potential pharmaceutical interventions and sirtuins as promising therapeutic targets for age-related diseases and anti-aging strategies are discussed."
    },
    {
      "paperId": "c4db6456b5a1e0fe798847aeab2ccdfcfb45bb39",
      "url": "https://www.semanticscholar.org/paper/c4db6456b5a1e0fe798847aeab2ccdfcfb45bb39",
      "title": "Oxidative Stress: Harms and Benefits for Human Health",
      "year": 2017,
      "openAccessPdf": {
        "url": "http://downloads.hindawi.com/journals/omcl/2017/8416763.pdf",
        "status": "HYBRID",
        "license": "CCBY",
        "disclaimer": "Notice: Paper or abstract available at https://pmc.ncbi.nlm.nih.gov/articles/PMC5551541, which is subject to the license by the author or copyright owner provided with this content. Please go to the source to verify the license and copyright information for your use."
      },
      "authors": [
        {
          "authorId": "6148741",
          "name": "G. Pizzino"
        },
        {
          "authorId": "6907853",
          "name": "N. Irrera"
        },
        {
          "authorId": "4844676",
          "name": "M. Cucinotta"
        },
        {
          "authorId": "6134503",
          "name": "Giovanni Pallio"
        },
        {
          "authorId": "47820957",
          "name": "Federica Mannino"
        },
        {
          "authorId": "6697470",
          "name": "V. Arcoraci"
        },
        {
          "authorId": "3892579",
          "name": "F. Squadrito"
        },
        {
          "authorId": "3789443",
          "name": "D. Altavilla"
        },
        {
          "authorId": "3566502",
          "name": "A. Bitto"
        }
      ],
      "abstract": "Oxidative stress is a phenomenon caused by an imbalance between production and accumulation of oxygen reactive species (ROS) in cells and tissues and the ability of a biological system to detoxify these reactive products. ROS can play, and in fact they do it, several physiological roles (i.e., cell signaling), and they are normally generated as by-products of oxygen metabolism; despite this, environmental stressors (i.e., UV, ionizing radiations, pollutants, and heavy metals) and xenobiotics (i.e., antiblastic drugs) contribute to greatly increase ROS production, therefore causing the imbalance that leads to cell and tissue damage (oxidative stress). Several antioxidants have been exploited in recent years for their actual or supposed beneficial effect against oxidative stress, such as vitamin E, flavonoids, and polyphenols. While we tend to describe oxidative stress just as harmful for human body, it is true as well that it is exploited as a therapeutic approach to treat clinical conditions such as cancer, with a certain degree of clinical success. In this review, we will describe the most recent findings in the oxidative stress field, highlighting both its bad and good sides for human health."
    }
  ]
}