{
  "total": 2367694,
  "offset": 0,
  "next": 3,
  "data": [
    {
      "paperId": "2dca89408cbbbbc40bcb3cdf75a67ea4f47b4673",
      "url": "https://www.semanticscholar.org/paper/2dca89408cbbbbc40bcb3cdf75a67ea4f47b4673",
      "title": "Contribution of oxygen extraction fraction to maximal oxygen uptake in healthy young men",
      "year": 2020,
      "openAccessPdf": {
        "url": "https://onlinelibrary.wiley.com/doi/pdfdirect/10.1111/apha.13486",
        "status": "HYBRID",
        "license": "CCBY",
        "disclaimer": "Notice: Paper or abstract available at https://pmc.ncbi.nlm.nih.gov/articles/PMC7540168, which is subject to the license by the author or copyright owner provided with this content. Please go to the source to verify the license and copyright information for your use."
      },
      "authors": [
        {
          "authorId": "6469451",
          "name": "Ø. Skattebo"
        },
        {
          "authorId": "32747840",
          "name": "J. Calbet"
        },
        {
          "authorId": "49197470",
          "name": "B. Rud"
        },
        {
          "authorId": "1938410",
          "name": "C. Capelli"
        },
        {
          "authorId": "3172041",
          "name": "J. Hallén"
        }
      ],
      "abstract": "We analysed the importance of systemic and peripheral arteriovenous O2 difference ( a-v¯O2 difference and a‐vfO2 difference, respectively) and O2 extraction fraction for maximal oxygen uptake ( V˙O2max ). Fick law of diffusion and the Piiper and Scheid model were applied to investigate whether diffusion versus perfusion limitations vary with V˙O2max . Articles (n = 17) publishing individual data (n = 154) on V˙O2max , maximal cardiac output ( Q˙max ; indicator‐dilution or the Fick method), a-v¯O2 difference (catheters or the Fick equation) and systemic O2 extraction fraction were identified. For the peripheral responses, group‐mean data (articles: n = 27; subjects: n = 234) on leg blood flow (LBF; thermodilution), a‐vfO2 difference and O2 extraction fraction (arterial and femoral venous catheters) were obtained. Q˙max and two‐LBF increased linearly by 4.9‐6.0 L · min–1 per 1 L · min–1 increase in V˙O2max (R2 = .73 and R2 = .67, respectively; both P < .001). The a-v¯O2 difference increased from 118‐168 mL · L–1 from a V˙O2max of 2‐4.5 L · min–1 followed by a reduction (second‐order polynomial: R2 = .27). After accounting for a hypoxemia‐induced decrease in arterial O2 content with increasing V˙O2max (R2 = .17; P < .001), systemic O2 extraction fraction increased up to ~90% ( V˙O2max : 4.5 L · min–1) with no further change (exponential decay model: R2 = .42). Likewise, leg O2 extraction fraction increased with V˙O2max to approach a maximal value of ~90‐95% (R2 = .83). Muscle O2 diffusing capacity and the equilibration index Y increased linearly with V˙O2max (R2 = .77 and R2 = .31, respectively; both P < .01), reflecting decreasing O2 diffusional limitations and accentuating O2 delivery limitations. In conclusion, although O2 delivery is the main limiting factor to V˙O2max , enhanced O2 extraction fraction (≥90%) contributes to the remarkably high V˙O2max in endurance‐trained individuals."
    },
    {
      "paperId": "4582fc1a89f354068cd0ad09e527abc96a27b9c2",
      "url": "https://www.semanticscholar.org/paper/4582fc1a89f354068cd0ad09e527abc96a27b9c2",
      "title": "Oxygen Uptake",
      "year": 2021,
      "openAccessPdf": {
        "url": "https://doi.org/10.1097/00000542-197102000-00052",
        "status": "BRONZE",
        "license": null,
        "disclaimer": "Notice: Paper or abstract available at https://api.unpaywall.org/v2/10.1097/00000542-197102000-00052?email=<INSERT_YOUR_EMAIL> or https://doi.org/10.1097/00000542-197102000-00052, which is subject to the license by the author or copyright owner provided with this content. Please go to the source to verify the license and copyright information for your use."
      },
      "authors": [
        {
          "authorId": "143871053",
          "name": "C. P. Larson"
        }
      ],
      "abstract": null
    },
    {
      "paperId": "3939214484f8424a17b582adfa96a4afd87771c3",
      "url": "https://www.semanticscholar.org/paper/3939214484f8424a17b582adfa96a4afd87771c3",
      "title": "Oxygen uptake",
      "year": 2021,
      "openAccessPdf": {
        "url": "",
        "status": "CLOSED",
        "license": null,
        "disclaimer": "Notice: Paper or abstract available at https://api.unpaywall.org/v2/10.1093/med/9780198702467.003.0003?email=<INSERT_YOUR_EMAIL> or https://doi.org/10.1093/med/9780198702467.003.0003, which is subject to the license by the author or copyright owner provided with this content. Please go to the source to verify the license and copyright information for your use."
      },
      "authors": [
        {
          "authorId": "3447649",
          "name": "W. Kinnear"
        },
        {
          "authorId": "144904479",
          "name": "J. Hull"
        }
      ],
      "abstract": "This chapter describes how the most important parameter measured during a cardiopulmonary exercise test (CPET) is the volume of oxygen taken up by the body at peak exercise. This is called the maximum oxygen uptake, or VO2max. Sometimes the terms ‘peak’ and ‘maximal’ are also used to describe oxygen uptake. It is measured by looking at the volume of air inspired and the oxygen content of the expired air. Predicted values depend on age and sex. A VO2max of more than 80% of predicted makes significant heart or lung disease unlikely. The lower the VO2max, the worse the prognosis."
    }
  ]
}