{
  "total": 6836128,
  "offset": 0,
  "next": 5,
  "data": [
    {
      "paperId": "6050ea683eaf69a2249ed7a38c0d2168d1f735ce",
      "url": "https://www.semanticscholar.org/paper/6050ea683eaf69a2249ed7a38c0d2168d1f735ce",
      "title": "Belief That Caffeine Ingestion Improves Performance in a 6-Minute Time Trial Test without Affecting Pacing Strategy",
      "year": 2024,
      "openAccessPdf": {
        "url": "https://www.mdpi.com/2072-6643/16/2/327/pdf?version=1705932418",
        "status": "GOLD",
        "license": "CCBY",
        "disclaimer": "Notice: Paper or abstract available at https://pmc.ncbi.nlm.nih.gov/articles/PMC10819016, which is subject to the license by the author or copyright owner provided with this content. Please go to the source to verify the license and copyright information for your use."
      },
      "authors": [
        {
          "authorId": "2280449275",
          "name": "Fernando Valero"
        },
        {
          "authorId": "1402977814",
          "name": "F. González-Mohíno"
        },
        {
          "authorId": "5605954",
          "name": "J. Salinero"
        }
      ],
      "abstract": "This study aimed to analyze the placebo effect associated with caffeine ingestion on running performance. Methods: Thirteen recreationally trained males in long-distance running (age: 38.5 ± 11.9 years, 11.0 ± 8.8 years of running experience) performed a 6 min time trial test in each experimental condition (caffeine-informed/placebo ingested (placebo) and non-ingested (control)) separated by 7 days. The total distance covered was measured, and partial times of each 400 m were used to analyze the pacing strategy. Heart rate and kinematic variables were recorded for each split. In addition, the rate of perceived exertion and prevalence of caffeine side effects was measured using questionnaires. Results: Placebo ingestion improved running performance in the 6 min time trial test (1668 ± 139 m placebo vs. 1642 ± 158 m control, t = 2.49; p = 0.03; moderate ES = 0.69), while pacing, heart rate, RPE, and kinematic variables were similar between conditions (p > 0.05 in all cases). Minor side effects were reported. Conclusions: Beliefs of caffeine ingestion can improve running performance at speeds around maximal aerobic speed in recreationally trained runners without affecting pacing strategy so this “nutritional” strategy could be useful in competition scenarios. As a practical application, recreationally trained runners could improve ≈5 s in 1500 m or mile competitions."
    },
    {
      "paperId": "d4b095dc4aa20c5b40c51614e5f9cbd51a0480d3",
      "url": "https://www.semanticscholar.org/paper/d4b095dc4aa20c5b40c51614e5f9cbd51a0480d3",
      "title": "Competition Between Desired Competitive Result, Tolerable Homeostatic Disturbance, and Psychophysiological Interpretation Determines Pacing Strategy.",
      "year": 2023,
      "openAccessPdf": {
        "url": "https://journals.humankinetics.com/downloadpdf/journals/ijspp/18/4/article-p335.pdf",
        "status": "BRONZE",
        "license": null,
        "disclaimer": "Notice: Paper or abstract available at https://api.unpaywall.org/v2/10.1123/ijspp.2022-0171?email=<INSERT_YOUR_EMAIL> or https://doi.org/10.1123/ijspp.2022-0171, which is subject to the license by the author or copyright owner provided with this content. Please go to the source to verify the license and copyright information for your use."
      },
      "authors": [
        {
          "authorId": "2172713746",
          "name": "C. Foster"
        },
        {
          "authorId": "117010649",
          "name": "J. D. de Koning"
        },
        {
          "authorId": "6996199",
          "name": "F. Hettinga"
        },
        {
          "authorId": "144906520",
          "name": "R. Barroso"
        },
        {
          "authorId": "2392399971",
          "name": "Daniel A. Boullosa"
        },
        {
          "authorId": "48603764",
          "name": "A. Casado"
        },
        {
          "authorId": "2647445",
          "name": "C. Cortis"
        },
        {
          "authorId": "49375101",
          "name": "Andrea Fusco"
        },
        {
          "authorId": "98523587",
          "name": "H. Gregorich"
        },
        {
          "authorId": "3642805",
          "name": "Salvador J. Jaime"
        },
        {
          "authorId": "145245787",
          "name": "A. Jones"
        },
        {
          "authorId": "4691370",
          "name": "Katherine R. Malterer"
        },
        {
          "authorId": "1491893526",
          "name": "Robert Pettitt"
        },
        {
          "authorId": "5910345",
          "name": "J. Porcari"
        },
        {
          "authorId": "89313819",
          "name": "Cassie Pratt"
        },
        {
          "authorId": "88886493",
          "name": "Patrick Reinschmidt"
        },
        {
          "authorId": "31482885",
          "name": "P. Skiba"
        },
        {
          "authorId": "2210067495",
          "name": "Annabel Splinter"
        },
        {
          "authorId": "116409564",
          "name": "A. St. Clair Gibson"
        },
        {
          "authorId": "2210066774",
          "name": "Jacob St Mary"
        },
        {
          "authorId": "145337327",
          "name": "C. Thiel"
        },
        {
          "authorId": "2210065580",
          "name": "Kate Uithoven"
        },
        {
          "authorId": "4659423",
          "name": "Joyce A. C. van Tunen"
        }
      ],
      "abstract": "Scientific interest in pacing goes back >100 years. Contemporary interest, both as a feature of athletic competition and as a window into understanding fatigue, goes back >30 years. Pacing represents the pattern of energy use designed to produce a competitive result while managing fatigue of different origins. Pacing has been studied both against the clock and during head-to-head competition. Several models have been used to explain pacing, including the teleoanticipation model, the central governor model, the anticipatory-feedback-rating of perceived exertion model, the concept of a learned template, the affordance concept, the integrative governor theory, and as an explanation for \"falling behind.\" Early studies, mostly using time-trial exercise, focused on the need to manage homeostatic disturbance. More recent studies, based on head-to-head competition, have focused on an improved understanding of how psychophysiology, beyond the gestalt concept of rating of perceived exertion, can be understood as a mediator of pacing and as an explanation for falling behind. More recent approaches to pacing have focused on the elements of decision making during sport and have expanded the role of psychophysiological responses including sensory-discriminatory, affective-motivational, and cognitive-evaluative dimensions. These approaches have expanded the understanding of variations in pacing, particularly during head-to-head competition."
    },
    {
      "paperId": "35f841e63f1c7d2f99f35fbfd9d11922451051be",
      "url": "https://www.semanticscholar.org/paper/35f841e63f1c7d2f99f35fbfd9d11922451051be",
      "title": "Outcomes of left bundle branch area pacing compared to His bundle pacing as a primary pacing strategy: Systematic review and meta‐analysis",
      "year": 2023,
      "openAccessPdf": {
        "url": "https://onlinelibrary.wiley.com/doi/pdfdirect/10.1111/pace.14836",
        "status": "HYBRID",
        "license": "CCBYNC",
        "disclaimer": "Notice: Paper or abstract available at https://api.unpaywall.org/v2/10.1111/pace.14836?email=<INSERT_YOUR_EMAIL> or https://doi.org/10.1111/pace.14836, which is subject to the license by the author or copyright owner provided with this content. Please go to the source to verify the license and copyright information for your use."
      },
      "authors": [
        {
          "authorId": "14186887",
          "name": "Amr Abdin"
        },
        {
          "authorId": "2256502274",
          "name": "Christian Werner"
        },
        {
          "authorId": "35194021",
          "name": "H. Burri"
        },
        {
          "authorId": "2250705366",
          "name": "J. L. Merino"
        },
        {
          "authorId": "32301379",
          "name": "Davor Vukadinović"
        },
        {
          "authorId": "2256501846",
          "name": "Noureddin Sawan"
        },
        {
          "authorId": "2247822398",
          "name": "Jacek Gajek"
        },
        {
          "authorId": "2265849969",
          "name": "M. Böhm"
        },
        {
          "authorId": "2254298809",
          "name": "Christian Ukena"
        }
      ],
      "abstract": "Novel pacing technologies, such as His bundle pacing (HBP) and left bundle branch area pacing (LBBaP), have emerged to maintain physiological ventricular activation. We investigated the outcomes of LBBP with HBP for patients requiring a de novo permanent pacing."
    },
    {
      "paperId": "20889a819d68dfd5ea0cc6eb35708982a13bf35f",
      "url": "https://www.semanticscholar.org/paper/20889a819d68dfd5ea0cc6eb35708982a13bf35f",
      "title": "Downhill Sections Are Crucial for Performance in Trail Running Ultramarathons—A Pacing Strategy Analysis",
      "year": 2022,
      "openAccessPdf": {
        "url": "https://www.mdpi.com/2411-5142/7/4/103/pdf?version=1671101621",
        "status": "GOLD",
        "license": "CCBY",
        "disclaimer": "Notice: Paper or abstract available at https://pmc.ncbi.nlm.nih.gov/articles/PMC9680470, which is subject to the license by the author or copyright owner provided with this content. Please go to the source to verify the license and copyright information for your use."
      },
      "authors": [
        {
          "authorId": "2124793052",
          "name": "Matteo Genitrini"
        },
        {
          "authorId": "38742693",
          "name": "Julian Fritz"
        },
        {
          "authorId": "2191735682",
          "name": "G. Zimmermann"
        },
        {
          "authorId": "3016402",
          "name": "H. Schwameder"
        }
      ],
      "abstract": "Trail running is an increasingly popular discipline, especially over long-distance races (>42.195 km). Pacing strategy, i.e., how athletes modulate running speed for managing their energies during a race, appears to have a significant impact on overall performance. The aims of this study were to investigate whether performance level, terrain (i.e., uphill or downhill) and race stage affect pacing strategy and whether any interactions between these factors are evident. Race data from four race courses, with multiple editions (total races = 16), were retrieved from their respective events websites. A linear mixed effect model was applied to the full dataset, as well as to two subgroups of the top 10 male and female finishers, to assess potential differences in pacing strategy (i.e., investigated in terms of relative speed). Better finishers (i.e., athletes ranking in the best positions) tend to run downhill sections at higher relative speeds and uphill sections at lower relative speeds than slower counterparts (p < 0.001). In the later race stages, the relative speed decrease is larger in downhill sections than in uphill ones (p < 0.001) and in downhill sections, slower finishers perform systematically worse than faster ones, but the performance difference (i.e., between slower and faster finishers) becomes significantly larger in the later race stages (p < 0.001). Among elite athletes, no difference in pacing strategy between faster and slower finishers was found (p > 0.05). Both men (p < 0.001) and women (p < 0.001), in the later race stages, slow down more in downhill sections than in uphill ones. Moreover, elite women tend to slow down more than men (p < 0.001) in the later race stages, regardless of the terrain, in contrast to previous studies focusing on road ultramarathons. In conclusion, running downhill sections at higher relative speeds, most likely due to less accentuated fatigue effects, as well as minimizing performance decrease in the later race stages in downhill sections, appears to be a hallmark of the better finishers."
    },
    {
      "paperId": "78ac60d90f01f3d9d16f5b49f6c898fb1d6001b9",
      "url": "https://www.semanticscholar.org/paper/78ac60d90f01f3d9d16f5b49f6c898fb1d6001b9",
      "title": "Cross-Country Skiers With a Fast-Start Pacing Pattern Increase Time-Trial Performance by Use of a More Even Pacing Strategy.",
      "year": 2022,
      "openAccessPdf": {
        "url": "https://nih.brage.unit.no/nih-xmlui/bitstream/11250/3036049/1/Losnegard%2bIJSPP%2b2022.pdf",
        "status": "GREEN",
        "license": "other-oa",
        "disclaimer": "Notice: Paper or abstract available at https://api.unpaywall.org/v2/10.1123/ijspp.2021-0394?email=<INSERT_YOUR_EMAIL> or https://doi.org/10.1123/ijspp.2021-0394, which is subject to the license by the author or copyright owner provided with this content. Please go to the source to verify the license and copyright information for your use."
      },
      "authors": [
        {
          "authorId": "4512175",
          "name": "T. Losnegard"
        },
        {
          "authorId": "147757828",
          "name": "Ola Kristoffer Tosterud"
        },
        {
          "authorId": "2071452517",
          "name": "Kasper Kjeldsen"
        },
        {
          "authorId": "2155837807",
          "name": "Øyvind Olstad"
        },
        {
          "authorId": "4666290",
          "name": "J. Kocbach"
        }
      ],
      "abstract": "PURPOSE\nTo investigate whether skiers with a fast-start pacing pattern increase time-trial performance by use of a more even pacing strategy.\n\n\nMETHODS\nThirty-four skiers (∼17 y, 16 male) performed an individual 7.5 (3 × 2.5) km free-technique race on snow with a self-selected pacing strategy (day 1). Based on the starting pace the first ∼2 minutes (lap-1 first 600-m segment pace·7.5 km pace-1), subjects were ranked into 2 groups: an intervention group with the fastest start pace (INT, n = 17) and a control group with a more conservative pace (CON, n = 17). On day 2, INT were instructed to reduce their start pace based on their average laps-1-to-3 segment pace from day 1, while CON were instructed to maintain their day 1 strategy.\n\n\nRESULTS\nINT increased their time-trial performance more than CON from day 1 to day 2 (effect size; ES = 0.87, P < .05). From day 1 to day 2, INT slowed their start pace (mean ± 95% confidence interval; 7.7% ± 2.0%, ES = 2.00), with lowered heart rate (HR) (83% ± 2% to 81% ± 2% of HRmax) and 1 to 10 ratings of perceived exertion (5 ± 1 to 4 ± 1), but finished with a faster overall 7.5-km time (-1.9% ± 0.9%, ES = 0.99) (all P < .05). For CON, no change was found for starting pace (-0.7% ± 2.0%, P = .47), overall 7.5-km time (-0.2% ± 1.4%, ES = 0.02, P = .81), ratings of perceived exertion, or HR between days. No differences were found for end-ratings of perceived exertion (9 ± 1) or average HR between day 1 and 2 for either group.\n\n\nCONCLUSION\nSkiers with a pronounced fast-start pattern benefit by using a more even pacing strategy to optimize time-trial distance skiing performance."
    }
  ]
}