{
  "total": 3542983,
  "offset": 0,
  "next": 5,
  "data": [
    {
      "paperId": "7395b8373f89c453362151f84de68baa2f9359e2",
      "url": "https://www.semanticscholar.org/paper/7395b8373f89c453362151f84de68baa2f9359e2",
      "title": "The Effect of Polarized Training Intensity Distribution on Maximal Oxygen Uptake and Work Economy Among Endurance Athletes: A Systematic Review",
      "year": 2024,
      "openAccessPdf": {
        "url": "https://www.mdpi.com/2075-4663/12/12/326/pdf?version=1732784982",
        "status": "GOLD",
        "license": "CCBY",
        "disclaimer": "Notice: Paper or abstract available at https://pmc.ncbi.nlm.nih.gov/articles/PMC11679080, which is subject to the license by the author or copyright owner provided with this content. Please go to the source to verify the license and copyright information for your use."
      },
      "authors": [
        {
          "authorId": "2332995590",
          "name": "Henrik Lyngstad Nøst"
        },
        {
          "authorId": "18962799",
          "name": "M. A. Aune"
        },
        {
          "authorId": "5317501",
          "name": "R. van den Tillaar"
        }
      ],
      "abstract": "High-intensity training (HIT) has commonly been the most effective training method for improvement in maximal oxygen uptake (VO2max) and work economy, alongside a substantial volume of low-intensity training (LIT). The polarized training model combines both low- and high-intensity training into a specific training intensity distribution and has gained attention as a comprehensive approach. The objective of this review was to systematically search the literature in order to identify the effects of polarized training intensity distribution on VO2max, peak oxygen uptake (VO2peak), and work economy among endurance athletes. A literature search was performed using PubMed and SPORTDiscus. A total of 1836 articles were identified, and, after the selection process, 14 relevant studies were included in this review. The findings indicate that a polarized training approach seems to be effective for enhancing VO2max, VO2peak, and work economy over a short-term period for endurance athletes. Specifically, a training intensity distribution involving a moderate to high volume of HIT (15–20%) combined with a substantial volume of LIT (75–80%) appears to be the most beneficial for these improvements. It was concluded that polarized training is a beneficial approach for enhancing VO2max, VO2peak, and work economy in endurance athletes. However, the limited number of studies restricts the generalizability of these findings."
    },
    {
      "paperId": "96cbf4b82927dd81e0386c07b7f5014daa5a36f9",
      "url": "https://www.semanticscholar.org/paper/96cbf4b82927dd81e0386c07b7f5014daa5a36f9",
      "title": "Effects of Polarized Training vs. Other Training Intensity Distribution Models on Physiological Variables and Endurance Performance in Different-Level Endurance Athletes: A Scoping Review",
      "year": 2024,
      "openAccessPdf": {
        "url": "",
        "status": null,
        "license": null,
        "disclaimer": "Notice: Paper or abstract available at https://api.unpaywall.org/v2/10.1519/JSC.0000000000005033?email=<INSERT_YOUR_EMAIL> or https://doi.org/10.1519/JSC.0000000000005033, which is subject to the license by the author or copyright owner provided with this content. Please go to the source to verify the license and copyright information for your use."
      },
      "authors": [
        {
          "authorId": "2336843827",
          "name": "Tomás Rivera-Köfler"
        },
        {
          "authorId": "1429213586",
          "name": "Adrián Varela-Sanz"
        },
        {
          "authorId": "1390146172",
          "name": "Alexis Padrón-Cabo"
        },
        {
          "authorId": "1476969745",
          "name": "M. Giráldez-García"
        },
        {
          "authorId": "1841508026",
          "name": "Iker Muñoz-Pérez"
        }
      ],
      "abstract": "Abstract Rivera-Köfler, T, Varela-Sanz, A, Padrón-Cabo, A, Giráldez-García, MA, and Muñoz-Pérez, I. Effects of polarized training vs. other training intensity distribution models on physiological variables and endurance performance in different-level endurance athletes: a scoping review. J Strength Cond Res 39(3): 373–385, 2025—This scoping review aimed to analyze the long-term effects of polarized training (POL) on key endurance physiological- and performance-related variables and to systematically compare them with other training intensity distribution (TID) models in endurance athletes of different performance levels. Four TID models were analyzed: POL, pyramidal (PYR), threshold (THR), and block (BT) training models. The literature search was performed using PubMed, SportDiscus, Scopus, and Web of Science databases. Studies were selected if they met the following criteria: compared POL with any other TID model, included healthy endurance athletes, men, and/or women; reported enough information regarding the volume distribution in the different training intensity zones (i.e., zone 1, zone 2, and zone 3), assessed physiological (i.e., maximum/peak oxygen uptake, speed or power at aerobic and anaerobic thresholds, economy of movement), and performance in competition or time-trial variables. Of the 620 studies identified, 15 met the eligibility criteria and were included in this review. According to scientific evidence, POL and PYR models reported greater maximum oxygen uptake enhancements. Both POL and PYR models improved the speed or power associated with the aerobic threshold. By contrast, all TID models effectively improved the speed or power associated with the anaerobic threshold. Further research is needed to establish the effects of TID models on the economy of movement. All TID models were effective in enhancing competitive endurance performance, but testing protocols were quite heterogeneous. The POL and PYR models seem to be more effective in elite and world-class athletes, whereas there were no differences between TID models in lower-level athletes."
    },
    {
      "paperId": "b7cb7499118ba52525c9edc0d5ad0b7abe5f5a79",
      "url": "https://www.semanticscholar.org/paper/b7cb7499118ba52525c9edc0d5ad0b7abe5f5a79",
      "title": "Biseasonal Changes in Aerobic Capacity and Sports Performance in Highly Trained Mountain Bike Cyclists Applying Elements of the Polarized Training Programme",
      "year": 2024,
      "openAccessPdf": {
        "url": "",
        "status": null,
        "license": null,
        "disclaimer": "Notice: Paper or abstract available at https://api.unpaywall.org/v2/10.2478/pjst-2024-0010?email=<INSERT_YOUR_EMAIL> or https://doi.org/10.2478/pjst-2024-0010, which is subject to the license by the author or copyright owner provided with this content. Please go to the source to verify the license and copyright information for your use."
      },
      "authors": [
        {
          "authorId": "5533062",
          "name": "Rafał Hebisz"
        },
        {
          "authorId": "4103050",
          "name": "Paulina Hebisz"
        }
      ],
      "abstract": "Abstract Introduction. This study assessed maximal oxygen uptake (VO2max), power output and sports performance in mountain bike cyclists applying elements of the polarized training programme (POL) Material and Methods. Seven cyclists participated in the study. Immediately before the 2-year experiment (T1), and five times during the experiment (T2, T3, T4, T5, T6), incremental and verification tests were performed to assess VO2max, peak aerobic power (Ppeak) and power at the second ventilatory threshold (PVT2). During the experiment, sports performance in mountain bike cyclists at National Championships, European Championships, World Championships, and World Cup were analyzed. The cyclists performed POL for seven months in each year of the experiment. POL included sprint interval training, high-intensity interval training, and low-intensity endurance training. Results. In the group of cyclists VO2max [l∙min−1] increased in T6 (4.14 ± 1.13) compared to T1 (3.74 ± 0.95), Ppeak [W] increased in T4, T5 and T6 (353 ± 78.45; 350.14 ± 87.96; 360.23 ± 93.83; respectively) compared to T1 (324.14 ± 90.24), and PVT2 [W] increased in T3, T4, T5 and T6 (265.57 ± 80.66; 267.29 ± 63.74; 266.43 ± 69.29; 276.71 ± 78.99; respectively) compared to T1 (229.29 ± 62.91). Cyclists’ sports performance improved during the experiment, and one of them won bronze medal at the World Championships. Conclusions. During the biseasonal experiment using elements of the polarized training programme, improvements in VO2max, Ppeak and PVT2 were observed in cyclists, which was accompanied by better sports performance in cycling races."
    },
    {
      "paperId": "4fb887d06a6a1b4526af2f576d8989ff7f3ce302",
      "url": "https://www.semanticscholar.org/paper/4fb887d06a6a1b4526af2f576d8989ff7f3ce302",
      "title": "Greater improvement in aerobic capacity after a polarized training program including cycling interval training at low cadence (50–70 RPM) than freely chosen cadence (above 80 RPM)",
      "year": 2024,
      "openAccessPdf": {
        "url": "https://doi.org/10.1371/journal.pone.0311833",
        "status": "GOLD",
        "license": "CCBY",
        "disclaimer": "Notice: Paper or abstract available at https://pmc.ncbi.nlm.nih.gov/articles/PMC11559993, which is subject to the license by the author or copyright owner provided with this content. Please go to the source to verify the license and copyright information for your use."
      },
      "authors": [
        {
          "authorId": "5533062",
          "name": "Rafał Hebisz"
        },
        {
          "authorId": "4103050",
          "name": "Paulina Hebisz"
        }
      ],
      "abstract": "This study compared the impact of two polarized training programs (POL) on aerobic capacity in well-trained (based on maximal oxygen uptake and training experience) female cyclists. Each 8-week POL program consisted of sprint interval training (SIT) consisting of 8–12 repetitions, each lasting 30 seconds at maximal intensity, high-intensity interval training (HIIT) consisting of 4–6 repetitions, each lasting 4 minutes at an intensity of 90–100% maximal aerobic power, and low-intensity endurance training (LIT) lasting 150–180 minutes with intensity at the first ventilatory threshold. Training sessions were organized into 4-day microcycles (1st day—SIT, 2nd day—HIIT, 3rd day—LIT, and 4th day—active rest), that were repeated throughout the experiment. In the first POL program, exercise repetitions during SIT and HIIT training were performed with freely chosen cadence above 80 RPM (POLFC group, n = 12), while in the second POL program with low cadence 50–70 RPM (POLLC group, n = 12). Immediately before and after the 8-week POL intervention, participants performed an incremental test to measure maximal aerobic power (Pmax), power achieved at the second ventilatory threshold (VT2), maximal oxygen uptake (VO2max), maximal pulmonary ventilation (VEmax), and gross efficiency (GE). Moreover, participants performed VO2max verification test. Analysis of variance showed a repeated measures effect for Pmax (F = 21.62; η2 = 0.5; p = 0.00), VO2max (F = 39.39; η2 = 0.64; p = 0.00) and VEmax (F = 5.99; η2 = 0.21; p = 0.02). A repeated measures x group mixed effect was demonstrated for Pmax (F = 4.99; η2 = 0.18; p = 0.03) and VO2max (F = 6.67; η2 = 0.23; p = 0.02). Post-hoc Scheffe analysis showed that increase in Pmax were statistically significant only in POLLC group. The Friedman test showed that VT2 differed between repeated measures only in the POLLC group (χ2 = 11; p = 0.001; W = 0.917). In conclusion, it was found that POL program where SIT and HIIT were performed at low cadence was more effective in improving aerobic capacity in well-trained female cyclists, than POL with SIT and HIIT performed at freely chosen cadence. This finding is a practical application for athletes and coaches in cycling, to consider not only the intensity and duration but also the cadence used during various interval training sessions."
    },
    {
      "paperId": "9d58063f112b97fdd34105b71e8a0a95e98c3cf8",
      "url": "https://www.semanticscholar.org/paper/9d58063f112b97fdd34105b71e8a0a95e98c3cf8",
      "title": "Effects of 24-week Polarized Training vs. Threshold Training in Obese Male Adults",
      "year": 2023,
      "openAccessPdf": {
        "url": "",
        "status": "CLOSED",
        "license": null,
        "disclaimer": "Notice: Paper or abstract available at https://api.unpaywall.org/v2/10.1055/a-2123-0851?email=<INSERT_YOUR_EMAIL> or https://doi.org/10.1055/a-2123-0851, which is subject to the license by the author or copyright owner provided with this content. Please go to the source to verify the license and copyright information for your use."
      },
      "authors": [
        {
          "authorId": "2126878330",
          "name": "M. d'Alleva"
        },
        {
          "authorId": "5182879",
          "name": "N. Giovanelli"
        },
        {
          "authorId": "2161809002",
          "name": "F. Graniero"
        },
        {
          "authorId": "3076984",
          "name": "V. Billat"
        },
        {
          "authorId": "1713623992",
          "name": "F. Fiori"
        },
        {
          "authorId": "2142155955",
          "name": "M. Marinoni"
        },
        {
          "authorId": "2246847159",
          "name": "M. Parpinel"
        },
        {
          "authorId": "5648574",
          "name": "S. Lazzer"
        }
      ],
      "abstract": "Abstract The combination of high volume of moderate-intensity continuous training with a low volume of high-intensity interval training improved body composition and physical capacities in individuals with obesity. However, polarized training (POL) has never been used in adult men with obesity. Thus, the purpose of this study was to investigate changes in body composition and physical capacities induced by a 24-week POL or threshold (THR) program in obese male adults. Twenty male patients (mean age 39.8±6.3 yrs; mean body mass index [BMI] 31.6±2.7 kg∙m −2 ) participated in this study (n: 10 POL, n: 10 THR). After 24-week, body mass (BM) and fat mass (FM) decreased by -3.20±3.10 kg (P<0.05) and -3.80±2.80 kg (P<0.05), respectively, similarly in both groups. Maximal oxygen uptake (  ̇VO 2 max) and   ̇VO 2 at respiratory compensation point (RCP) increased in the POL group (+8.5±12.2 and+9.0±17.0%, P<0.05) and in the THR group (+4.24±8.64 and+4.0±6.70%, P<0.05), as well   ̇VO 2 at gas exchange threshold (GET) increased similarly in both groups (+12.8±12.0%, P<0.05). POL and THR were equally effective in improving body composition and physical capacities in obese subjects. Future studies are needed to determine whether adherence to the training program can be improved by adding a running competition compared with a group without competition at the end of the training program."
    }
  ]
}