{
  "total": 7733581,
  "offset": 0,
  "next": 5,
  "data": [
    {
      "paperId": "66d9d06e6ab8951dee128acf54a70bbc993daaf5",
      "url": "https://www.semanticscholar.org/paper/66d9d06e6ab8951dee128acf54a70bbc993daaf5",
      "title": "Review of Zinc Oxide Piezoelectric Nanogenerators: Piezoelectric Properties, Composite Structures and Power Output",
      "year": 2023,
      "openAccessPdf": {
        "url": "https://www.mdpi.com/1424-8220/23/8/3859/pdf?version=1681112893",
        "status": "GOLD",
        "license": "CCBY",
        "disclaimer": "Notice: Paper or abstract available at https://pmc.ncbi.nlm.nih.gov/articles/PMC10144910, which is subject to the license by the author or copyright owner provided with this content. Please go to the source to verify the license and copyright information for your use."
      },
      "authors": [
        {
          "authorId": "114647152",
          "name": "Neelesh Bhadwal"
        },
        {
          "authorId": "48402068",
          "name": "R. Mrad"
        },
        {
          "authorId": "1892198",
          "name": "K. Behdinan"
        }
      ],
      "abstract": "Lead-containing piezoelectric materials typically show the highest energy conversion efficiencies, but due to their toxicity they will be limited in future applications. In their bulk form, the piezoelectric properties of lead-free piezoelectric materials are significantly lower than lead-containing materials. However, the piezoelectric properties of lead-free piezoelectric materials at the nano scale can be significantly larger than the bulk scale. This review looks at the suitability of ZnO nanostructures as candidate lead-free piezoelectric materials for use in piezoelectric nanogenerators (PENGs) based on their piezoelectric properties. Of the papers reviewed, Neodymium-doped ZnO nanorods (NRs) have a comparable piezoelectric strain constant to bulk lead-based piezoelectric materials and hence are good candidates for PENGs. Piezoelectric energy harvesters typically have low power outputs and an improvement in their power density is needed. This review systematically reviews the different composite structures of ZnO PENGs to determine the effect of composite structure on power output. State-of-the-art techniques to increase the power output of PENGs are presented. Of the PENGs reviewed, the highest power output belonged to a vertically aligned ZnO nanowire (NWs) PENG (1-3 nanowire composite) with a power output of 45.87 μW/cm2 under finger tapping. Future directions of research and challenges are discussed."
    },
    {
      "paperId": "75d5ce74c0d18e9b464c08baddfae4f2eebcbeb1",
      "url": "https://www.semanticscholar.org/paper/75d5ce74c0d18e9b464c08baddfae4f2eebcbeb1",
      "title": "Investigating photovoltaic solar power output forecasting using machine learning algorithms",
      "year": 2022,
      "openAccessPdf": {
        "url": "https://www.tandfonline.com/doi/pdf/10.1080/19942060.2022.2126528?needAccess=true&role=button",
        "status": "GOLD",
        "license": "CCBY",
        "disclaimer": "Notice: Paper or abstract available at https://api.unpaywall.org/v2/10.1080/19942060.2022.2126528?email=<INSERT_YOUR_EMAIL> or https://doi.org/10.1080/19942060.2022.2126528, which is subject to the license by the author or copyright owner provided with this content. Please go to the source to verify the license and copyright information for your use."
      },
      "authors": [
        {
          "authorId": "2070382751",
          "name": "Yusuf Essam"
        },
        {
          "authorId": "1689298",
          "name": "A. Ahmed"
        },
        {
          "authorId": "33791665",
          "name": "R. Ramli"
        },
        {
          "authorId": "112919783",
          "name": "K. Chau"
        },
        {
          "authorId": "2168387378",
          "name": "Muhammad Shazril Idris Ibrahim"
        },
        {
          "authorId": "12686038",
          "name": "M. Sherif"
        },
        {
          "authorId": "11973290",
          "name": "A. Sefelnasr"
        },
        {
          "authorId": "1445486708",
          "name": "A. El-shafie"
        }
      ],
      "abstract": "Solar power integration in electrical grids is complicated due to dependence on volatile weather conditions. To address this issue, continuous research and development is required to determine the best machine learning (ML) algorithm for PV solar power output forecasting. Existing studies have established the superiority of the artificial neural network (ANN) and random forest (RF) algorithms in this field. However, more recent studies have demonstrated promising PV solar power output forecasting performances by the decision tree (DT), extreme gradient boosting (XGB), and long short-term memory (LSTM) algorithms. Therefore, the present study aims to address a research gap in this field by determining the best performer among these 5 algorithms. A data set from the United States’ National Renewable Energy Laboratory (NREL) consisting of weather parameters and solar power output data for a monocrystalline silicon PV module in Cocoa, Florida was utilized. Comparisons of forecasting scores show that the ANN algorithm is superior as the ANN16 model produces the best mean absolute error (MAE), root mean squared error (RMSE) and coefficient of determination (R 2) with values of 0.4693, 0.8816 W, and 0.9988, respectively. It is concluded that ANN is the most reliable and applicable algorithm for PV solar power output forecasting."
    },
    {
      "paperId": "7750d8b465d45327a6fda20ab566e20481aa01ca",
      "url": "https://www.semanticscholar.org/paper/7750d8b465d45327a6fda20ab566e20481aa01ca",
      "title": "Solar Photovoltaic Forecasting of Power Output Using LSTM Networks",
      "year": 2021,
      "openAccessPdf": {
        "url": "https://www.mdpi.com/2073-4433/12/1/124/pdf?version=1610964525",
        "status": "GOLD",
        "license": "CCBY",
        "disclaimer": "Notice: Paper or abstract available at https://api.unpaywall.org/v2/10.3390/ATMOS12010124?email=<INSERT_YOUR_EMAIL> or https://doi.org/10.3390/ATMOS12010124, which is subject to the license by the author or copyright owner provided with this content. Please go to the source to verify the license and copyright information for your use."
      },
      "authors": [
        {
          "authorId": "39290605",
          "name": "M. Konstantinou"
        },
        {
          "authorId": "2090164791",
          "name": "Stefani Peratikou"
        },
        {
          "authorId": "39483182",
          "name": "A. Charalambides"
        }
      ],
      "abstract": "The penetration of renewable energies has increased during the last decades since it has become an effective solution to the world’s energy challenges. Among all renewable energy sources, photovoltaic (PV) technology is the most immediate way to convert solar radiation into electricity. Nevertheless, PV power output is affected by several factors, such as location, clouds, etc. As PV plants proliferate and represent significant contributors to grid electricity production, it becomes increasingly important to manage their inherent alterability. Therefore, solar PV forecasting is a pivotal factor to support reliable and cost-effective grid operation and control. In this paper, a stacked long short-term memory network, which is a significant component of the deep recurrent neural network, is considered for the prediction of PV power output for 1.5 h ahead. Historical data of PV power output from a PV plant in Nicosia, Cyprus, were used as input to the forecasting model. Once the model was defined and trained, the model performance was assessed qualitative (by graphical tools) and quantitative (by calculating the Root Mean Square Error (RMSE) and by applying the k-fold cross-validation method). The results showed that our model can predict well, since the RMSE gives a value of 0.11368, whereas when applying the k-fold cross-validation, the mean of the resulting RMSE values is 0.09394 with a standard deviation 0.01616."
    },
    {
      "paperId": "da85d908b71ceb3089acff04999f095c253a25f9",
      "url": "https://www.semanticscholar.org/paper/da85d908b71ceb3089acff04999f095c253a25f9",
      "title": "A novel droop control method to achieve maximum power output of photovoltaic for parallel inverter system",
      "year": 2021,
      "openAccessPdf": {
        "url": "https://doi.org/10.17775/cseejpes.2020.05070",
        "status": "GOLD",
        "license": "CCBYNCND",
        "disclaimer": "Notice: Paper or abstract available at https://api.unpaywall.org/v2/10.17775/cseejpes.2020.05070?email=<INSERT_YOUR_EMAIL> or https://doi.org/10.17775/cseejpes.2020.05070, which is subject to the license by the author or copyright owner provided with this content. Please go to the source to verify the license and copyright information for your use."
      },
      "authors": [
        {
          "authorId": "2155468789",
          "name": "Wei Zhang"
        },
        {
          "authorId": "2115547793",
          "name": "Zhong Zheng"
        },
        {
          "authorId": "2109500966",
          "name": "Hongpeng Liu"
        }
      ],
      "abstract": "In general, the output power of PV inverter should be coordinated with the load. In the initial stage of the design, when the PV inverter operating in islanded mode, the load power is supposed to be no more than the maximum PV output power with the purpose to stabilize the system. However, it may waste PV cells' energy. Consequently, more and more solar panels are linked to other energy sources in order to create a parallel inverter system, which makes it feasible to fit the power output of each source. The power distribution of parallel inverter is achieved by the use of droop control in microgrid system. For such a parallel inverter system consisted of PV inverters and non-regeneration energy sources inverters without energy storage devices in islanded mode, if the shared load power is no more than the available maximum PV inverter output power, there is a power waste for PV inverter; Moreover, due to the intermittency of PV sources, the system may become unstable if the shared load power is more than the available maximum output power of PV inverter. However, the maximum utilization of the PV output energy cannot be achieved automatically with the traditional methods to add virtual impedance or adjust the droop coefficients. Thus, in order to avoid power waste and potential instability caused by insufficient PV power by traditional droop control, this paper recommends an improved droop control scheme to maximize the power output of PV units. Required by the load, the remaining power is composed of the other inverters, which could effectively improve the utilization rating of renewable energy sources and system stability. At the same time, according to the system stability analysis based on the small signal modeling, it has been designed about the droop coefficients of the improved droop control loop. In the end, the experimental results have showed that the suggested scheme has a varied validity and robustness."
    },
    {
      "paperId": "4747aca85782505327899043d9bbe71c3dbb7372",
      "url": "https://www.semanticscholar.org/paper/4747aca85782505327899043d9bbe71c3dbb7372",
      "title": "Integrating Gray Data Preprocessor and Deep Belief Network for Day-Ahead PV Power Output Forecast",
      "year": 2020,
      "openAccessPdf": {
        "url": "",
        "status": "CLOSED",
        "license": null,
        "disclaimer": "Notice: Paper or abstract available at https://api.unpaywall.org/v2/10.1109/TSTE.2018.2888548?email=<INSERT_YOUR_EMAIL> or https://doi.org/10.1109/TSTE.2018.2888548, which is subject to the license by the author or copyright owner provided with this content. Please go to the source to verify the license and copyright information for your use."
      },
      "authors": [
        {
          "authorId": "143621730",
          "name": "G. Chang"
        },
        {
          "authorId": "2109436419",
          "name": "Heng Lu"
        }
      ],
      "abstract": "Generation output forecasting is a crucial task for planning and sizing of a photovoltaic (PV) power plant. The purpose of this paper is to present an effective model for day-ahead forecasting PV power output of a plant based on deep belief network (DBN) combined with gray theory-based data preprocessor (GT-DBN), where the DBN attempts to learn high-level abstractions in historical PV output data by utilizing hierarchical architectures. Test results obtained by the proposed model are compared with those obtained by other five forecasting methods including autoregressive integrated moving average model, back propagation neural network, radial basis function neural network, support vector regression, and DBN alone. It shows that the proposed model is superior to other models in forecasting accuracy and is suitable for day-ahead PV power output prediction."
    }
  ]
}