{
  "total": 395705,
  "offset": 0,
  "next": 5,
  "data": [
    {
      "paperId": "cdf7e48f5b42847e1d7cabd7a4fdcb3761a40279",
      "url": "https://www.semanticscholar.org/paper/cdf7e48f5b42847e1d7cabd7a4fdcb3761a40279",
      "title": "Development of a new resilience scale: The Connor‐Davidson Resilience Scale (CD‐RISC)",
      "year": 2003,
      "openAccessPdf": {
        "url": "https://onlinelibrary.wiley.com/doi/pdfdirect/10.1002/da.10113",
        "status": "GOLD",
        "license": null,
        "disclaimer": "Notice: Paper or abstract available at https://api.unpaywall.org/v2/10.1002/DA.10113?email=<INSERT_YOUR_EMAIL> or https://doi.org/10.1002/DA.10113, which is subject to the license by the author or copyright owner provided with this content. Please go to the source to verify the license and copyright information for your use."
      },
      "authors": [
        {
          "authorId": "1852373",
          "name": "K. Connor"
        },
        {
          "authorId": "3631530",
          "name": "J. Davidson"
        }
      ],
      "abstract": "Resilience may be viewed as a measure of stress coping ability and, as such, could be an important target of treatment in anxiety, depression, and stress reactions. We describe a new rating scale to assess resilience. The Connor‐Davidson Resilience scale (CD‐RISC) comprises of 25 items, each rated on a 5‐point scale (0–4), with higher scores reflecting greater resilience. The scale was administered to subjects in the following groups: community sample, primary care outpatients, general psychiatric outpatients, clinical trial of generalized anxiety disorder, and two clinical trials of PTSD. The reliability, validity, and factor analytic structure of the scale were evaluated, and reference scores for study samples were calculated. Sensitivity to treatment effects was examined in subjects from the PTSD clinical trials. The scale demonstrated good psychometric properties and factor analysis yielded five factors. A repeated measures ANOVA showed that an increase in CD‐RISC score was associated with greater improvement during treatment. Improvement in CD‐RISC score was noted in proportion to overall clinical global improvement, with greatest increase noted in subjects with the highest global improvement and deterioration in CD‐RISC score in those with minimal or no global improvement. The CD‐RISC has sound psychometric properties and distinguishes between those with greater and lesser resilience. The scale demonstrates that resilience is modifiable and can improve with treatment, with greater improvement corresponding to higher levels of global improvement. Depression and Anxiety 18:76–82, 2003. © 2003 Wiley‐Liss, Inc."
    },
    {
      "paperId": "88ba1fb66de266ba0bdff310553255bac4836369",
      "url": "https://www.semanticscholar.org/paper/88ba1fb66de266ba0bdff310553255bac4836369",
      "title": "Robustness and resilience of complex networks",
      "year": 2024,
      "openAccessPdf": {
        "url": "",
        "status": "CLOSED",
        "license": null,
        "disclaimer": "Notice: Paper or abstract available at https://arxiv.org/abs/2509.19867, which is subject to the license by the author or copyright owner provided with this content. Please go to the source to verify the license and copyright information for your use."
      },
      "authors": [
        {
          "authorId": "3393921",
          "name": "Oriol Artime"
        },
        {
          "authorId": "1388016390",
          "name": "Marco Grassia"
        },
        {
          "authorId": "46617468",
          "name": "Manlio De Domenico"
        },
        {
          "authorId": "2278731036",
          "name": "James P. Gleeson"
        },
        {
          "authorId": "2337765",
          "name": "H. Makse"
        },
        {
          "authorId": "3015736",
          "name": "G. Mangioni"
        },
        {
          "authorId": "73774143",
          "name": "M. Perc"
        },
        {
          "authorId": "2260337449",
          "name": "Filippo Radicchi"
        }
      ],
      "abstract": "Complex networks are ubiquitous: a cell, the human brain, a group of people and the Internet are all examples of interconnected many-body systems characterized by macroscopic properties that cannot be trivially deduced from those of their microscopic constituents. Such systems are exposed to both internal, localized, failures and external disturbances or perturbations. Owing to their interconnected structure, complex systems might be severely degraded, to the point of disintegration or systemic dysfunction. Examples include cascading failures, triggered by an initially localized overload in power systems, and the critical slowing downs of ecosystems which can be driven towards extinction. In recent years, this general phenomenon has been investigated by framing localized and systemic failures in terms of perturbations that can alter the function of a system. We capitalize on this mathematical framework to review theoretical and computational approaches to characterize robustness and resilience of complex networks. We discuss recent approaches to mitigate the impact of perturbations in terms of designing robustness, identifying early-warning signals and adapting responses. In terms of applications, we compare the performance of the state-of-the-art dismantling techniques, highlighting their optimal range of applicability for practical problems, and provide a repository with ready-to-use scripts, a much-needed tool set. Complex biological, social and engineering systems operate through intricate connectivity patterns. Understanding their robustness and resilience against disturbances is crucial for applications. This Review addresses systemic breakdown, cascading failures and potential interventions, highlighting the importance of research at the crossroad of statistical physics and machine learning. A variety of biological, social and engineering complex systems can be defined in terms of units that exchange information through interaction networks, exhibiting diverse structural patterns such as heterogeneity, modularity and hierarchy. Owing to their interconnected nature, complex networks can amplify minor disruptions to a system-wide level, making it essential to understand their robustness against both external perturbations and internal failures. The study of complex networks’ robustness and resilience involves investigating phase transitions that usually depend on features such as degree connectivity, spatial embedding, interdependence and coupled dynamics. Network science offers a wide range of theoretical and computational methods for quantifying system robustness against perturbations, as well as grounded approaches to design robustness, identify early-warning signals and devise adaptive responses. These methods find application across a multitude of disciplines, including systems biology, systems neuroscience, engineering, and social and behavioural sciences. A variety of biological, social and engineering complex systems can be defined in terms of units that exchange information through interaction networks, exhibiting diverse structural patterns such as heterogeneity, modularity and hierarchy. Owing to their interconnected nature, complex networks can amplify minor disruptions to a system-wide level, making it essential to understand their robustness against both external perturbations and internal failures. The study of complex networks’ robustness and resilience involves investigating phase transitions that usually depend on features such as degree connectivity, spatial embedding, interdependence and coupled dynamics. Network science offers a wide range of theoretical and computational methods for quantifying system robustness against perturbations, as well as grounded approaches to design robustness, identify early-warning signals and devise adaptive responses. These methods find application across a multitude of disciplines, including systems biology, systems neuroscience, engineering, and social and behavioural sciences."
    },
    {
      "paperId": "0043cf9ba569181bd72305fa6989e22dd352c6b8",
      "url": "https://www.semanticscholar.org/paper/0043cf9ba569181bd72305fa6989e22dd352c6b8",
      "title": "Resilience and Stability of Ecological Systems",
      "year": 1973,
      "openAccessPdf": {
        "url": "",
        "status": "CLOSED",
        "license": null,
        "disclaimer": "Notice: The following paper fields have been elided by the publisher: {'abstract'}. Paper or abstract available at https://api.unpaywall.org/v2/10.1146/ANNUREV.ES.04.110173.000245?email=<INSERT_YOUR_EMAIL> or https://doi.org/10.1146/ANNUREV.ES.04.110173.000245, which is subject to the license by the author or copyright owner provided with this content. Please go to the source to verify the license and copyright information for your use."
      },
      "authors": [
        {
          "authorId": "4018132",
          "name": "C. S. Holling"
        }
      ],
      "abstract": null
    },
    {
      "paperId": "a08aba9bd5a141cb81bbdf373adcc07b4ab2ed19",
      "url": "https://www.semanticscholar.org/paper/a08aba9bd5a141cb81bbdf373adcc07b4ab2ed19",
      "title": "The construct of resilience: a critical evaluation and guidelines for future work.",
      "year": 2000,
      "openAccessPdf": {
        "url": "https://onlinelibrary.wiley.com/doi/pdfdirect/10.1111/1467-8624.00164",
        "status": "BRONZE",
        "license": null,
        "disclaimer": "Notice: The following paper fields have been elided by the publisher: {'abstract'}. Paper or abstract available at https://api.unpaywall.org/v2/10.1111/1467-8624.00164?email=<INSERT_YOUR_EMAIL> or https://doi.org/10.1111/1467-8624.00164, which is subject to the license by the author or copyright owner provided with this content. Please go to the source to verify the license and copyright information for your use."
      },
      "authors": [
        {
          "authorId": "5106361",
          "name": "S. Luthar"
        },
        {
          "authorId": "5434410",
          "name": "D. Cicchetti"
        },
        {
          "authorId": "7819499",
          "name": "Bronwyn E. Becker"
        }
      ],
      "abstract": null
    },
    {
      "paperId": "81339805d53a63e87f28e3d8c85b298d8e1be7c5",
      "url": "https://www.semanticscholar.org/paper/81339805d53a63e87f28e3d8c85b298d8e1be7c5",
      "title": "Loss, trauma, and human resilience: have we underestimated the human capacity to thrive after extremely aversive events?",
      "year": 2008,
      "openAccessPdf": {
        "url": "http://rcin.org.pl/Content/60213",
        "status": "GREEN",
        "license": null,
        "disclaimer": "Notice: The following paper fields have been elided by the publisher: {'abstract'}. Paper or abstract available at https://api.unpaywall.org/v2/10.1037/0003-066X.59.1.20?email=<INSERT_YOUR_EMAIL> or https://doi.org/10.1037/0003-066X.59.1.20, which is subject to the license by the author or copyright owner provided with this content. Please go to the source to verify the license and copyright information for your use."
      },
      "authors": [
        {
          "authorId": "5188130",
          "name": "G. Bonanno"
        }
      ],
      "abstract": null
    }
  ]
}