{
  "total": 2423428,
  "offset": 0,
  "next": 5,
  "data": [
    {
      "paperId": "58732a1da58d7354bf2ee917269d4122bd336f05",
      "url": "https://www.semanticscholar.org/paper/58732a1da58d7354bf2ee917269d4122bd336f05",
      "title": "Changes in running economy and attainable maximal oxygen consumption in response to prolonged running: The impact of training status",
      "year": 2024,
      "openAccessPdf": {
        "url": "",
        "status": "CLOSED",
        "license": null,
        "disclaimer": "Notice: Paper or abstract available at https://api.unpaywall.org/v2/10.1111/sms.14637?email=<INSERT_YOUR_EMAIL> or https://doi.org/10.1111/sms.14637, which is subject to the license by the author or copyright owner provided with this content. Please go to the source to verify the license and copyright information for your use."
      },
      "authors": [
        {
          "authorId": "6411404",
          "name": "R. Unhjem"
        }
      ],
      "abstract": "During prolonged running at moderate‐to‐high intensity, running economy (RE) deteriorates and attainable maximal oxygen consumption (VO2max) decreases. Whether these changes appear similarly in trained and untrained runners exercising at the same relative intensity is not clear. We recruited 10 trained runners (TR) and 10 active adults (AA), and compared RE and attainable VO2max before and after 1 h of running at 70% of VO2max. Submaximal VO2 increased more (p = 0.019) in AA (0.20 ± 0.13 L min−1) than in TR (0.07 ± 0.05 L min−1). Attainable VO2max decreased in AA (−0.21 ± 0.15 L min−1, p = 0.002), but remained unchanged in TR (−0.05 ± 0.10 L min−1, p = 0.18). Relative intensity (i.e., VO2/attainable VO2max), increased more (p = 0.001) in AA (8.3 ± 4.4%) than in TR (2.6 ± 1.9%). These results demonstrate that the ability to resist changes in RE and VO2max following prolonged running is superior in trained versus untrained runners, when exercising at the same relative intensity."
    },
    {
      "paperId": "a8dfef4813db6665bd5a60687b9604052ad1969a",
      "url": "https://www.semanticscholar.org/paper/a8dfef4813db6665bd5a60687b9604052ad1969a",
      "title": "The Fallacy of Single Trials: The Need for Multiple Trials in Assessing Running Economy Responses in Advanced Footwear Technology",
      "year": 2024,
      "openAccessPdf": {
        "url": "",
        "status": "CLOSED",
        "license": null,
        "disclaimer": "Notice: The following paper fields have been elided by the publisher: {'abstract'}. Paper or abstract available at https://api.unpaywall.org/v2/10.1007/s40279-023-01991-1?email=<INSERT_YOUR_EMAIL> or https://doi.org/10.1007/s40279-023-01991-1, which is subject to the license by the author or copyright owner provided with this content. Please go to the source to verify the license and copyright information for your use."
      },
      "authors": [
        {
          "authorId": "2286755028",
          "name": "Zach B Barrons"
        },
        {
          "authorId": "1959086618",
          "name": "V. Rodrigo-Carranza"
        },
        {
          "authorId": "2129472165",
          "name": "Montgomery Bertschy"
        },
        {
          "authorId": "2248632070",
          "name": "W. Hoogkamer"
        }
      ],
      "abstract": null
    },
    {
      "paperId": "a82c1383e558eaa2902c56553c2fdd7bc62881b4",
      "url": "https://www.semanticscholar.org/paper/a82c1383e558eaa2902c56553c2fdd7bc62881b4",
      "title": "The Relationship Between Running Biomechanics and Running Economy: A Systematic Review and Meta-Analysis of Observational Studies",
      "year": 2024,
      "openAccessPdf": {
        "url": "https://link.springer.com/content/pdf/10.1007/s40279-024-01997-3.pdf",
        "status": "HYBRID",
        "license": "CCBY",
        "disclaimer": "Notice: Paper or abstract available at https://pmc.ncbi.nlm.nih.gov/articles/PMC11127892, which is subject to the license by the author or copyright owner provided with this content. Please go to the source to verify the license and copyright information for your use."
      },
      "authors": [
        {
          "authorId": "7320522",
          "name": "Bas Van Hooren"
        },
        {
          "authorId": "101755857",
          "name": "Ivan Jukic"
        },
        {
          "authorId": "2191619685",
          "name": "Maartje Cox"
        },
        {
          "authorId": "2290046689",
          "name": "Koen G. Frenken"
        },
        {
          "authorId": "2013036",
          "name": "I. Bautista"
        },
        {
          "authorId": "2220487652",
          "name": "I. Moore"
        }
      ],
      "abstract": "Running biomechanics is considered an important determinant of running economy (RE). However, studies examining associations between running biomechanics and RE report inconsistent findings. The aim of this systematic review was to determine associations between running biomechanics and RE and explore potential causes of inconsistency. Three databases were searched and monitored up to April 2023. Observational studies were included if they (i) examined associations between running biomechanics and RE, or (ii) compared running biomechanics between groups differing in RE, or (iii) compared RE between groups differing in running biomechanics during level, constant-speed, and submaximal running in healthy humans (18–65 years). Risk of bias was assessed using a modified tool for observational studies and considered in the results interpretation using GRADE. Meta-analyses were performed when two or more studies reported on the same outcome. Meta-regressions were used to explore heterogeneity with speed, coefficient of variation of height, mass, and age as continuous outcomes, and standardization of running shoes, oxygen versus energetic cost, and correction for resting oxygen or energy cost as categorical outcomes. Fifty-one studies (n = 1115 participants) were included. Most spatiotemporal outcomes showed trivial and non-significant associations with RE: contact time r = − 0.02 (95% confidence interval [CI] − 0.15 to 0.12); flight time r = 0.11 (− 0.09 to 0.32); stride time r = 0.01 (− 0.8 to 0.50); duty factor r = − 0.06 (− 0.18 to 0.06); stride length r = 0.12 (− 0.15 to 0.38), and swing time r = 0.12 (− 0.13 to 0.36). A higher cadence showed a small significant association with a lower oxygen/energy cost (r = − 0.20 [− 0.35 to − 0.05]). A smaller vertical displacement and higher vertical and leg stiffness showed significant moderate associations with lower oxygen/energy cost (r = 0.35, − 0.31, − 0.28, respectively). Ankle, knee, and hip angles at initial contact, midstance or toe-off as well as their range of motion, peak vertical ground reaction force, mechanical work variables, and electromyographic activation were not significantly associated with RE, although potentially relevant trends were observed for some outcomes. Running biomechanics can explain 4–12% of the between-individual variation in RE when considered in isolation, with this magnitude potentially increasing when combining different variables. Implications for athletes, coaches, wearable technology, and researchers are discussed in the review. https://doi.org/10.17605/OSF.IO/293ND (OpenScience Framework)."
    },
    {
      "paperId": "0158abdf749bf8acad351198cedc263e3d982246",
      "url": "https://www.semanticscholar.org/paper/0158abdf749bf8acad351198cedc263e3d982246",
      "title": "Variability in Running Economy of Kenyan World-Class and European Amateur Male Runners with Advanced Footwear Running Technology: Experimental and Meta-analysis Results",
      "year": 2023,
      "openAccessPdf": {
        "url": "https://link.springer.com/content/pdf/10.1007/s40279-023-01816-1.pdf",
        "status": "HYBRID",
        "license": "CCBY",
        "disclaimer": "Notice: Paper or abstract available at https://pmc.ncbi.nlm.nih.gov/articles/PMC10185608, which is subject to the license by the author or copyright owner provided with this content. Please go to the source to verify the license and copyright information for your use."
      },
      "authors": [
        {
          "authorId": "2061827780",
          "name": "Melanie Knopp"
        },
        {
          "authorId": "1411962576",
          "name": "B. Muñiz-Pardos"
        },
        {
          "authorId": "3789469",
          "name": "H. Wackerhage"
        },
        {
          "authorId": "14698634",
          "name": "M. Schönfelder"
        },
        {
          "authorId": "46398328",
          "name": "F. Guppy"
        },
        {
          "authorId": "6136751",
          "name": "Y. Pitsiladis"
        },
        {
          "authorId": "2061087702",
          "name": "Daniel Ruiz"
        }
      ],
      "abstract": "Background Advanced footwear technology improves average running economy compared with racing flats in sub-elite athletes. However, not all athletes benefit as performance changes vary from a 10% drawback to a 14% improvement. The main beneficiaries from such technologies, world-class athletes, have only been analyzed using race times. Objective The aim of this study was to measure running economy on a laboratory treadmill in advanced footwear technology compared to a traditional racing flat in world-class Kenyan (mean half-marathon time: 59:30 min:s) versus European amateur runners. Methods Seven world-class Kenyan and seven amateur European male runners completed a maximal oxygen uptake assessment and submaximal steady-state running economy trials in three different models of advanced footwear technology and a racing flat. To confirm our results and better understand the overall effect of new technology in running shoes, we conducted a systematic search and meta-analysis. Results Laboratory results revealed large variability in both world-class Kenyan road runners, which ranged from a 11.3% drawback to a 11.4% benefit, and amateur Europeans, which ranged from a 9.7% benefit to a 1.1% drawback in running economy of advanced footwear technology compared to a flat. The post-hoc meta-analysis revealed an overall significant medium benefit of advanced footwear technology on running economy compared with traditional flats. Conclusions Variability of advanced footwear technology performance appears in both world-class and amateur runners, suggesting further testing should examine such variability to ensure validity of results and explain the cause as a more personalized approach to shoe selection might be necessary for optimal benefit."
    },
    {
      "paperId": "d551d636d54a296d168c24f81b1518192e934d4f",
      "url": "https://www.semanticscholar.org/paper/d551d636d54a296d168c24f81b1518192e934d4f",
      "title": "Effects of Highly Cushioned and Resilient Racing Shoes on Running Economy at Slower Running Speeds.",
      "year": 2023,
      "openAccessPdf": {
        "url": "",
        "status": null,
        "license": null,
        "disclaimer": "Notice: Paper or abstract available at https://api.unpaywall.org/v2/10.1123/ijspp.2022-0227?email=<INSERT_YOUR_EMAIL> or https://doi.org/10.1123/ijspp.2022-0227, which is subject to the license by the author or copyright owner provided with this content. Please go to the source to verify the license and copyright information for your use."
      },
      "authors": [
        {
          "authorId": "32594212",
          "name": "Dustin P. Joubert"
        },
        {
          "authorId": "2184406613",
          "name": "Trace A. Dominy"
        },
        {
          "authorId": "14954253",
          "name": "Geoffrey T. Burns"
        }
      ],
      "abstract": "PURPOSE\nThe Nike Vaporfly line of running shoes improves running economy by ∼2.7% to 4.2% at running speeds of 13 to 18 km·h-1. It is unclear whether similar benefits are conferred at slower speeds. Our purpose was to determine the effects of the Nike ZoomX Vaporfly Next% 2 (VFN2) on running economy at 10 and 12 km·h-1 compared with a mass-matched control (CTRL) shoe.\n\n\nMETHODS\nSixteen runners completed 4 × 5-minute trials at both 10 and 12 km·h-1 on the same day. Each shoe was tested twice at each speed in a counterbalanced, mirrored sequence. Data are displayed as mean (SD).\n\n\nRESULTS\nA 2-way repeated-measures analysis of variance showed a significant shoe × speed interaction for oxygen consumption (P = .021). At 12 km·h-1, oxygen consumption (in mL·kg-1·min-1) was lower (-1.4% [1.1%]; P < .001) for VFN2 (35.8 [1.7]) relative to CTRL (36.4 [1.7]). That was greater in magnitude than the differences observed at 10 km·h-1 (-0.9% [1.8%]; P = .065) between VFN2 (29.4 [1.9]) and CTRL (29.6 [1.9]).\n\n\nCONCLUSIONS\nFrom these data, it appears that the VFN2 still enhances running economy at 10 and 12 km·h-1; however, these benefits are smaller in magnitude compared with previous research at faster speeds."
    }
  ]
}