{
  "total": 492673,
  "offset": 0,
  "next": 5,
  "data": [
    {
      "paperId": "dc9f10b69adcd5691d9482cd18ceae22ed2dabbd",
      "url": "https://www.semanticscholar.org/paper/dc9f10b69adcd5691d9482cd18ceae22ed2dabbd",
      "title": "Deep learning model for classifying shoulder pain rehabilitation exercises using IMU sensor",
      "year": 2024,
      "openAccessPdf": {
        "url": "https://jneuroengrehab.biomedcentral.com/counter/pdf/10.1186/s12984-024-01343-8",
        "status": "GOLD",
        "license": "CCBY",
        "disclaimer": "Notice: Paper or abstract available at https://pmc.ncbi.nlm.nih.gov/articles/PMC10967210, which is subject to the license by the author or copyright owner provided with this content. Please go to the source to verify the license and copyright information for your use."
      },
      "authors": [
        {
          "authorId": "2293775389",
          "name": "Kyuwon Lee"
        },
        {
          "authorId": "2293815295",
          "name": "Jeong-Hyun Kim"
        },
        {
          "authorId": "2293857267",
          "name": "Hyeon Hong"
        },
        {
          "authorId": "2294311223",
          "name": "Yeji Jeong"
        },
        {
          "authorId": "2073589357",
          "name": "H. Ryu"
        },
        {
          "authorId": "2144348476",
          "name": "Hyundo Kim"
        },
        {
          "authorId": "2116352971",
          "name": "Shi-uk Lee"
        }
      ],
      "abstract": "Artificial intelligence is being used for rehabilitation, including monitoring exercise compliance through sensor technology. AI classification of shoulder exercise wearing an IMU sensor has only been reported in normal (i.e. painless) subjects. To prove the feasibility of monitoring exercise compliance, we aimed to classify 11 types of shoulder rehabilitation exercises using an AI (artificial intelligence) algorithm in patients with shoulder pain. We had the patients wear an IMU-based sensor, collected data during exercise, and determined the accuracy of exercise classification. Data were collected from 58 patients (27 males, 31 females, age range 37–82 years) diagnosed with shoulder diseases such as adhesive capsulitis and rotator cuff disease. 11 types of shoulder pain rehabilitation exercise programs were developed and repeated each exercise ten times per session while wearing an IMU sensor. The study applied the Rectified Linear Unit (ReLU) and the SoftMax as the activation function for hidden layers, the output layer. The acquired data was used to train a DNN model using the multilayer perceptron algorithm. The trained model was used to classify 11 types of shoulder pain rehabilitation exercises. The training accuracy was 0.975 and the test accuracy was 0.925. The study demonstrates that IMU sensor data can effectively classify shoulder pain rehabilitation exercises, providing more appropriate feedback for patients. The model can be utilized to establish a system for remotely monitoring patients’ exercise performance. The use of deep learning in patient monitoring and rehabilitation has significant potential to bring innovative changes to healthcare service delivery."
    },
    {
      "paperId": "fb9e198c09a92ac35873f4662570a5a1e3fb0fa5",
      "url": "https://www.semanticscholar.org/paper/fb9e198c09a92ac35873f4662570a5a1e3fb0fa5",
      "title": "Comparative Performance Analysis of Machine Learning Algorithms for Arm and Shoulder Exercises Using Wrist-Worn Band",
      "year": 2023,
      "openAccessPdf": {
        "url": "https://ieeexplore.ieee.org/ielx7/6287639/6514899/10274973.pdf",
        "status": "GOLD",
        "license": "CCBY",
        "disclaimer": "Notice: Paper or abstract available at https://api.unpaywall.org/v2/10.1109/ACCESS.2023.3323592?email=<INSERT_YOUR_EMAIL> or https://doi.org/10.1109/ACCESS.2023.3323592, which is subject to the license by the author or copyright owner provided with this content. Please go to the source to verify the license and copyright information for your use."
      },
      "authors": [
        {
          "authorId": "10005493",
          "name": "A. B. Asghar"
        },
        {
          "authorId": "2257994787",
          "name": "Maham Majeed"
        },
        {
          "authorId": "2258225901",
          "name": "Abdullah Taseer"
        },
        {
          "authorId": "2258331785",
          "name": "Muhammad Burhan Khan"
        },
        {
          "authorId": "2186573179",
          "name": "Khazina Naveed"
        },
        {
          "authorId": "2271363",
          "name": "M. Jaffery"
        },
        {
          "authorId": "2088230366",
          "name": "Krzysztof Ejsmont"
        }
      ],
      "abstract": "The COVID-19 pandemic forcing many individuals to exercise at home without the supervision of a professional trainer, and maintaining proper posture during arm and shoulder exercises has become a concern. In this study, the dataset is collected from various individuals performing different exercises with different variations in the range of motion. The wrist-worn band captures the motion data using the MPU6050 sensor, which measures acceleration data. The collected data is pre-processed, and features are extracted from the raw data. Machine learning-based classification algorithms are employed to classify the collected data. An App prototype has been developed, which is integrated with a WIFI module and Cloud for real-time data collection. The collected data is then used to train the selected machine learning models, which can accurately analyze an individual’s workout session and provide feedback on their performance through the App. Overall, this methodology provides a solution for individuals to continue their regular exercises at home without the need for a professional gym trainer or environment while minimizing the risk of injury due to poor posture. The results of this study will provide insight into the effectiveness of different machine learning algorithms for arm and shoulder exercises using a wrist-worn band, which can help in designing personalized exercise programs for individuals. We applied four machine learning algorithms to the dataset which are weighted KNN, Bagged Trees, Decision Trees, and Fine Gaussian SVM. The experimental results show that the Weighted KNN Model gives the best accuracy of 92%."
    },
    {
      "paperId": "bbff8c9dfc2ac0e2a84014cd962cc3fb06558051",
      "url": "https://www.semanticscholar.org/paper/bbff8c9dfc2ac0e2a84014cd962cc3fb06558051",
      "title": "The effect of various therapeutic exercises on forward head posture, rounded shoulder, and hyperkyphosis among people with upper crossed syndrome: a systematic review and meta-analysis",
      "year": 2024,
      "openAccessPdf": {
        "url": "https://bmcmusculoskeletdisord.biomedcentral.com/counter/pdf/10.1186/s12891-024-07224-4",
        "status": "GOLD",
        "license": "CCBY",
        "disclaimer": "Notice: Paper or abstract available at https://pmc.ncbi.nlm.nih.gov/articles/PMC10832142, which is subject to the license by the author or copyright owner provided with this content. Please go to the source to verify the license and copyright information for your use."
      },
      "authors": [
        {
          "authorId": "2281955647",
          "name": "Simin Sepehri"
        },
        {
          "authorId": "5034060",
          "name": "R. Sheikhhoseini"
        },
        {
          "authorId": "1581628153",
          "name": "Hashem Piri"
        },
        {
          "authorId": "51199222",
          "name": "P. Sayyadi"
        }
      ],
      "abstract": "Objectives This review study aimed to evaluate the impact of therapeutic exercises on Upper-Crossed Syndrome (UCS). The study utilized a systematic review and meta-analysis approach to investigate the effects of various therapeutic exercises on forward head posture, rounded shoulders, and hyperkyphosis associated with upper crossed syndrome. Methods The study identified relevant keywords for each independent and dependent variable and conducted a search in scientific databases, including PubMed, Web of Science, Scopus, and Google Scholar, without any time limitations until 12 August 2023. Overall, 4625 articles were found in the selected databases, which were reduced to 1085 after being entered into the EndNote software and removing duplicate data. The full texts of 30 remaining studies were reviewed; ten articles meeting the criteria were included. Additionally, 12 studies from the Google Scholar database were included, resulting in 22 studies. Using Comprehensive meta-analysis software (CMA ver 3), data heterogeneity was measured with I^2 and the Q tests. The Funnel Plot and Egger test methods were utilized to determine the possibility of publication bias. The JBI checklist was used to assess the quality of the studies. Results The results of the meta-analysis showed that therapeutic exercises were effective in improving forward head, rounded shoulders, and thoracic kyphosis angles (CI 95% = -1.85–1.161, P  = 0.001, P  = 0.001, CI95%=-1.822–1.15, and P  = 0.001, CI 95%= -1.83–1.09, respectively). Conclusion Based on the results, it appears that performing therapeutic exercises in the form of strength exercises, stretching, shoulder-based exercises, and incredibly comprehensive exercises that target all muscles may be effective in reducing forward head, rounded shoulders, thoracic kyphosis, and overall UCS. Level of evidence 1"
    },
    {
      "paperId": "ed71f7956b1335f16f82550bbdde872b8cf7acf9",
      "url": "https://www.semanticscholar.org/paper/ed71f7956b1335f16f82550bbdde872b8cf7acf9",
      "title": "Effects of Telerehabilitation Combining Diaphragmatic Breathing Re-Education and Shoulder Stabilization Exercises on Neck Pain, Posture, and Function in Young Adult Men with Upper Crossed Syndrome: A Randomized Controlled Trial",
      "year": 2024,
      "openAccessPdf": {
        "url": "https://www.mdpi.com/2077-0383/13/6/1612/pdf?version=1710166603",
        "status": "GOLD",
        "license": "CCBY",
        "disclaimer": "Notice: Paper or abstract available at https://pmc.ncbi.nlm.nih.gov/articles/PMC10971228, which is subject to the license by the author or copyright owner provided with this content. Please go to the source to verify the license and copyright information for your use."
      },
      "authors": [
        {
          "authorId": "2199998820",
          "name": "Gyeong-Hyeon Jeong"
        },
        {
          "authorId": "2276369558",
          "name": "Byoung-Hee Lee"
        }
      ],
      "abstract": "Background: Forward head posture and rounded shoulder posture are common postural variants found in upper crossed syndrome, which can lead to limited neck mobility, respiratory problems, and other issues. The purpose of this study was to investigate the effects of telerehabilitation, combining diaphragmatic breathing re-education and shoulder stabilization exercises, on young men with upper crossed syndrome during the COVID-19 pandemic over 4 weeks. Methods: The study included 37 participants aged in their 20s and 30s who were randomly divided into two groups. The experimental group received diaphragmatic breathing re-education and shoulder stabilization exercises, while the control group only underwent shoulder stabilization exercises. Both groups were trained three times a week for four weeks using telerehabilitation. The comparison of within-group pre–post differences in the experimental and control groups was conducted using a paired t-test, while the effects of treatment were assessed using repeated-measures analysis of variance. Results: After 4 weeks, both groups showed significant improvements in the pain pressure threshold of the upper trapezius, craniovertebral angle, round shoulder posture, shoulder tilt degree, neck disability index, and closed kinetic chain upper extremity stability test (all p < 0.05). The results showed a significant difference between the Time effect (p adj < 0.05/4) for both sides of PPT, CVA, and STD and both sides of RSP, NDI, and CKCUEST, and an interaction between the Time × Group effects (p adj < 0.05/4) for the Rt. PPT, CVA, and STD. Conclusions: These findings suggest that the telerehabilitation training group, which included diaphragmatic breathing re-education and shoulder stabilization exercises, was more effective in improving Rt. PPT, CVA, and STD in males with UCS."
    },
    {
      "paperId": "b0464b5acc86f8c1691013a0c015fb98c3cba956",
      "url": "https://www.semanticscholar.org/paper/b0464b5acc86f8c1691013a0c015fb98c3cba956",
      "title": "Does the addition of motor control or strengthening exercises to education result in better outcomes for rotator cuff-related shoulder pain? A multiarm randomised controlled trial",
      "year": 2023,
      "openAccessPdf": {
        "url": "",
        "status": null,
        "license": null,
        "disclaimer": "Notice: Paper or abstract available at https://api.unpaywall.org/v2/10.1136/bjsports-2021-105027?email=<INSERT_YOUR_EMAIL> or https://doi.org/10.1136/bjsports-2021-105027, which is subject to the license by the author or copyright owner provided with this content. Please go to the source to verify the license and copyright information for your use."
      },
      "authors": [
        {
          "authorId": "2069015567",
          "name": "Marc-Olivier Dubé"
        },
        {
          "authorId": "145593956",
          "name": "F. Desmeules"
        },
        {
          "authorId": "1989223672",
          "name": "Jeremy S. Lewis"
        },
        {
          "authorId": "1863587",
          "name": "J. Roy"
        }
      ],
      "abstract": "Objective To compare the short-term, mid-term and long-term effects between three interventions (education only, education and strengthening exercises, education and motor control exercises) for rotator cuff-related shoulder pain (RCRSP) on symptoms and function. Methods 123 adults presenting with RCRSP took part in a 12-week intervention. They were randomly assigned to 1 of 3 intervention groups. Symptoms and function were evaluated at baseline and at 3 weeks, 6 weeks, 12 weeks and 24 weeks using the Disability of Arm, Shoulder and Hand Questionnaire (QuickDASH) (primary outcome) and Western Ontario Rotator Cuff Index (WORC). Linear mixed modelling was used to compare the effects of the three programmes on the outcomes. Results After 24 weeks, between-group differences were −2.1 (-7.7 to 3.5) (motor control vs education), 1.2 (-4.9 to 7.4) (strengthening vs education) and −3.3 (-9.5 to 2.8) (motor control vs strengthening) for the QuickDASH and 9.3 (1.5 to 17.1) (motor control vs education), 1.3 (−7.6 to 10.2) (strengthening vs education) and 8.0 (−0.5 to 16.5) (motor control vs strengthening) for the WORC. There was a significant group-by-time interaction (p=0.04) with QuickDASH, but follow-up analyses did not reveal any clinically meaningful between-group differences. There was no significant group-by-time interaction (p=0.39) for the WORC. Between-group differences never exceeded the minimal clinically important difference of QuickDASH or WORC. Conclusion In people with RCRSP, the addition of motor control or strengthening exercises to education did not lead to larger improvements in symptoms and function compared with education alone. Further research should investigate the value of providing stepped care by identifying individuals who may only need education and those who would benefit from the addition of motor control or strengthening exercises. Trial registration number NCT03892603."
    }
  ]
}