{
  "total": 26173,
  "offset": 0,
  "next": 5,
  "data": [
    {
      "paperId": "84e19c3afd5044fde73cb8a2c619aa45add4f6e9",
      "url": "https://www.semanticscholar.org/paper/84e19c3afd5044fde73cb8a2c619aa45add4f6e9",
      "title": "Braking and Propulsion Phase Characteristics of Traditional and Accentuated Eccentric Loaded Back Squats",
      "year": 2024,
      "openAccessPdf": {
        "url": "https://jhk.termedia.pl/pdf-185726-108337?filename=Braking and Propulsion.pdf",
        "status": "GOLD",
        "license": "CCBY",
        "disclaimer": "Notice: Paper or abstract available at https://pmc.ncbi.nlm.nih.gov/articles/PMC11057614, which is subject to the license by the author or copyright owner provided with this content. Please go to the source to verify the license and copyright information for your use."
      },
      "authors": [
        {
          "authorId": "5971114",
          "name": "T. Suchomel"
        },
        {
          "authorId": "2296916385",
          "name": "Conor J. Cantwell"
        },
        {
          "authorId": "2296917460",
          "name": "Brookelyn A. Campbell"
        },
        {
          "authorId": "2296913639",
          "name": "Zachary S. Schroeder"
        },
        {
          "authorId": "2296915008",
          "name": "Lauren K. Marshall"
        },
        {
          "authorId": "66692533",
          "name": "Christopher B. Taber"
        }
      ],
      "abstract": "The purpose of this study was to examine the differences in braking and propulsion force-time characteristics and barbell velocity between traditional (TRAD) and accentuated eccentric loaded (AEL) back squats using various load combinations. Sixteen resistance-trained men participated in four separate testing sessions which included a one repetition maximum (1RM) back squat during the first session and three squat testing sessions. During the squat testing sessions, participants either performed sets of three repetitions of TRAD back squats each with 50, 60, 70, and 80% 1RM or performed the same loads with the addition of weight releasers that increased the total eccentric weight of the first repetition of each set to either 100 (AEL-MAX) or 110% 1RM (AEL-SUPRA). Braking and propulsion mean force, duration, and impulse as well as mean and peak barbell velocity were compared between each condition and load. Significantly greater braking impulses were produced during the AEL-MAX and AEL-SUPRA conditions compared to TRAD (p < 0.03) with small-moderate effect sizes favoring AEL-SUPRA. No other significant differences existed among conditions for other braking, propulsion, or barbell velocity variables. AEL-MAX and AEL-SUPRA back squats may provide a greater braking stimulus compared to TRAD squats; however, the propulsion phase of the movement does not appear to be impacted. From a loading standpoint, larger and smaller load spreads may favor rapid and maximal force production characteristics, respectively. Further research on this topic is needed as a large portion of the braking stimulus experienced during AEL back squats may be influenced by relative strength."
    },
    {
      "paperId": "a35c8eb6042c9853314eea442a24041fc5e58157",
      "url": "https://www.semanticscholar.org/paper/a35c8eb6042c9853314eea442a24041fc5e58157",
      "title": "The Use of Free Weight Squats in Sports: A Narrative Review—Terminology and Biomechanics",
      "year": 2024,
      "openAccessPdf": {
        "url": "https://www.mdpi.com/2076-3417/14/5/1977/pdf?version=1709113251",
        "status": "GOLD",
        "license": "CCBY",
        "disclaimer": "Notice: Paper or abstract available at https://api.unpaywall.org/v2/10.3390/app14051977?email=<INSERT_YOUR_EMAIL> or https://doi.org/10.3390/app14051977, which is subject to the license by the author or copyright owner provided with this content. Please go to the source to verify the license and copyright information for your use."
      },
      "authors": [
        {
          "authorId": "2240593491",
          "name": "Michael H. Stone"
        },
        {
          "authorId": "36331749",
          "name": "W. Hornsby"
        },
        {
          "authorId": "2754806",
          "name": "S. Mizuguchi"
        },
        {
          "authorId": "14455207",
          "name": "Kimitake Sato"
        },
        {
          "authorId": "2289583756",
          "name": "Daniel Gahreman"
        },
        {
          "authorId": "2289380327",
          "name": "Marco Duca"
        },
        {
          "authorId": "14967933",
          "name": "Kevin M Carroll"
        },
        {
          "authorId": "24650489",
          "name": "M. Ramsey"
        },
        {
          "authorId": "49571793",
          "name": "M. Stone"
        },
        {
          "authorId": "2289351432",
          "name": "Kyle C. Pierce"
        },
        {
          "authorId": "6071765",
          "name": "G. Haff"
        }
      ],
      "abstract": "There is substantial evidence indicating that increased maximum strength as a result of training with squats, particularly full and parallel squats, is associated with superior athletic capabilities, such as sprinting, jumping and agility. Although full and parallel squats have been strongly associated with sport performance, there is also some evidence that the use of partial squats may provide angle specific adaptations that are likely advantageous for specific sporting activities. Partial squats may be particularly advantageous when trained in conjunction with full or parallel squats, as this practice results in a greater training effect. There is a paucity of evidence that squatting is associated with excessive injuries to the knees, lower back, or other structures. Evidence does indicate that squatting, including full squats, can be undertaken safely, provided an appropriate training methodology is applied. Indeed, based on scientific data, the cost/benefit ratio indicates that squats should be recommended and should be a central strength training exercise for the preparation of athletes in most sports, particularly those requiring strong and powerful whole body and lower body movements."
    },
    {
      "paperId": "bb23356312dbe183aecd8c694fb3c1c1e6a4474f",
      "url": "https://www.semanticscholar.org/paper/bb23356312dbe183aecd8c694fb3c1c1e6a4474f",
      "title": "Quantification of patellar tendon strain and opportunities for personalized tendon loading during back squats",
      "year": 2023,
      "openAccessPdf": {
        "url": "https://www.nature.com/articles/s41598-023-35441-9.pdf",
        "status": "GOLD",
        "license": "CCBY",
        "disclaimer": "Notice: Paper or abstract available at https://pmc.ncbi.nlm.nih.gov/articles/PMC10226975, which is subject to the license by the author or copyright owner provided with this content. Please go to the source to verify the license and copyright information for your use."
      },
      "authors": [
        {
          "authorId": "2076064734",
          "name": "K. Weidlich"
        },
        {
          "authorId": "6688356",
          "name": "F. Mersmann"
        },
        {
          "authorId": "2086756581",
          "name": "T. Domroes"
        },
        {
          "authorId": "32185934",
          "name": "A. Schroll"
        },
        {
          "authorId": "4644015",
          "name": "S. Bohm"
        },
        {
          "authorId": "145290980",
          "name": "A. Arampatzis"
        }
      ],
      "abstract": "Tendon strain during exercise is a critical regulatory factor in tendon adaptive responses and there are indications for an optimal range of strain that promotes tendon adaptation. Back squats are used to improve patellar tendon properties in sport and clinical settings. To date, the operating patellar tendon strain during back squats is unknown and current recommendations for individual exercise loading are based on the one repetition maximum (1RM). Here, we quantified patellar tendon strain during loaded back squats at 40, 60 and 80% of the 1RM and during maximum isometric knee extension contractions (MVC) using ultrasonography. Kinematics, ground reaction forces and muscle electromyographic activity were also recorded. Additionally, maximum tendon strain during the MVC and the percentage of 1RM were used as explanatory variables to estimate the individual patellar tendon strain during the squats. Strain increased with increasing 1RM loading (4.7 to 8.2%), indicating that already medium-loading back squats may provide a sufficient stimulus for tendon adaptation. The individual variability was, however, too high to generalize these findings. Yet, there was a high agreement between the individually estimated and measured patellar tendon strain (R^2 = 0.858) during back squats. We argue that this approach may provide new opportunities for personalized tendon exercise."
    },
    {
      "paperId": "2d097131f538eb1d73b07f55230c2e0b1eb3ed4f",
      "url": "https://www.semanticscholar.org/paper/2d097131f538eb1d73b07f55230c2e0b1eb3ed4f",
      "title": "Effects of barbell load on kinematics, kinetics, and myoelectric activity in back squats.",
      "year": 2022,
      "openAccessPdf": {
        "url": "https://www.tandfonline.com/doi/pdf/10.1080/14763141.2022.2085164?needAccess=true",
        "status": "HYBRID",
        "license": "CCBYNCND",
        "disclaimer": "Notice: Paper or abstract available at https://api.unpaywall.org/v2/10.1080/14763141.2022.2085164?email=<INSERT_YOUR_EMAIL> or https://doi.org/10.1080/14763141.2022.2085164, which is subject to the license by the author or copyright owner provided with this content. Please go to the source to verify the license and copyright information for your use."
      },
      "authors": [
        {
          "authorId": "1820824255",
          "name": "Stian Larsen"
        },
        {
          "authorId": "2047421747",
          "name": "E. Kristiansen"
        },
        {
          "authorId": "1471252208",
          "name": "Hallvard Nygaard Falch"
        },
        {
          "authorId": "2169629951",
          "name": "Markus Estifanos Haugen"
        },
        {
          "authorId": "6618668",
          "name": "M. Fimland"
        },
        {
          "authorId": "5317501",
          "name": "R. van den Tillaar"
        }
      ],
      "abstract": "Shortly after beginning the upward phase of a free-weight barbell back squat there is often a deacceleration phase (sticking region) that may lead to repetition failure. The cause for this region is not well understood. Therefore, this study investigated the effects of 90%, 100%, and 102% of 1-RM barbell loads on kinematics, kinetics, and myoelectric activity in back squats. Twelve resistance-trained healthy males (body mass: 83.5 ± 7.8 kg, age: 27.3 ± 3.8 years, height: 180.3 ± 6.7 cm) participated in the study and lifted 134 ± 17 kg at 90% and 149 ± 19 kg at 100%, while they failed at 153 ± 19 kg with 102% load. The main findings were that barbell displacement and barbell velocity in the sticking region decreased with increasing loads. Moreover, the external hip extensor moment increased with heavier loads, whereas the knee extension and ankle plantarflexion moments were similar during the concentric phase. Also, reduced hip and knee extension together with lower myoelectric activity for all hip extensors and vastus lateralis were found for the 102% load compared to the others. Our finding suggests that the increased external hip extensor moment together with lower hip extensor myoelectric activity due to a reduced hip extension and thereby are responsible for lifting failure among resistance-trained males."
    },
    {
      "paperId": "0eef5e8ddb4558560a51120c8998812b8c5e52f0",
      "url": "https://www.semanticscholar.org/paper/0eef5e8ddb4558560a51120c8998812b8c5e52f0",
      "title": "Differences in Force-Velocity Profiles During Countermovement Jump and Flywheel Squats and Associations With a Different Change of Direction Tests in Elite Karatekas",
      "year": 2022,
      "openAccessPdf": {
        "url": "https://www.frontiersin.org/articles/10.3389/fphys.2022.828394/pdf",
        "status": "GOLD",
        "license": "CCBY",
        "disclaimer": "Notice: Paper or abstract available at https://pmc.ncbi.nlm.nih.gov/articles/PMC9253395, which is subject to the license by the author or copyright owner provided with this content. Please go to the source to verify the license and copyright information for your use."
      },
      "authors": [
        {
          "authorId": "1901777182",
          "name": "Darjan Smajla"
        },
        {
          "authorId": "146552568",
          "name": "Darjan Spudić"
        },
        {
          "authorId": "24893346",
          "name": "Ž. Kozinc"
        },
        {
          "authorId": "2531213",
          "name": "N. Šarabon"
        }
      ],
      "abstract": "The force-velocity (F-v) relationship has been proposed as a biomechanical characteristic to comprehensively evaluate neuromuscular capabilities within different tasks such as vertical jumping, sprinting and bench pressing. F-v relationship during flywheel (FW) squats was already validated, however, it was never compared to F-v profile of vertical jumps or associated with change of direction (CoD) performance. The aims of our study were (1) to compare F-v profiles measured during counter movement jumps (CMJs) and FW squats, (2) to determine correlations of F-v mechanical capacities with different CoD tests, (3) to investigate the portion of explained variance in CoD tests with the F-v outcome measures. A cross-sectional study was conducted on 39 elite karatekas. They performed CMJs and FW squats using progressive loads to calculate F-v profile outcome variables and different CoD tests (CoD at 90°, CoD at 180°, t-test, short karate specific test (KST) and long KST). Our results showed significantly higher values in all F-v outcome variables (F0—theoretical maximal force, V0—maximal unloaded velocity, Pmax—maximal power output, F-vslope—the slope of F-v relationship) calculated from CMJs compared to FW squats (all p < 0.01). Significant positive moderate correlations between the tasks were found for F0 and Pmax (r = 0.323–0.378, p = 0.018–0.045). In comparison to F-v outcome variables obtained in FW squats, higher correlations were found between F-v outcome variables calculated from CMJs and CoD tests. The only significant correlation in F-v outcome variables calculated from FW squats was found between Pmax and short KST time. For all CoD tests, only one F-v predictor was included; more specifically—CMJ-F0 for CoD 90°, CoD 180° and t-test, and FW-Pmax for short KST performance. To conclude, our results showed that F-v relationship between CMJs and FW squats differed significantly and cannot be used interchangeably for F-v profiling. Moreover, we confirmed that high force and power production is important for the successful performance of general and karate specific CoD tasks."
    }
  ]
}