{
  "total": 371110,
  "offset": 0,
  "next": 5,
  "data": [
    {
      "paperId": "cad71aae80a1ce831341fcd0a55caedf414c95c0",
      "url": "https://www.semanticscholar.org/paper/cad71aae80a1ce831341fcd0a55caedf414c95c0",
      "title": "Flow past a stretching plate",
      "year": 1970,
      "openAccessPdf": {
        "url": "",
        "status": "CLOSED",
        "license": null,
        "disclaimer": "Notice: The following paper fields have been elided by the publisher: {'abstract'}. Paper or abstract available at https://api.unpaywall.org/v2/10.1007/BF01587695?email=<INSERT_YOUR_EMAIL> or https://doi.org/10.1007/BF01587695, which is subject to the license by the author or copyright owner provided with this content. Please go to the source to verify the license and copyright information for your use."
      },
      "authors": [
        {
          "authorId": "28088532",
          "name": "L. Crane"
        }
      ],
      "abstract": null
    },
    {
      "paperId": "ce2cfdf91b39bf37845adca8dc646c75ad74bde2",
      "url": "https://www.semanticscholar.org/paper/ce2cfdf91b39bf37845adca8dc646c75ad74bde2",
      "title": "Relationships between the carbon-oxygen stretching frequencies of carboxylato complexes and the type of carboxylate coordination",
      "year": 1980,
      "openAccessPdf": {
        "url": "",
        "status": "CLOSED",
        "license": null,
        "disclaimer": "Notice: The following paper fields have been elided by the publisher: {'abstract'}. Paper or abstract available at https://api.unpaywall.org/v2/10.1016/S0010-8545(00)80455-5?email=<INSERT_YOUR_EMAIL> or https://doi.org/10.1016/S0010-8545(00)80455-5, which is subject to the license by the author or copyright owner provided with this content. Please go to the source to verify the license and copyright information for your use."
      },
      "authors": [
        {
          "authorId": "5371814",
          "name": "G. Deacon"
        },
        {
          "authorId": "35953355",
          "name": "R. Phillips"
        }
      ],
      "abstract": null
    },
    {
      "paperId": "5644b81a45bec620c07a1fea44b8c2c02bc3a823",
      "url": "https://www.semanticscholar.org/paper/5644b81a45bec620c07a1fea44b8c2c02bc3a823",
      "title": "Acute effects of muscle stretching on physical performance, range of motion, and injury incidence in healthy active individuals: a systematic review.",
      "year": 2016,
      "openAccessPdf": {
        "url": "",
        "status": "CLOSED",
        "license": null,
        "disclaimer": "Notice: The following paper fields have been elided by the publisher: {'abstract'}. Paper or abstract available at https://api.unpaywall.org/v2/10.1139/apnm-2015-0235?email=<INSERT_YOUR_EMAIL> or https://doi.org/10.1139/apnm-2015-0235, which is subject to the license by the author or copyright owner provided with this content. Please go to the source to verify the license and copyright information for your use."
      },
      "authors": [
        {
          "authorId": "9954562",
          "name": "David G. Behm"
        },
        {
          "authorId": "5075249",
          "name": "A. Blazevich"
        },
        {
          "authorId": "5745348",
          "name": "A. Kay"
        },
        {
          "authorId": "2557582",
          "name": "M. McHugh"
        }
      ],
      "abstract": null
    },
    {
      "paperId": "831067a8dc0025ee19e6196532ffcdbefb2067cc",
      "url": "https://www.semanticscholar.org/paper/831067a8dc0025ee19e6196532ffcdbefb2067cc",
      "title": "Sensing of joint and spinal bending or stretching via a retractable and wearable badge reel",
      "year": 2021,
      "openAccessPdf": {
        "url": "https://www.nature.com/articles/s41467-021-23207-8.pdf",
        "status": "GOLD",
        "license": "CCBY",
        "disclaimer": "Notice: Paper or abstract available at https://pmc.ncbi.nlm.nih.gov/articles/PMC8136475, which is subject to the license by the author or copyright owner provided with this content. Please go to the source to verify the license and copyright information for your use."
      },
      "authors": [
        {
          "authorId": "2130306432",
          "name": "Chengyu Li"
        },
        {
          "authorId": "96765034",
          "name": "Di Liu"
        },
        {
          "authorId": "2115473996",
          "name": "Chaoqun Xu"
        },
        {
          "authorId": "2140053420",
          "name": "Ziming Wang"
        },
        {
          "authorId": "104171487",
          "name": "Shengzhu Shu"
        },
        {
          "authorId": "152919386",
          "name": "Zhuoran Sun"
        },
        {
          "authorId": "92015504",
          "name": "Wei-Yao Tang"
        },
        {
          "authorId": "2135360822",
          "name": "Zhongfeng Wang"
        }
      ],
      "abstract": "Human motions, such as joint/spinal bending or stretching, often contain information that is useful for orthopedic/neural disease diagnosis, rehabilitation, and prevention. Here, we show a badge-reel-like stretch sensing device with a grating-structured triboelectric nanogenerator exhibiting a stretching sensitivity of 8 V mm−1, a minimum resolution of 0.6 mm, a low hysteresis, and a high durability (over 120 thousand cycles). Experimental and theoretical investigations are performed to define the key features of the device. Studies from human natural daily activities and exercise demonstrate the functionality of the sensor for real-time recording of knee/arm bending, neck/waist twisting, and so on. We also used the device in a spinal laboratory, monitoring human subjects’ spine motions, and validated the measurements using the commercial inclinometer and hunchback instrument. We anticipate that the lightweight, precise and durable stretch sensor applied to spinal monitoring could help mitigate the risk of long-term abnormal postural habits induced diseases. Human motions often contain information that is useful for orthopedic/neural disease diagnosis, rehabilitation, and prevention. Here, the authors show a badge-reel-like stretch sensing device with a grating-structured triboelectric nanogenerator for joints/spine bending or stretching sensing."
    },
    {
      "paperId": "11c1b28accf4b90ddfce08cdaca1929ee1baef0e",
      "url": "https://www.semanticscholar.org/paper/11c1b28accf4b90ddfce08cdaca1929ee1baef0e",
      "title": "Stretching and breaking of ultrathin MoS2.",
      "year": 2011,
      "openAccessPdf": {
        "url": "https://infoscience.epfl.ch/record/170263/files/ACS Nano (2011) Bertolazzi - Stretching and Breaking of Ultrathin MoS2.pdf",
        "status": "GREEN",
        "license": null,
        "disclaimer": "Notice: The following paper fields have been elided by the publisher: {'abstract'}. Paper or abstract available at https://api.unpaywall.org/v2/10.1021/nn203879f?email=<INSERT_YOUR_EMAIL> or https://doi.org/10.1021/nn203879f, which is subject to the license by the author or copyright owner provided with this content. Please go to the source to verify the license and copyright information for your use."
      },
      "authors": [
        {
          "authorId": "50511528",
          "name": "Simone Bertolazzi"
        },
        {
          "authorId": "6730995",
          "name": "J. Brivio"
        },
        {
          "authorId": "3640440",
          "name": "A. Kis"
        }
      ],
      "abstract": null
    }
  ]
}