{
  "total": 3817044,
  "offset": 0,
  "next": 3,
  "data": [
    {
      "paperId": "9b7f02c7e5b495c485cf2f666d9e02287c4f510b",
      "url": "https://www.semanticscholar.org/paper/9b7f02c7e5b495c485cf2f666d9e02287c4f510b",
      "title": "Determinants and consequences of heart rate and stroke volume response to exercise in patients with heart failure and preserved ejection fraction",
      "year": 2021,
      "openAccessPdf": {
        "url": "https://eprints.gla.ac.uk/236472/3/236472.pdf",
        "status": "GREEN",
        "license": null,
        "disclaimer": "Notice: Paper or abstract available at https://api.unpaywall.org/v2/10.1002/ejhf.2146?email=<INSERT_YOUR_EMAIL> or https://doi.org/10.1002/ejhf.2146, which is subject to the license by the author or copyright owner provided with this content. Please go to the source to verify the license and copyright information for your use."
      },
      "authors": [
        {
          "authorId": "14812820",
          "name": "E. Wolsk"
        },
        {
          "authorId": "4678298",
          "name": "D. Kaye"
        },
        {
          "authorId": "10110263",
          "name": "J. Komtebedde"
        },
        {
          "authorId": "3273875",
          "name": "Sanjiv J. Shah"
        },
        {
          "authorId": "4062372",
          "name": "B. Borlaug"
        },
        {
          "authorId": "6640310",
          "name": "D. Burkhoff"
        },
        {
          "authorId": "6370002",
          "name": "D. Kitzman"
        },
        {
          "authorId": "121841282",
          "name": "J. Cleland"
        },
        {
          "authorId": "4769759",
          "name": "G. Hasenfuss"
        },
        {
          "authorId": "5919291",
          "name": "C. Hassager"
        },
        {
          "authorId": "1720758158",
          "name": "J. Møller"
        },
        {
          "authorId": "3011086",
          "name": "F. Gustafsson"
        }
      ],
      "abstract": "A hallmark of heart failure with preserved ejection fraction (HFpEF) is impaired exercise capacity of varying severity. The main determinant of exercise capacity is cardiac output (CO), however little information is available about the relation between the constituents of CO – heart rate and stroke volume – and exercise capacity in HFpEF. We sought to determine if a heterogeneity in heart rate and stroke volume response to exercise exists in patients with HFpEF and describe possible clinical phenotypes associated with differences in these responses."
    },
    {
      "paperId": "827826488c70cc17f7a99d736c1fd4f08bbf86c4",
      "url": "https://www.semanticscholar.org/paper/827826488c70cc17f7a99d736c1fd4f08bbf86c4",
      "title": "A Carotid Doppler Patch Accurately Tracks Stroke Volume Changes During a Preload-Modifying Maneuver in Healthy Volunteers",
      "year": 2020,
      "openAccessPdf": {
        "url": "https://doi.org/10.1097/cce.0000000000000072",
        "status": "GOLD",
        "license": "CCBYNCND",
        "disclaimer": "Notice: Paper or abstract available at https://pmc.ncbi.nlm.nih.gov/articles/PMC7063906, which is subject to the license by the author or copyright owner provided with this content. Please go to the source to verify the license and copyright information for your use."
      },
      "authors": [
        {
          "authorId": "79859485",
          "name": "Jon-Émile S. Kenny"
        },
        {
          "authorId": "6140168",
          "name": "I. Barjaktarevic"
        },
        {
          "authorId": "146057919",
          "name": "A. Eibl"
        },
        {
          "authorId": "1564224116",
          "name": "Matthew D. Parrotta"
        },
        {
          "authorId": "1564229528",
          "name": "Bradley F. Long"
        },
        {
          "authorId": "153444900",
          "name": "J. Eibl"
        },
        {
          "authorId": "5847863",
          "name": "F. Michard"
        }
      ],
      "abstract": "Objectives: Detecting instantaneous stroke volume change in response to altered cardiac preload is the physiologic foundation for determining preload responsiveness. Design: Proof-of-concept physiology study. Setting: Research simulation laboratory. Subjects: Twelve healthy volunteers. Interventions: A wireless continuous wave Doppler ultrasound patch was used to measure carotid velocity time integral and carotid corrected flow time during a squat maneuver. The Doppler patch measurements were compared with simultaneous stroke volume measurements obtained from a noninvasive cardiac output monitor. Measurements and Main Results: From stand to squat, stroke volume increased by 24% while carotid velocity time integral and carotid corrected flow time increased by 32% and 9%, respectively. From squat to stand, stroke volume decreased by 13%, while carotid velocity time integral and carotid corrected flow time decreased by 24% and 10%, respectively. Both changes in carotid velocity time integral and corrected flow time were closely correlated with changes in stroke volume (r2 = 0.81 and 0.62, respectively). The four-quadrant plot found a 100% concordance rate between changes in stroke volume and both changes in carotid velocity time integral and changes in corrected flow time. A change in carotid velocity time integral greater than 15% predicted a change in stroke volume greater than 10% with a sensitivity of 95% and a specificity of 92%. A change in carotid corrected flow time greater than 4% predicted a change in stroke volume greater than 10% with a sensitivity of 90% and a specificity of 92%. Conclusions: In healthy volunteers, both carotid velocity time integral and carotid corrected flow time measured by a wireless Doppler patch were useful to track changes in stroke volume induced by a preload-modifying maneuver with high sensitivity and specificity."
    },
    {
      "paperId": "d9e2546ce78359b8ee928f37db1d033e4d831be1",
      "url": "https://www.semanticscholar.org/paper/d9e2546ce78359b8ee928f37db1d033e4d831be1",
      "title": "Stroke Volume Variation",
      "year": 2021,
      "openAccessPdf": {
        "url": "",
        "status": null,
        "license": null,
        "disclaimer": "Notice: The following paper fields have been elided by the publisher: {'abstract'}. Paper or abstract available at https://api.unpaywall.org/v2/10.1007/978-3-030-74687-2_15?email=<INSERT_YOUR_EMAIL> or https://doi.org/10.1007/978-3-030-74687-2_15, which is subject to the license by the author or copyright owner provided with this content. Please go to the source to verify the license and copyright information for your use."
      },
      "authors": [
        {
          "authorId": "2151615372",
          "name": "Michelle F. Dawson"
        },
        {
          "authorId": "13156376",
          "name": "A. Salerno"
        }
      ],
      "abstract": null
    }
  ]
}