{
  "total": 118720,
  "offset": 0,
  "next": 5,
  "data": [
    {
      "paperId": "5b6d509167798aff6215f691320bf3738d6ac49d",
      "url": "https://www.semanticscholar.org/paper/5b6d509167798aff6215f691320bf3738d6ac49d",
      "title": "Successful tapering of dupilumab in atopic dermatitis patients with low disease activity: a large pragmatic daily practice study from the BioDay registry.",
      "year": 2023,
      "openAccessPdf": {
        "url": "https://academic.oup.com/bjd/advance-article-pdf/doi/10.1093/bjd/ljad159/50306627/ljad159.pdf",
        "status": "HYBRID",
        "license": "CCBY",
        "disclaimer": "Notice: Paper or abstract available at https://api.unpaywall.org/v2/10.1093/bjd/ljad159?email=<INSERT_YOUR_EMAIL> or https://doi.org/10.1093/bjd/ljad159, which is subject to the license by the author or copyright owner provided with this content. Please go to the source to verify the license and copyright information for your use."
      },
      "authors": [
        {
          "authorId": "1952665679",
          "name": "L. Spekhorst"
        },
        {
          "authorId": "1382468037",
          "name": "C. Boesjes"
        },
        {
          "authorId": "1656527327",
          "name": "L. Loman"
        },
        {
          "authorId": "80943265",
          "name": "N. Zuithoff"
        },
        {
          "authorId": "38177844",
          "name": "D. Bakker"
        },
        {
          "authorId": "32637360",
          "name": "E. Kamphuis"
        },
        {
          "authorId": "6657264",
          "name": "M. Kamsteeg"
        },
        {
          "authorId": "2335915695",
          "name": "Inge M Haeck"
        },
        {
          "authorId": "39438302",
          "name": "A. Oosting"
        },
        {
          "authorId": "2202320501",
          "name": "Paula P M van Lumig"
        },
        {
          "authorId": "1466440652",
          "name": "A. M. van Lynden-van Nes"
        },
        {
          "authorId": "4362112",
          "name": "R. Tupker"
        },
        {
          "authorId": "8459651",
          "name": "A. Flinterman"
        },
        {
          "authorId": "12666901",
          "name": "F. Garritsen"
        },
        {
          "authorId": "14525441",
          "name": "Wouter R H Touwslager"
        },
        {
          "authorId": "1397912552",
          "name": "M. D. de Bruin‐Weller"
        },
        {
          "authorId": "84246105",
          "name": "M. Schuttelaar"
        },
        {
          "authorId": "32475442",
          "name": "M. de Graaf"
        }
      ],
      "abstract": "BACKGROUND\nLimited data is available regarding patient-centered dosing of dupilumab for atopic dermatitis (AD) in daily practice.\n\n\nOBJECTIVES\nTo evaluate our patient-centered dupilumab dosing regimen in daily practice, to assess prognostic factors for successful tapering and to estimate medication-related cost savings.\n\n\nMETHODS\nThis prospective multicenter study included adult AD patients, participating in the BioDay registry, treated with dupilumab for ≥1.3 years. Interval prolongation was considered in case of dupilumab standard dose for ≥1 year and persistent controlled AD (Eczema Area and Severity Index (EASI)≤7); ≥six months). Primary endpoints were the mean EASI and Numeric Rating Scale (NRS)-pruritus after start of tapering. Prognostic factors for successful tapering were analyzed with logistic regression and a cost saving analysis was performed.\n\n\nRESULTS\nA total of 595 patients were included, of which 401 patients (mean EASI 2.5 (SD 2.3)); NRS-pruritus of 2.4 (SD 1.9) at start tapering) prolonged dupilumab interval. In 83.3% of these patients tapering was successful; most patients used dupilumab every 3 or 4 weeks (Q3W/Q4W). A significant small increase was observed for EASI (highest mean 3.5) and NRS-pruritus (highest mean 3.2) (p<0.0001), however scores remained low. Predicting successful tapering showed non-significant odds ratios for all incorporated variables. The estimated cost saving was 3,977,033.98 EUR for 401 patients between January 2019-June 2022.\n\n\nCONCLUSIONS\nThis study showed successful tapering of dupilumab in 83.3% of AD patients who attempted tapering while maintaining controlled disease and with the majority using Q3W/Q4W. Interval prolongation can be both beneficial for the patient and from a socio-economic perspective."
    },
    {
      "paperId": "c11a2808e50373a2bba13c7f66e08f7c39286478",
      "url": "https://www.semanticscholar.org/paper/c11a2808e50373a2bba13c7f66e08f7c39286478",
      "title": "Association of Dose Tapering With Overdose or Mental Health Crisis Among Patients Prescribed Long-term Opioids.",
      "year": 2021,
      "openAccessPdf": {
        "url": "https://jamanetwork.com/journals/jama/articlepdf/2782643/jama_agnoli_2021_oi_210076_1644868471.8517.pdf",
        "status": "BRONZE",
        "license": null,
        "disclaimer": "Notice: Paper or abstract available at https://api.unpaywall.org/v2/10.1001/jama.2021.11013?email=<INSERT_YOUR_EMAIL> or https://doi.org/10.1001/jama.2021.11013, which is subject to the license by the author or copyright owner provided with this content. Please go to the source to verify the license and copyright information for your use."
      },
      "authors": [
        {
          "authorId": "35647281",
          "name": "A. Agnoli"
        },
        {
          "authorId": "5580175",
          "name": "G. Xing"
        },
        {
          "authorId": "4998398",
          "name": "D. Tancredi"
        },
        {
          "authorId": "50722696",
          "name": "Elizabeth M Magnan"
        },
        {
          "authorId": "6588816",
          "name": "A. Jerant"
        },
        {
          "authorId": "34803662",
          "name": "J. Fenton"
        }
      ],
      "abstract": "Importance\nOpioid-related mortality and national prescribing guidelines have led to tapering of doses among patients prescribed long-term opioid therapy for chronic pain. There is limited information about risks related to tapering, including overdose and mental health crisis.\n\n\nObjective\nTo assess whether there are associations between opioid dose tapering and rates of overdose and mental health crisis among patients prescribed stable, long-term, higher-dose opioids.\n\n\nDesign, Setting, and Participants\nRetrospective cohort study using deidentified medical and pharmacy claims and enrollment data from the OptumLabs Data Warehouse from 2008 to 2019. Adults in the US prescribed stable higher doses (mean ≥50 morphine milligram equivalents/d) of opioids for a 12-month baseline period with at least 2 months of follow-up were eligible for inclusion.\n\n\nExposures\nOpioid tapering, defined as at least 15% relative reduction in mean daily dose during any of 6 overlapping 60-day windows within a 7-month follow-up period. Maximum monthly dose reduction velocity was computed during the same period.\n\n\nMain Outcomes and Measures\nEmergency or hospital encounters for (1) drug overdose or withdrawal and (2) mental health crisis (depression, anxiety, suicide attempt) during up to 12 months of follow-up. Discrete time negative binomial regression models estimated adjusted incidence rate ratios (aIRRs) of outcomes as a function of tapering (vs no tapering) and dose reduction velocity.\n\n\nResults\nThe final cohort included 113 618 patients after 203 920 stable baseline periods. Among the patients who underwent dose tapering, 54.3% were women (vs 53.2% among those who did not undergo dose tapering), the mean age was 57.7 years (vs 58.3 years), and 38.8% were commercially insured (vs 41.9%). Posttapering patient periods were associated with an adjusted incidence rate of 9.3 overdose events per 100 person-years compared with 5.5 events per 100 person-years in nontapered periods (adjusted incidence rate difference, 3.8 per 100 person-years [95% CI, 3.0-4.6]; aIRR, 1.68 [95% CI, 1.53-1.85]). Tapering was associated with an adjusted incidence rate of 7.6 mental health crisis events per 100 person-years compared with 3.3 events per 100 person-years among nontapered periods (adjusted incidence rate difference, 4.3 per 100 person-years [95% CI, 3.2-5.3]; aIRR, 2.28 [95% CI, 1.96-2.65]). Increasing maximum monthly dose reduction velocity by 10% was associated with an aIRR of 1.09 for overdose (95% CI, 1.07-1.11) and of 1.18 for mental health crisis (95% CI, 1.14-1.21).\n\n\nConclusions and Relevance\nAmong patients prescribed stable, long-term, higher-dose opioid therapy, tapering events were significantly associated with increased risk of overdose and mental health crisis. Although these findings raise questions about potential harms of tapering, interpretation is limited by the observational study design."
    },
    {
      "paperId": "821a5c8a7641952edc39f0675957377580c983a7",
      "url": "https://www.semanticscholar.org/paper/821a5c8a7641952edc39f0675957377580c983a7",
      "title": "Long-term Risk of Overdose or Mental Health Crisis After Opioid Dose Tapering",
      "year": 2022,
      "openAccessPdf": {
        "url": "https://jamanetwork.com/journals/jamanetworkopen/articlepdf/2793293/fenton_2022_oi_220492_1657650745.16749.pdf",
        "status": "GOLD",
        "license": "CCBY",
        "disclaimer": "Notice: Paper or abstract available at https://pmc.ncbi.nlm.nih.gov/articles/PMC9194670, which is subject to the license by the author or copyright owner provided with this content. Please go to the source to verify the license and copyright information for your use."
      },
      "authors": [
        {
          "authorId": "34803662",
          "name": "J. Fenton"
        },
        {
          "authorId": "50722696",
          "name": "Elizabeth M Magnan"
        },
        {
          "authorId": "2170061289",
          "name": "I. E. Tseregounis"
        },
        {
          "authorId": "5580175",
          "name": "G. Xing"
        },
        {
          "authorId": "35647281",
          "name": "A. Agnoli"
        },
        {
          "authorId": "4998398",
          "name": "D. Tancredi"
        }
      ],
      "abstract": "Key Points Question Is opioid dose tapering associated with reduced longer-term risks of overdose, withdrawal, or mental health crisis in patients prescribed long-term opioids? Findings In this cohort study of 19 377 patients, in a posttaper period (beginning at least 12 months and extending up to 24 months after taper initiation) vs the pretaper period, the adjusted incidence rate ratios were 1.57 for overdose-withdrawal and 1.52 for a mental health crisis. Both were significant. Meaning These findings suggest that opioid dose tapering was associated increased risks of overdose-withdrawal and mental health crisis that persisted up to 2 years after taper initiation."
    },
    {
      "paperId": "151216518a80784256b198057179952d66b42938",
      "url": "https://www.semanticscholar.org/paper/151216518a80784256b198057179952d66b42938",
      "title": "Comparative Effectiveness of Opioid Tapering or Abrupt Discontinuation vs No Dosage Change for Opioid Overdose or Suicide for Patients Receiving Stable Long-term Opioid Therapy",
      "year": 2022,
      "openAccessPdf": {
        "url": "https://jamanetwork.com/journals/jamanetworkopen/articlepdf/2795159/larochelle_2022_oi_220753_1659532124.03052.pdf",
        "status": "GOLD",
        "license": "CCBYNCND",
        "disclaimer": "Notice: Paper or abstract available at https://pmc.ncbi.nlm.nih.gov/articles/PMC9375167, which is subject to the license by the author or copyright owner provided with this content. Please go to the source to verify the license and copyright information for your use."
      },
      "authors": [
        {
          "authorId": "2241200",
          "name": "Marc R. Larochelle"
        },
        {
          "authorId": "40284874",
          "name": "S. Lodi"
        },
        {
          "authorId": "1627832053",
          "name": "Shapei Yan"
        },
        {
          "authorId": "36860035",
          "name": "B. Clothier"
        },
        {
          "authorId": "12351294",
          "name": "Elizabeth S. Goldsmith"
        },
        {
          "authorId": "4524015",
          "name": "A. Bohnert"
        }
      ],
      "abstract": "Key Points Question For patients receiving stable long-term opioid therapy compared with a stable opioid dosage, what is the association of opioid dosage tapering or abrupt discontinuation with opioid overdose or suicide? Findings In this comparative effectiveness study of 415 123 episodes of stable long-term opioid therapy among 199 836 individuals, opioid tapering was associated with a small absolute increase in opioid overdose or suicide compared with a stable opioid dosage. No significant difference in outcomes between abrupt discontinuation and stable opioid therapy was identified. Meaning These findings do not support opioid dosage tapering as a strategy to reduce harms for patients receiving stable long-term opioid therapy without evidence of misuse."
    },
    {
      "paperId": "a855858cd020d93218767ac4e43fbf07848933a0",
      "url": "https://www.semanticscholar.org/paper/a855858cd020d93218767ac4e43fbf07848933a0",
      "title": "A Method for Tapering Antipsychotic Treatment That May Minimize the Risk of Relapse",
      "year": 2021,
      "openAccessPdf": {
        "url": "https://academic.oup.com/schizophreniabulletin/article-pdf/47/4/1116/38886552/sbab017.pdf",
        "status": "HYBRID",
        "license": "CCBYNC",
        "disclaimer": "Notice: Paper or abstract available at https://pmc.ncbi.nlm.nih.gov/articles/PMC8266572, which is subject to the license by the author or copyright owner provided with this content. Please go to the source to verify the license and copyright information for your use."
      },
      "authors": [
        {
          "authorId": "47637393",
          "name": "M. Horowitz"
        },
        {
          "authorId": "6338293",
          "name": "S. Jauhar"
        },
        {
          "authorId": "3279862",
          "name": "S. Natesan"
        },
        {
          "authorId": "2234176827",
          "name": "R. Murray"
        },
        {
          "authorId": "145000039",
          "name": "David Taylor"
        }
      ],
      "abstract": "Abstract The process of stopping antipsychotics may be causally related to relapse, potentially linked to neuroadaptations that persist after cessation, including dopaminergic hypersensitivity. Therefore, the risk of relapse on cessation of antipsychotics may be minimized by more gradual tapering. There is converging evidence that suggests that adaptations to antipsychotic exposure can persist for months or years after stopping the medication—from animal studies, observation of tardive dyskinesia in patients, and the clustering of relapses in this time period after the cessation of antipsychotics. Furthermore, PET imaging demonstrates a hyperbolic relationship between doses of antipsychotic and D2 receptor blockade. We, therefore, suggest that when antipsychotics are reduced, it should be done gradually (over months or years) and in a hyperbolic manner (to reduce D2 blockade “evenly”): ie, reducing by one quarter (or one half) of the most recent dose of antipsychotic, equivalent approximately to a reduction of 5 (or 10) percentage points of its D2 blockade, sequentially (so that reductions become smaller and smaller in size as total dose decreases), at intervals of 3–6 months, titrated to individual tolerance. Some patients may prefer to taper at 10% or less of their most recent dose each month. This process might allow underlying adaptations time to resolve, possibly reducing the risk of relapse on discontinuation. Final doses before complete cessation may need to be as small as 1/40th a therapeutic dose to prevent a large decrease in D2 blockade when stopped. This proposal should be tested in randomized controlled trials."
    }
  ]
}