{
  "total": 262136,
  "offset": 0,
  "next": 5,
  "data": [
    {
      "paperId": "caf5ee81c8d4315c19feaca4e17bfbbc93717427",
      "url": "https://www.semanticscholar.org/paper/caf5ee81c8d4315c19feaca4e17bfbbc93717427",
      "title": "The Impact of Normalization Procedures on Surface Electromyography (sEMG) Data Integrity: A Study of Bicep and Tricep Muscle Signal Analysis",
      "year": 2025,
      "openAccessPdf": {
        "url": "https://doi.org/10.3390/s25092668",
        "status": "GOLD",
        "license": "CCBY",
        "disclaimer": "Notice: Paper or abstract available at https://pmc.ncbi.nlm.nih.gov/articles/PMC12074381, which is subject to the license by the author or copyright owner provided with this content. Please go to the source to verify the license and copyright information for your use."
      },
      "authors": [
        {
          "authorId": "2000249171",
          "name": "Sergio Fuentes del Toro"
        },
        {
          "authorId": "1484042872",
          "name": "J. Aranda-Ruiz"
        }
      ],
      "abstract": "Surface electromyography (sEMG) is a critical tool for quantifying muscle activity and inferring biomechanical function, enabling the detection of neuromuscular deficits through the analysis of electrical potential propagation. However, the inherent variability in sEMG signal amplitude, influenced by factors such as electrode placement, equipment characteristics, and individual physiology, necessitates robust normalization techniques for accurate comparative analysis. This study investigates the reliability and effectiveness of several normalization methods in the context of bicep and tricep muscle activation during dynamic and isometric exercises: maximum voluntary contraction (MVC), submaximal voluntary contraction (SMVC), remote voluntary contraction (RVC), mean, and peak normalization. We conducted a comprehensive experimental protocol involving healthy volunteers, capturing sEMG signals during controlled bicep curls, tricep extensions, and isometric contractions. The efficacy of each normalization method was evaluated based on its ability to minimize inter-subject variability and enhance signal consistency. Specifically, while SMVC, MVC, and RVC methods exhibited generally superior performance in normalizing bicep and tricep signals, the optimal method varied depending on the task and muscle, providing consistent and reliable data for biomechanical analysis. These results underscore the importance of selecting appropriate normalization techniques to improve the accuracy of sEMG-based assessments in clinical and sports biomechanics, contributing to the development of more effective rehabilitation protocols and performance enhancement strategies."
    },
    {
      "paperId": "67213758ce015d00b8378f5858b088b7fdf82d21",
      "url": "https://www.semanticscholar.org/paper/67213758ce015d00b8378f5858b088b7fdf82d21",
      "title": "Contribution of Lateral Bound and Triceps Dips Exercises to the Repulsion Results of Men in North Padang Lawas Regency",
      "year": 2024,
      "openAccessPdf": {
        "url": "https://jurnal.unimed.ac.id/2012/index.php/jias/article/download/49513/24734",
        "status": "HYBRID",
        "license": "CCBYSA",
        "disclaimer": "Notice: Paper or abstract available at https://api.unpaywall.org/v2/10.24114/jias.v1i2.49513?email=<INSERT_YOUR_EMAIL> or https://doi.org/10.24114/jias.v1i2.49513, which is subject to the license by the author or copyright owner provided with this content. Please go to the source to verify the license and copyright information for your use."
      },
      "authors": [
        {
          "authorId": "2300101752",
          "name": "Yan Indra Siregar"
        },
        {
          "authorId": "2314049917",
          "name": "Indah Lestari Nasution"
        }
      ],
      "abstract": "The proficiency in the sport of shot put is contingent upon the harmonious integration of strength, power, and technique. Notwithstanding its significance, athletes at Pembina Prestasi club in North Padang Lawas have demonstrated suboptimal outcomes, necessitating a targeted intervention to enhance their performance. The objective of study was to investigate the impact of lateral bound and tricep dip exercises on the performance of male athletes at Pembina Prestasi Club in the discipline of shot put. A pre-test and post-test experimental study was conducted on six male shot put athletes. The intervention comprised lateral bound and triceps dip exercises, conducted thrice weekly for 18 sessions over a six-week period. The efficacy of intervention was evaluated by measuring the participants' shot put performance before and after the intervention. The data were analyzed using descriptive statistics, normality tests, and paired sample t-tests. The results demonstrated a statistically significant enhancement in shot put performance subsequent to the intervention. The mean throwing distance increased from 6.40 meters to 7.74 meters, accompanied by a reduction in performance variability. The frequency distribution of performance categories exhibited a positive shift, with 66.33% of participants transitioning to the \"Good\" category following the intervention. A statistically significant difference was observed between the pre-test and post-test scores (p = 0.025). The implementation of lateral bound and tricep dip exercises effectively enhanced shot put performance among the studied athletes. The intervention not only improved throwing distances but also led to more consistent performances. Further research should explore these exercises with larger sample sizes and over extended periods. The integration of advanced technologies for more precise measurements and investigation of personalized training approaches based on individual athlete characteristics are recommended. Additionally, studies examining the long-term effects of these interventions and their applicability across different athlete demographics could further contribute to optimizing shot put."
    },
    {
      "paperId": "81f2152bc1ccf1455051b52e046f5e25ca0910d6",
      "url": "https://www.semanticscholar.org/paper/81f2152bc1ccf1455051b52e046f5e25ca0910d6",
      "title": "THE SPECIFCITY OF RESISTANCE TRAINING EXERCISES TO SWIMMING PERFORMANCE: A WAVEFORM ANALYSIS APPROACH",
      "year": 2019,
      "openAccessPdf": {
        "url": "",
        "status": null,
        "license": null
      },
      "authors": [
        {
          "authorId": "38320332",
          "name": "Emmet Crowley"
        },
        {
          "authorId": "6327309",
          "name": "J. Warmenhoven"
        },
        {
          "authorId": "145844692",
          "name": "A. Harrison"
        },
        {
          "authorId": "144958072",
          "name": "M. Lyons"
        }
      ],
      "abstract": null
    },
    {
      "paperId": "79e589b36b74217f1b3eb235c70aea9b06d82685",
      "url": "https://www.semanticscholar.org/paper/79e589b36b74217f1b3eb235c70aea9b06d82685",
      "title": "THE EFFECT OF KETTLEBELL TRAINING ON FLEXIBILITY IN YOUTH BOXERS (17 – 18 YEARS)",
      "year": 2024,
      "openAccessPdf": {
        "url": "https://doi.org/10.46827/ejpe.v11i5.5581",
        "status": "GOLD",
        "license": null,
        "disclaimer": "Notice: Paper or abstract available at https://api.unpaywall.org/v2/10.46827/ejpe.v11i5.5581?email=<INSERT_YOUR_EMAIL> or https://doi.org/10.46827/ejpe.v11i5.5581, which is subject to the license by the author or copyright owner provided with this content. Please go to the source to verify the license and copyright information for your use."
      },
      "authors": [
        {
          "authorId": "2190569331",
          "name": "Trisnar Adi Prabowo"
        }
      ],
      "abstract": "This study aims to analyze the effect of kettlebell training for six weeks on the flexibility of youth category boxing athletes. The design of this study was a pre-experimental two-group pretest-posttest. The sample of this study was 26 boxers (18 male and 8 female) divided into 13 boxers in the Kettlebell Group (KG) and 13 boxers in the Control Group (CG). Characteristics of boxers were as follow: aged 17.3±5.7; had 3.1±7.2 years training experience; height and weight of male boxers were 168.3±0.4 cm and 57.7±6.2 kg; height and weight of female boxers were 163.7±4.7 cm and 51.2±1.8 kg. Back flexibility test used sit and reach, and the shoulder and wrist flexibility test used static flexibility test-shoulder and wrist. This type of kettlebell exercises is Goblet Squat, Sumo Squat, Romanian Deadlift, Uneven Lunge, Bent Over Row, Over Head Press, Single Arm Chest, Tricep Diamond Press, Squat to Press. Then, the weight of the kettlebell is 4 kg, 6 kg, 8 kg; Intensity 60%-80%; while in CG the boxer only trains as usual. The results of the study using the t-test showed that there was an effect between back flexibility, shoulder flexibility and wrist flexibility in KG and CG (p<0.05). However, during the independent t-test, there was a difference in the results of KG and CG training on back flexibility of 0.027 or p<0.05; then there was a difference in the results of KG and CG training on shoulder and wrist flexibility of 0.009 or p<0.05. The results of this study can provide insight, especially for boxing trainers and athletes who practice kettlebell. However, it is necessary to pay attention in terms of volume and intensity so that the increase in training results using kettlebell can be significant.  Article visualizations:"
    },
    {
      "paperId": "cb6d2af7a7e6a86a1a75faf1be320406977f7c29",
      "url": "https://www.semanticscholar.org/paper/cb6d2af7a7e6a86a1a75faf1be320406977f7c29",
      "title": "Comparison of the brachial biceps and triceps activation during pec deck and bench press exercises with the values obtained during the 1rm test in the biceps curl and triceps pressdown",
      "year": 2008,
      "openAccessPdf": {
        "url": "",
        "status": null,
        "license": null
      },
      "authors": [
        {
          "authorId": "1394111842",
          "name": "M. Brentano"
        },
        {
          "authorId": "4617613",
          "name": "R. Spinelli"
        },
        {
          "authorId": "66767085",
          "name": "Tiago de Menezes Arrial"
        },
        {
          "authorId": "4192415",
          "name": "L. F. Kruel"
        }
      ],
      "abstract": null
    }
  ]
}