{
  "total": 644831,
  "offset": 0,
  "next": 3,
  "data": [
    {
      "paperId": "364b6f461a5fe4ee3e2655c3ddb01a675193d860",
      "url": "https://www.semanticscholar.org/paper/364b6f461a5fe4ee3e2655c3ddb01a675193d860",
      "title": "Assessment of Maximal Oxygen Uptake (VO2 Max) in Athletes and Nonathletes Assessed in Sports Physiology Laboratory",
      "year": 2024,
      "openAccessPdf": {
        "url": "https://assets.cureus.com/uploads/original_article/pdf/254748/20240526-30018-1ju49o7.pdf",
        "status": "GOLD",
        "license": "CCBY",
        "disclaimer": "Notice: Paper or abstract available at https://pmc.ncbi.nlm.nih.gov/articles/PMC11197041, which is subject to the license by the author or copyright owner provided with this content. Please go to the source to verify the license and copyright information for your use."
      },
      "authors": [
        {
          "authorId": "2204480611",
          "name": "Sujay Srivastava"
        },
        {
          "authorId": "2222221807",
          "name": "Shubhi Tamrakar"
        },
        {
          "authorId": "2269604214",
          "name": "Naveenkumar Nallathambi"
        },
        {
          "authorId": "2210457755",
          "name": "Suryadev Vrindavanam"
        },
        {
          "authorId": "2298426300",
          "name": "Roshan Prasad"
        },
        {
          "authorId": "2243262051",
          "name": "Ruchi Kothari"
        }
      ],
      "abstract": "Background: Athletes' physical prowess plays a crucial role in their ability to succeed in any sporting endeavor. Each athlete on the field must have an exceptional aerobic capacity to withstand fierce competition and stringent regulatory guidelines. Maximal oxygen uptake (VO2 max) is a quantitative measure of aerobic capacity and is regarded as one of the most reliable indicators of cardiorespiratory and overall physical fitness of an individual by sports physiologists. The study aims to evaluate the VO2 max of athletes in comparison with nonathletes during treadmill and lower limb cycle ergometry exercises as assessed in the Sports Physiology Laboratory of a rural medical college. Treadmill exercise and bicycle ergometer exercise are the most common to perform as indoor aerobic exercises to assess one's physical fitness. Both these tests are equally useful in eliciting cardiac and vascular responses, so both these modalities were used to assess aerobic fitness. Methods: This cross-sectional study, which examined participants aged 17-25, included 30 athletes (cases) and 120 age- and sex-matched controls. The VO2 max was evaluated using the Metabolic Module of Lab Chart Software, which was investigated through the PowerLab data acquisition system, AD Instruments (Bella Vista, NSW, Australia). Results: The mean age of male athletes was 20.51 ± 2.69 years and of female athletes was 20.53 ± 1.62 years. The mean and standard deviation of VO2 max on the treadmill for male cases was 52.37 ± 8.78 mL/kg/min and for female cases was 40.96 ± 4.06 mL/kg/min, and on a cycle ergometer for male cases was 45.21 ± 9.43 mL/kg/min and for female cases was 34.32 ± 5.12 mL/kg/min. For the control group, the mean age of control males was 21.2 ± 2.62 years and of control females was 20.36 ± 1.5 years. The mean and standard deviation of VO2 max on the treadmill for control males was 33.35 ± 3.77 mL/kg/min and for control females was 25.09 ± 7.07 mL/kg/min, and on the cycle ergometer for control males was 34.17 ± 2.75 mL/kg/min and for control females was 24.15 ± 5.35 mL/kg/min. Conclusion: This study showed significantly (p < 0.001) higher VO2 max levels in athletes of both genders compared to their age- and sex-matched controls upon exercise on the treadmill and cycle ergometer. This study underscores the significance of better cardiorespiratory fitness in athletes than nonathletes, giving pertinent insights about their aerobic capacity, which is precisely measured and expressed in terms of VO2."
    },
    {
      "paperId": "4ddee39271bf7272ef43aaad56428521574ba1f9",
      "url": "https://www.semanticscholar.org/paper/4ddee39271bf7272ef43aaad56428521574ba1f9",
      "title": "Normative Data of Maximal Oxygen Consumption (VO2 Max) among Healthy Young Adults: A Cross-sectional Study",
      "year": 2022,
      "openAccessPdf": {
        "url": "https://doi.org/10.7860/jcdr/2022/53660.16672",
        "status": "GOLD",
        "license": "CCBYNCND",
        "disclaimer": "Notice: Paper or abstract available at https://api.unpaywall.org/v2/10.7860/jcdr/2022/53660.16672?email=<INSERT_YOUR_EMAIL> or https://doi.org/10.7860/jcdr/2022/53660.16672, which is subject to the license by the author or copyright owner provided with this content. Please go to the source to verify the license and copyright information for your use."
      },
      "authors": [
        {
          "authorId": "84034966",
          "name": "K. Buttar"
        },
        {
          "authorId": "83910965",
          "name": "S. Kacker"
        },
        {
          "authorId": "37292502",
          "name": "N. Saboo"
        }
      ],
      "abstract": "Introduction: Maximal oxygen uptake (VO2 max) is the maximum quantity of oxygen a person can consume, and it remains constant over time despite increased exertion. The amount of oxygen consumed by the working muscles is measured by maximal oxygen consumption. The maximal oxygen uptake can be measured using maximal or submaximal tests, by gas analyser or field methods. The estimated VO2 max can be used to study people’s fitness and raise awareness about physical activity and lifestyle changes. Aim: To determine the VO2 max values using a direct method and provide normative data of VO2 max for healthy young adults in the age group of 18-25 years in both sexes. Materials and Methods: This cross-sectional study was approved by the Institutional Ethical Committee of RUHS College of Medical Sciences, Jaipur, Rajasthan, India. A total of 419 healthy young adults (male and female students) were recruited from RUHSCollege of Medical Sciences and MNIT College, Jaipur, Rajasthan, India from January 2019 to March 2020. Anthropometric data included age, height, weight according to the National Health and Nutrition Examination Survey (NHANES) and followed by measurement of VO2 max using a gas analyser of AD-Instrument (model-ML206). Collected data was entered in Microsoft excel. Paired t-test was used to compare mean and Standard Deviation (SD) of variables between male and female participants. The p-value of <0.05 was considered as significant. Results: The study was conducted on 419 apparently healthy college students (275 male and 144 female). The mean VO2 max value for males was 45.30±7.35 mL/kg/min and for females it was 35.71±5.29 mL/kg/min, which was found to be significantly higher in males than in females. The mean VO2 max among the largest proportion of the males (27.63%) falls in the ‘Good’ category of cardiorespiratory fitness scale and the largest proportion of the females (32.63%) falls in the ‘Fair’ category of cardiorespiratory fitness scale. Conclusion: The value of VO2 max was lower in the Indian population than in the western population, when value obtained from this study was compared with the standard normative value of cardiorespiratory fitness. Therefore, the values obtained in this study could serve as a normative for the Indian population."
    },
    {
      "paperId": "902d23da0e39753be670afe40fdfbf21ba93d746",
      "url": "https://www.semanticscholar.org/paper/902d23da0e39753be670afe40fdfbf21ba93d746",
      "title": "COVID-19 - does exercise prescription and maximal oxygen uptake (VO2 max) have a role in risk-stratifying patients?",
      "year": 2020,
      "openAccessPdf": {
        "url": "https://www.rcpjournals.org/content/clinmedicine/20/3/282.full.pdf",
        "status": "GOLD",
        "license": null,
        "disclaimer": "Notice: Paper or abstract available at https://api.unpaywall.org/v2/10.7861/clinmed.2020-0111?email=<INSERT_YOUR_EMAIL> or https://doi.org/10.7861/clinmed.2020-0111, which is subject to the license by the author or copyright owner provided with this content. Please go to the source to verify the license and copyright information for your use."
      },
      "authors": [
        {
          "authorId": "2055103792",
          "name": "Irfan Ahmed"
        }
      ],
      "abstract": "As the UK shields 'high risk' patients and enforces social distancing measures, patients will be at risk of significantly reducing physical activity levels. We explore the evidence base for COVID-19-specific recommendations and exercise interventions to 'precondition' patients prior to infection and appraise the role of maximal oxygen uptake (VO2 max) as a risk-stratifying triage tool. We conclude that structured exercise programmes can be used to maintain physical activity levels and prevent deconditioning and that VO2 max has the potential to be used as a clinically relevant triage tool during the COVID-19 outbreak."
    }
  ]
}