{
  "total": 775908,
  "offset": 0,
  "next": 5,
  "data": [
    {
      "paperId": "7b65b77f5817cd0b8f801ad15b5aca629be40d0f",
      "url": "https://www.semanticscholar.org/paper/7b65b77f5817cd0b8f801ad15b5aca629be40d0f",
      "title": "Combination of hyperoxia and a right-shifted HbO2 dissociation curve delays V̇O2 kinetics during maximal contractions in isolated muscle.",
      "year": 2023,
      "openAccessPdf": {
        "url": "",
        "status": "CLOSED",
        "license": null,
        "disclaimer": "Notice: Paper or abstract available at https://api.unpaywall.org/v2/10.1152/japplphysiol.00131.2023?email=<INSERT_YOUR_EMAIL> or https://doi.org/10.1152/japplphysiol.00131.2023, which is subject to the license by the author or copyright owner provided with this content. Please go to the source to verify the license and copyright information for your use."
      },
      "authors": [
        {
          "authorId": "3520736",
          "name": "B. Grassi"
        },
        {
          "authorId": "6266521",
          "name": "M. Hogan"
        },
        {
          "authorId": "9056499",
          "name": "H. K. Alemayehu"
        },
        {
          "authorId": "8476222",
          "name": "W. Aschenbach"
        },
        {
          "authorId": "21101551",
          "name": "J. Hamann"
        },
        {
          "authorId": "143929159",
          "name": "K. Kelley"
        },
        {
          "authorId": "145186010",
          "name": "P. Wagner"
        },
        {
          "authorId": "2011834",
          "name": "L. Gladden"
        }
      ],
      "abstract": "Acute enhancement of peripheral O2 diffusion may accelerate skeletal muscle O2 uptake (V̇O2) kinetics and lessen fatigue during transitions from rest to maximal contractions. Surgically isolated canine gastrocnemius muscles in situ (n=6) were studied during transitions from rest to 4-min of electrically stimulated isometric tetanic contractions at V̇O2peak, in two conditions: normoxia (CTRL) and hyperoxia (FIO2=1.00) + administration of a drug (RSR-13) which right-shifts the Hb-O2 dissociation curve (Hyperoxia+RSR13). Prior to and during contractions muscles were pump-perfused with blood at constant elevated flow ( ) and infused with the vasodilator adenosine. Arterial (CaO2) and muscle venous (CvO2) O2 concentrations were determined at rest and at 5-7 s intervals during contractions; V̇O2 was calculated as .(CaO2-CvO2). PO2 at 50% of Hb saturation (standard P50) and mean microvascular PO2 (PmvO2) were calculated by the Hill equation and a numerical integration technique. P50 (42±7 (x±SD) mmHg vs. 33±2, P=0.02) and PmvO2 (218±73 mmHg vs. 49±4, P=0.003) were higher Hyperoxia+RSR13. Muscle force and fatigue were not different in the two conditions. V̇O2 kinetics (monoexponential fitting) were unexpectedly slower in Hyperoxia+RSR13, due to a longer time delay (TD) (9.9±1.7 s vs. 4.4±2.2 [P=0.001]), whereas the time constant (t) was not different (13.7±4.3 s vs. 12.3±1.9 [P=0.37]); the mean response time (TD+t) was longer in Hyperoxia+RSR13 (23.6±3.5 s vs. 16.7±3.2 [P=0.003]). Increased O2 availability deriving, in Hyperoxia+RSR13, from higher PmvO2 and from presumably greater intramuscular O2 stores, did not accelerate the primary component of the V̇O2 kinetics, and delayed the metabolic activation of oxidative phosphorylation."
    },
    {
      "paperId": "75b72ed2b72251bd87cb4d43a705cbaa5d1b7506",
      "url": "https://www.semanticscholar.org/paper/75b72ed2b72251bd87cb4d43a705cbaa5d1b7506",
      "title": "Different categories of VO2 kinetics in the ‘extreme’ exercise intensity domain",
      "year": 2023,
      "openAccessPdf": {
        "url": "",
        "status": "CLOSED",
        "license": null,
        "disclaimer": "Notice: Paper or abstract available at https://api.unpaywall.org/v2/10.1080/02640414.2024.2316504?email=<INSERT_YOUR_EMAIL> or https://doi.org/10.1080/02640414.2024.2316504, which is subject to the license by the author or copyright owner provided with this content. Please go to the source to verify the license and copyright information for your use."
      },
      "authors": [
        {
          "authorId": "1391149487",
          "name": "O. Ozkaya"
        },
        {
          "authorId": "2240375336",
          "name": "Andrew M. Jones"
        },
        {
          "authorId": "4815579",
          "name": "M. Burnley"
        },
        {
          "authorId": "50810980",
          "name": "H. As"
        },
        {
          "authorId": "8805435",
          "name": "G. Balci"
        }
      ],
      "abstract": "ABSTRACT The aim of this study was to classify potential sub-zones within the extreme exercise domain. Eight well-trained male cyclists participated in this study. The upper boundary of the severe exercise domain (Pupper-bound) was estimated by constant-work-rate tests. Then three further extreme-work-rate tests were performed in discrete regions within the extreme domain: extreme-1) at a work-rate greater than the Pupper-bound providing an 80–110-s time to task failure; extreme-2) a 30-s maximal sprint; and extreme-3) a 4-s maximal sprint. Different functions were used to describe the behaviour of the ${{\\dot{\\rm V}}}{{\\rm{O}}_2}$V˙O2 kinetics over time. ${{\\dot{\\rm V}}}{{\\rm{O}}_2}$V˙O2 on-kinetics during extreme-1 exercise was best described by a single-exponential model (R2 ≥ 0.97; SEE ≤ 0.10; p < 0.001), and recovery ${{\\dot{\\rm V}}}{{\\rm{O}}_2}$V˙O2 decreased immediately after the termination of exercise. In contrast, ${{\\dot{\\rm V}}}{{\\rm{O}}_2}$V˙O2 on-kinetics during extreme-2 exercise was best fitted by a linear function (R2 ≥ 0.96; SEE ≤ 0.16; p < 0.001), and ${{\\dot{\\rm V}}}{{\\rm{O}}_2}$V˙O2 responses continued to increase during the first 10–20 s of recovery. During the extreme-3 exercise, ${{\\dot{\\rm V}}}{{\\rm{O}}_2}$V˙O2 could not be modelled due to inadequate data, and there was an M-shape recovery ${{\\dot{\\rm V}}}{{\\rm{O}}_2}$V˙O2 response with an exponential decay at the end. The ${{\\dot{\\rm V}}}{{\\rm{O}}_2}$V˙O2 response to exercise across the extreme exercise domain has distinct features and must therefore be characterised with different fitting strategies in order to describe the responses accurately."
    },
    {
      "paperId": "8194c10c4c21d45b6d62410476d49aaa9c2fc297",
      "url": "https://www.semanticscholar.org/paper/8194c10c4c21d45b6d62410476d49aaa9c2fc297",
      "title": "Ischaemic preconditioning improves upper-body endurance performance without altering V̇O2 kinetics",
      "year": 2022,
      "openAccessPdf": {
        "url": "",
        "status": "CLOSED",
        "license": null,
        "disclaimer": "Notice: Paper or abstract available at https://api.unpaywall.org/v2/10.1080/17461391.2022.2103741?email=<INSERT_YOUR_EMAIL> or https://doi.org/10.1080/17461391.2022.2103741, which is subject to the license by the author or copyright owner provided with this content. Please go to the source to verify the license and copyright information for your use."
      },
      "authors": [
        {
          "authorId": "2176752602",
          "name": "D. Bellini"
        },
        {
          "authorId": "2176753407",
          "name": "C. Chapman"
        },
        {
          "authorId": "2176752462",
          "name": "D. Peden"
        },
        {
          "authorId": "48959490",
          "name": "S. Hoekstra"
        },
        {
          "authorId": "2544789",
          "name": "R. Ferguson"
        },
        {
          "authorId": "6264123",
          "name": "C. Leicht"
        }
      ],
      "abstract": "ABSTRACT Purpose: Whilst pre-exercise ischaemic preconditioning (IPC) can improve lower-body exercise performance, its impact on upper-limb performance has received little attention. This study examines the influence of IPC on upper-body exercise performance and oxygen uptake (V̇O2) kinetics. Methods: Eleven recreationally-active males (24 ± 2 years) completed an arm-crank graded exercise test to exhaustion to determine the power outputs at the ventilatory thresholds (VT1 and VT2) and V̇O2peak (40.0 ± 7.4 ml·kg−1·min−1). Four main trials were conducted, two following IPC (4 × 5-min, 220 mmHg contralateral upper-limb occlusion), the other two following SHAM (4 × 5-min, 20 mmHg). The first two trials consisted of a 15-minute constant work rate and the last two time-to-exhaustion (TTE) arm-crank tests at the power equivalents of 95% VT1 (LOW) and VT2 (HIGH), respectively. Pulmonary V̇O2 kinetics, heart rate, blood-lactate concentration, and rating of perceived exertion were recorded throughout exercise. Results: TTE during HIGH was longer following IPC than SHAM (459 ± 115 vs 395 ± 102 s, p = .004). Mean response time and change in V̇O2 between 2-min and end exercise (ΔV̇O2) were not different between IPC and SHAM for arm-cranking at both LOW (80.3 ± 19.0 vs 90.3 ± 23.5 s [p = .06], 457 ± 184 vs 443 ± 245 ml [p = .83]) and HIGH (96.6 ± 31.2 vs 92.1 ± 24.4 s [p = .65], 617 ± 321 vs 649 ± 230 ml [p = .74]). Heart rate, blood-lactate concentration, and rating of perceived exertion did not differ between conditions (all p ≥ .05). Conclusion: TTE was longer following IPC during upper-body exercise despite unchanged V̇O2 kinetics. Highlights Whilst pre-exercise ischaemic preconditioning can improve lower-body exercise performance and alter V̇O2 kinetics, its impact on upper-limb performance has received little attention. An acute bout of ischaemic preconditioning prior to arm-crank ergometry exercise significantly improved time to exhaustion compared to a sham control condition. V̇O2 kinetics in response to ischaemic preconditioning remained unchanged, suggesting alternative mechanisms may explain performance improvements."
    },
    {
      "paperId": "877106ffe1b81747b440c9e779ae05e2f5bdc2b2",
      "url": "https://www.semanticscholar.org/paper/877106ffe1b81747b440c9e779ae05e2f5bdc2b2",
      "title": "Skeletal muscle biochemical origin of exercise intensity domains and their relation to whole-body V̇O2 kinetics",
      "year": 2022,
      "openAccessPdf": {
        "url": "https://portlandpress.com/bioscirep/article-pdf/42/8/BSR20220798/935837/bsr-2022-0798.pdf",
        "status": "GOLD",
        "license": "CCBY",
        "disclaimer": "Notice: Paper or abstract available at https://pmc.ncbi.nlm.nih.gov/articles/PMC9366749, which is subject to the license by the author or copyright owner provided with this content. Please go to the source to verify the license and copyright information for your use."
      },
      "authors": [
        {
          "authorId": "1981832",
          "name": "B. Korzeniewski"
        },
        {
          "authorId": "5787310",
          "name": "H. Rossiter"
        }
      ],
      "abstract": "Abstract This article presents the biochemical intra-skeletal-muscle basis of exercise intensity domains: moderate (M), heavy (H), very heavy (VH) and severe (S). Threshold origins are mediated by a ‘Pi double-threshold’ mechanism of muscle fatigue, which assumes (1) additional ATP usage, underlying muscle V̇O2 and metabolite slow components, is initiated when inorganic phosphate (Pi) exceeds a critical value (Picrit); (2) exercise is terminated because of fatigue, when Pi reaches a peak value (Pipeak); and (3) the Pi increase and additional ATP usage increase mutually stimulate each other forming a positive feedback. M/H and H/VH borders are defined by Pi on-kinetics in relation to Picrit and Pipeak. The values of the ATP usage activity, proportional to power output (PO), for the M/H, H/VH and VH/S borders are lowest in untrained muscle and highest in well-trained muscle. The metabolic range between the M/H and H/VH border (or ‘H space’) decreases with muscle training, while the difference between the H/VH and VH/S border (or ‘VH space’) is only weakly dependent on training status. The absolute magnitude of the muscle V̇O2 slow-component, absent in M exercise, rises gradually with PO to a maximal value in H exercise, and then decreases with PO in VH and S exercise. Simulations of untrained, physically active and well-trained muscle demonstrate that the muscle M/H border need not be identical to the whole-body M/H border determined from pulmonary V̇O2 on-kinetics and blood lactate, while suggesting that the biochemical origins of the H/VH border reside within skeletal muscle and correspond to whole-body critical power."
    },
    {
      "paperId": "721b5c7a53ae92211e6d30b3cd4e39de681bfcc3",
      "url": "https://www.semanticscholar.org/paper/721b5c7a53ae92211e6d30b3cd4e39de681bfcc3",
      "title": "Time limit and V̇O2 kinetics at maximal aerobic velocity: Continuous vs. intermittent swimming trials",
      "year": 2022,
      "openAccessPdf": {
        "url": "https://www.frontiersin.org/articles/10.3389/fphys.2022.982874/pdf",
        "status": "GOLD",
        "license": "CCBY",
        "disclaimer": "Notice: Paper or abstract available at https://pmc.ncbi.nlm.nih.gov/articles/PMC9562734, which is subject to the license by the author or copyright owner provided with this content. Please go to the source to verify the license and copyright information for your use."
      },
      "authors": [
        {
          "authorId": "10996753",
          "name": "T. A. Almeida"
        },
        {
          "authorId": "35483210",
          "name": "D. A. Massini"
        },
        {
          "authorId": "2184580104",
          "name": "O. T. S. Silva Junior"
        },
        {
          "authorId": "2231518769",
          "name": "Rubens Venditti Júnior"
        },
        {
          "authorId": "19548163",
          "name": "M. Espada"
        },
        {
          "authorId": "2064136406",
          "name": "A. G. Macedo"
        },
        {
          "authorId": "145073080",
          "name": "J. Reis"
        },
        {
          "authorId": "4742063",
          "name": "F. Alves"
        },
        {
          "authorId": "11393106",
          "name": "D. P. Pessôa Filho"
        }
      ],
      "abstract": "The time sustained during exercise with oxygen uptake (V̇O2) reaching maximal rates (V̇O2peak) or near peak responses (i.e., above second ventilatory threshold [t@VT2) or 90% V̇O2peak (t@90%V̇O2peak)] is recognized as the training pace required to enhance aerobic power and exercise tolerance in the severe domain (time-limit, tLim). This study compared physiological and performance indexes during continuous and intermittent trials at maximal aerobic velocity (MAV) to analyze each exercise schedule, supporting their roles in conditioning planning. Twenty-two well-trained swimmers completed a discontinuous incremental step-test for V̇O2peak, VT2, and MAV assessments. Two other tests were performed in randomized order, to compare continuous (CT) vs. intermittent trials (IT100) at MAV until exhaustion, to determine peak oxygen uptake (Peak-V̇O2) and V̇O2 kinetics (V̇O2K). Distance and time variables were registered to determine the tLim, t@VT2, and t@90%V̇O2peak tests. Blood lactate concentration ([La−]) was analyzed, and rate of perceived exertion (RPE) was recorded. The tests were conducted using a breath-by-breath apparatus connected to a snorkel for pulmonary gas sampling, with pacing controlled by an underwater visual pacer. V̇O2peak (55.2 ± 5.6 ml·kg·min−1) was only reached in CT (100.7 ± 3.1 %V̇O2peak). In addition, high V̇O2 values were reached at IT100 (96.4 ± 4.2 %V̇O2peak). V̇O2peak was highly correlated with Peak-V̇O2 during CT (r = 0.95, p < 0.01) and IT100 (r = 0.91, p < 0.01). Compared with CT, the IT100 presented significantly higher values for tLim (1,013.6 ± 496.6 vs. 256.2 ± 60.3 s), distance (1,277.3 ± 638.1 vs. 315.9 ± 63.3 m), t@VT2 (448.1 ± 211.1 vs. 144.1 ± 78.8 s), and t@90%V̇O2peak (321.9 ± 208.7 vs. 127.5 ± 77.1 s). V̇O2K time constants (IT100: 25.9 ± 9.4 vs. CT: 26.5 ± 7.5 s) were correlated between tests (r = 0.76, p < 0.01). Between CT and IT100, tLim were not related, and RPE (8.9 ± 0.9 vs. 9.4 ± 0.8) and [La−] (7.8 ± 2.7 vs. 7.8 ± 2.8 mmol·l−1) did not differ between tests. MAV is suitable for planning swimming intensities requiring V̇O2peak rates, whatever the exercise schedule (continuous or intermittent). Therefore, the results suggest IT100 as a preferable training schedule rather than the CT for aerobic capacity training since IT100 presented a significantly higher tLim, t@VT2, and t@90%V̇O2peak (∼757, ∼304, and ∼194 s more, respectively), without differing regards to [La−] and RPE. The V̇O2K seemed not to influence tLim and times spent near V̇O2peak in both workout modes."
    }
  ]
}